<!-- Generator: Adobe Illustrator 19.0.1, SVG Export Plug-In  -->
<svg version="1.1"
	 xmlns="http://www.w3.org/2000/svg" xmlns:xlink="http://www.w3.org/1999/xlink" xmlns:a="http://ns.adobe.com/AdobeSVGViewerExtensions/3.0/"
	 x="0px" y="0px" width="46.4px" height="43px" viewBox="0 0 46.4 43" style="overflow:scroll;enable-background:new 0 0 46.4 43;"
	 xml:space="preserve">
<style type="text/css">
	.st0{clip-path:url(#SVGID_2_);fill:#5B5B5B;}
	.st1{clip-path:url(#SVGID_2_);fill:#D32F2F;}
	.st2{clip-path:url(#SVGID_2_);fill:#3A3A3A;}
	.st3{clip-path:url(#SVGID_4_);fill:#5B5B5B;}
	.st4{clip-path:url(#SVGID_4_);fill:#D32F2F;}
	.st5{clip-path:url(#SVGID_4_);fill:#3A3A3A;}
</style>
<defs>
</defs>
<g>
	<defs>
		<rect id="SVGID_1_" x="0" y="0" width="46.4" height="43"/>
	</defs>
	<clipPath id="SVGID_2_">
		<use xlink:href="#SVGID_1_"  style="overflow:visible;"/>
	</clipPath>
	<path class="st0" d="M37.6,31c0,6.6-5.4,12-12,12c-6.6,0-12-5.4-12-12s5.4-12,12-12C32.2,19,37.6,24.4,37.6,31"/>
	<path class="st1" d="M25.6,7v12c5.5,0,10.2,3.7,11.6,8.8h9.2V7H25.6z"/>
	<path class="st2" d="M25.6,19v-2.5L16.1,0L0,27.8h14C15.4,22.8,20.1,19,25.6,19"/>
</g>
</svg>
