<!-- Generator: Adobe Illustrator 19.0.1, SVG Export Plug-In  -->
<svg version="1.1"
	 xmlns="http://www.w3.org/2000/svg" xmlns:xlink="http://www.w3.org/1999/xlink" xmlns:a="http://ns.adobe.com/AdobeSVGViewerExtensions/3.0/"
	 x="0px" y="0px" width="44px" height="48px" viewBox="0 0 44 48" style="overflow:scroll;enable-background:new 0 0 44 48;"
	 xml:space="preserve">
<style type="text/css">
	.st0{clip-path:url(#SVGID_2_);fill:#D32F2F;}
	.st1{clip-path:url(#SVGID_4_);fill:#D32F2F;}
	.st2{clip-path:url(#SVGID_4_);fill:#3A3A3A;}
	.st3{clip-path:url(#SVGID_6_);fill:#3A3A3A;}
	.st4{clip-path:url(#SVGID_8_);fill:#D32F2F;}
	.st5{clip-path:url(#SVGID_10_);fill:#D32F2F;}
	.st6{clip-path:url(#SVGID_10_);fill:#3A3A3A;}
	.st7{clip-path:url(#SVGID_12_);fill:#3A3A3A;}
</style>
<defs>
</defs>
<g>
	<defs>
		<rect id="SVGID_1_" x="0" width="44" height="48"/>
	</defs>
	<clipPath id="SVGID_2_">
		<use xlink:href="#SVGID_1_"  style="overflow:visible;"/>
	</clipPath>
	<path class="st0" d="M0.8,37.6c-0.3,0-0.6-0.2-0.7-0.5c-0.2-0.4,0-0.9,0.4-1.1l1.5-0.7c0.4-0.2,0.9,0,1.1,0.4
		c0.2,0.4,0,0.9-0.4,1.1l-1.5,0.7C1,37.6,0.9,37.6,0.8,37.6 M41.5,37.2c-0.1,0-0.2,0-0.3-0.1l-1.5-0.7c-0.4-0.2-0.6-0.7-0.4-1.1
		c0.2-0.4,0.7-0.6,1.1-0.4l1.5,0.7c0.4,0.2,0.6,0.7,0.4,1.1C42.1,37,41.8,37.2,41.5,37.2 M5.2,35.6c-0.3,0-0.6-0.2-0.7-0.5
		c-0.2-0.4,0-0.9,0.4-1.1l1.5-0.7c0.4-0.2,0.9,0,1.1,0.4c0.2,0.4,0,0.9-0.4,1.1l-1.5,0.7C5.4,35.6,5.3,35.6,5.2,35.6 M37.1,35.2
		c-0.1,0-0.2,0-0.3-0.1l-1.5-0.7c-0.4-0.2-0.6-0.7-0.4-1.1c0.2-0.4,0.7-0.6,1.1-0.4l1.5,0.7c0.4,0.2,0.6,0.7,0.4,1.1
		C37.7,35,37.4,35.2,37.1,35.2 M9.5,33.6c-0.3,0-0.6-0.2-0.7-0.5c-0.2-0.4,0-0.9,0.4-1.1l1.5-0.7c0.4-0.2,0.9,0,1.1,0.4
		c0.2,0.4,0,0.9-0.4,1.1l-1.5,0.7C9.7,33.6,9.6,33.6,9.5,33.6 M32.8,33.2c-0.1,0-0.2,0-0.3-0.1L31,32.4c-0.4-0.2-0.6-0.7-0.4-1.1
		c0.2-0.4,0.7-0.6,1.1-0.4l1.5,0.7c0.4,0.2,0.6,0.7,0.4,1.1C33.4,33,33.1,33.2,32.8,33.2 M13.9,31.6c-0.3,0-0.6-0.2-0.7-0.5
		c-0.2-0.4,0-0.9,0.4-1.1l1.5-0.7c0.4-0.2,0.9,0,1.1,0.4c0.2,0.4,0,0.9-0.4,1.1l-1.5,0.7C14.1,31.5,14,31.6,13.9,31.6 M28.4,31.1
		c-0.1,0-0.2,0-0.3-0.1l-1.5-0.7c-0.4-0.2-0.6-0.7-0.4-1.1c0.2-0.4,0.7-0.6,1.1-0.4l1.5,0.7c0.4,0.2,0.6,0.7,0.4,1.1
		C29,31,28.7,31.1,28.4,31.1 M18.2,29.6c-0.3,0-0.6-0.2-0.7-0.5c-0.2-0.4,0-0.9,0.4-1.1l1.5-0.7c0.4-0.2,0.9,0,1.1,0.4
		c0.2,0.4,0,0.9-0.4,1.1l-1.5,0.7C18.5,29.5,18.3,29.6,18.2,29.6 M24,29.1c-0.1,0-0.2,0-0.3-0.1l-1.4-0.7c-0.4-0.2-0.6-0.7-0.4-1.1
		c0.2-0.4,0.7-0.6,1.1-0.4l1.5,0.7c0.4,0.2,0.6,0.7,0.4,1.1C24.6,29,24.3,29.1,24,29.1"/>
</g>
<g>
	<defs>
		<rect id="SVGID_3_" x="0" width="44" height="48"/>
	</defs>
	<clipPath id="SVGID_4_">
		<use xlink:href="#SVGID_3_"  style="overflow:visible;"/>
	</clipPath>
	<path class="st1" d="M21.6,21.6c-0.4,0-0.8-0.4-0.8-0.8v-1.6c0-0.4,0.4-0.8,0.8-0.8c0.4,0,0.8,0.4,0.8,0.8v1.6
		C22.4,21.2,22,21.6,21.6,21.6 M21.6,16.8c-0.4,0-0.8-0.4-0.8-0.8v-1.6c0-0.4,0.4-0.8,0.8-0.8c0.4,0,0.8,0.4,0.8,0.8V16
		C22.4,16.4,22,16.8,21.6,16.8 M21.6,12c-0.4,0-0.8-0.4-0.8-0.8V9.6c0-0.4,0.4-0.8,0.8-0.8c0.4,0,0.8,0.4,0.8,0.8v1.6
		C22.4,11.6,22,12,21.6,12 M21.6,7.2c-0.4,0-0.8-0.4-0.8-0.8V4.8c0-0.4,0.4-0.8,0.8-0.8c0.4,0,0.8,0.4,0.8,0.8v1.6
		C22.4,6.8,22,7.2,21.6,7.2 M21.6,2.4c-0.4,0-0.8-0.4-0.8-0.8V0.8c0-0.4,0.4-0.8,0.8-0.8c0.4,0,0.8,0.4,0.8,0.8v0.8
		C22.4,2,22,2.4,21.6,2.4"/>
	<path class="st2" d="M21.6,48c-0.1,0-0.2,0-0.4-0.1L0.4,37.5C0.2,37.4,0,37.1,0,36.8V11.2c0-0.3,0.1-0.5,0.4-0.7
		c0.2-0.1,0.5-0.2,0.8-0.1l20.8,9.6c0.3,0.1,0.5,0.4,0.5,0.7v26.4c0,0.3-0.1,0.5-0.4,0.7C21.9,48,21.7,48,21.6,48 M1.6,36.3
		l19.2,9.6V21.3L1.6,12.4V36.3z"/>
</g>
<g>
	<defs>
		<rect id="SVGID_5_" x="0" width="44" height="48"/>
	</defs>
	<clipPath id="SVGID_6_">
		<use xlink:href="#SVGID_5_"  style="overflow:visible;"/>
	</clipPath>
	<path class="st3" d="M21.6,48c-0.1,0-0.3,0-0.4-0.1c-0.2-0.1-0.4-0.4-0.4-0.7V20.8c0-0.3,0.2-0.6,0.5-0.7l20.8-9.6
		c0.2-0.1,0.5-0.1,0.8,0.1c0.2,0.1,0.4,0.4,0.4,0.7v25.6c0,0.3-0.2,0.6-0.4,0.7L22,47.9C21.8,48,21.7,48,21.6,48 M22.4,21.3v24.6
		l19.2-9.6V12.4L22.4,21.3z"/>
	<path class="st3" d="M21.6,21.6c-0.1,0-0.2,0-0.3-0.1L0.5,11.9C0.2,11.8,0,11.5,0,11.2c0-0.3,0.2-0.6,0.4-0.7L21.2,0.1
		C21.5,0,21.7,0,22,0.1l20.8,10.4c0.3,0.1,0.4,0.4,0.4,0.7c0,0.3-0.2,0.6-0.5,0.7l-20.8,9.6C21.8,21.6,21.7,21.6,21.6,21.6
		 M2.6,11.2l19,8.7l19-8.7l-19-9.5L2.6,11.2z"/>
</g>
</svg>
