<?xml version="1.0" encoding="utf-8"?>
<!-- Generator: Adobe Illustrator 21.0.2, SVG Export Plug-In . SVG Version: 6.00 Build 0)  -->
<svg version="1.1" id="Layer_1" xmlns="http://www.w3.org/2000/svg" xmlns:xlink="http://www.w3.org/1999/xlink" x="0px" y="0px"
	 viewBox="0 0 300 112" style="enable-background:new 0 0 300 112;" xml:space="preserve">
<style type="text/css">
	.st0{fill:#D32F2F;}
	.st1{fill:#FFFFFF;}
	.st2{fill:#606060;}
</style>
<g>
	<g>
		<path class="st0" d="M56.6,64.4c-2.7-1.6-6.1-0.8-7.6,1.7c-1,1.8-1,3.2-0.9,4.5c0.1,1.1,0.1,2.3-0.5,3.5c-0.1,0.1-0.1,0.3-0.1,0.5
			l4.4,2.6c0.1,0,0.3-0.1,0.4-0.3c0.7-1.1,1.8-1.6,2.8-2.1c1.2-0.6,2.5-1.2,3.6-2.9C60.2,69.4,59.3,66,56.6,64.4z M54.9,71
			c0,0,0,0.1-0.1,0.1c0,0,0,0-0.1,0.1c-0.9,0.5-1.5,1-2.1,1.7c-0.6,0.6-1,1.4-1.6,2.4c-0.1,0.1-0.3,0.2-0.4,0.1
			c-0.1-0.1-0.2-0.2-0.1-0.4c0.6-1.1,1.1-1.8,1.7-2.5c0.4-0.5,0.9-0.9,1.5-1.3c-0.3,0-0.6-0.1-0.8-0.6L53,70.3l-0.2,0
			c-0.4,0.1-0.7-0.1-0.9-0.4c-0.1,0.7-0.2,1.4-0.4,2c-0.3,0.8-0.7,1.6-1.3,2.7c-0.1,0.1-0.3,0.2-0.4,0.1c-0.1-0.1-0.2-0.2-0.1-0.4
			c0.6-1,1-1.8,1.3-2.6c0.3-0.8,0.4-1.6,0.4-2.6c0-0.2,0.1-0.3,0.3-0.3c0.1,0,0.2,0,0.2,0.1c0.1,0.1,0.2,0.3,0.3,0.4l0,0
			c0.1,0.2,0.3,0.4,0.5,0.4l0.4-0.1c0.1,0,0.1,0,0.2,0c0.1,0,0.2,0.1,0.2,0.2c0,0,0,0,0,0l0.1,0.3c0.1,0.2,0.3,0.2,0.6,0.2h0
			c0.2,0,0.3,0,0.5,0.1c0.1,0,0.2,0,0.2,0.1C54.9,70.8,55,70.9,54.9,71C54.9,70.9,54.9,71,54.9,71z M57.4,72.3
			c-0.2,0.2-0.4,0.4-0.6,0.5c-0.2,0.2-0.5,0.3-0.7,0.4c-0.2,0.1-0.3,0-0.4-0.2c-0.1-0.2,0-0.3,0.2-0.4c0.2-0.1,0.4-0.2,0.6-0.3
			c0.2-0.1,0.4-0.3,0.6-0.5c0.1-0.1,0.3-0.1,0.5,0C57.5,72,57.5,72.2,57.4,72.3z M58.5,70.1c0,0.3-0.1,0.5-0.2,0.8
			c-0.1,0.2-0.3,0.2-0.4,0.2c-0.2,0-0.3-0.2-0.2-0.4c0.1-0.2,0.1-0.4,0.2-0.7c0-0.2,0.1-0.5,0.1-0.7s0-0.5-0.1-0.7
			c0-0.2-0.1-0.5-0.2-0.7c-0.1-0.2-0.2-0.4-0.3-0.6c-0.1-0.2-0.3-0.4-0.5-0.6c-0.1-0.1-0.1-0.3,0-0.5c0.1-0.1,0.3-0.1,0.5,0
			c0.2,0.2,0.4,0.4,0.5,0.6c0.2,0.2,0.3,0.5,0.4,0.7c0.1,0.3,0.2,0.5,0.2,0.8c0.1,0.3,0.1,0.5,0.1,0.8S58.6,69.8,58.5,70.1z"/>
		<path class="st0" d="M65.4,30.6c-0.7,0-1.4,0-2.1,0.1c-4.2-6.5-11.4-10.5-19.3-10.5v0c0,0,0,0,0,0s0,0,0,0v0
			c-7.9,0-15.1,4-19.3,10.5c-0.7-0.1-1.4-0.1-2.1-0.1c-8.7,0-15.8,7.1-15.8,15.8c0,6.6,4.1,12.3,9.9,14.7V76c0,8.6,7,15.6,15.5,15.8
			v0c4.5,0,8.5-2.3,11.7-4.9c3.2,2.7,7.1,4.9,11.7,4.9v0c8.6-0.1,15.5-7.1,15.5-15.8V61.1c5.8-2.3,9.9-8,9.9-14.6
			C81.2,37.7,74.1,30.6,65.4,30.6z M66.2,57.1v3.3v1.8V76h0c0,5.9-4.8,10.7-10.7,10.7c-2.9-0.1-5.6-1.6-7.8-3.4
			c2.3-2.7,3.7-5,3.8-5.2l-4.4-2.6c0,0-1.2,1.9-3,4.2c-1.9-2.2-3-4.1-3-4.2l0,0v-0.1l-4.3,2.6l0,0l0,0c0.1,0.2,1.5,2.5,3.8,5.2
			c-2.3,1.9-5,3.4-7.8,3.4c-5.9,0-10.7-4.8-10.7-10.7h0V62.2v-1.8v-3.3c-5.5-0.4-9.9-5-9.9-10.7c0-5.9,4.8-10.7,10.7-10.7
			c0.9,0,1.8,0.1,2.7,0.3c0.8,0.2,1.5,0.5,2.2,0.8c0.3-1,0.7-2,1.2-2.9c0-0.1,0.1-0.2,0.2-0.3c0-0.1,0.1-0.1,0.1-0.2
			c0.1-0.1,0.1-0.2,0.2-0.3c0-0.1,0.1-0.1,0.1-0.2c0.1-0.1,0.1-0.2,0.2-0.3c0-0.1,0.1-0.1,0.1-0.2c3-4.4,8-7.3,13.7-7.3
			c0.2,0,0.5,0,0.7,0v0c0,0,0,0,0,0c0,0,0,0,0,0v0c0.2,0,0.5,0,0.7,0c5.7,0,10.7,2.9,13.7,7.3c0,0.1,0.1,0.1,0.1,0.2
			c0.1,0.1,0.1,0.2,0.2,0.3c0,0.1,0.1,0.1,0.1,0.2c0.1,0.1,0.1,0.2,0.2,0.3c0,0.1,0.1,0.1,0.1,0.2c0.1,0.1,0.1,0.2,0.2,0.3
			c0.5,0.9,0.9,1.9,1.2,2.9c0.7-0.3,1.4-0.6,2.2-0.8c0.9-0.2,1.8-0.3,2.7-0.3c5.9,0,10.7,4.8,10.7,10.7
			C76.1,52.1,71.7,56.7,66.2,57.1z"/>
		<g>
			<polygon class="st0" points="35.8,71.5 37.9,72.9 36,74.1 			"/>
		</g>
	</g>
	<g>
		<path class="st2" d="M88.3,77.7c-0.9,0-1.6-0.3-2.1-0.8c-0.6-0.5-0.8-1.2-0.8-2.1c0-0.6,0.1-1.3,0.3-1.8l7.1-19.3
			c1-2.7,2.6-4,4.8-4c2.2,0,3.8,1.2,4.6,3.6l6.9,19.8c0.2,0.4,0.3,0.8,0.3,1.1s0.1,0.6,0.1,0.9c0,0.9-0.3,1.6-0.9,2.1
			c-0.6,0.5-1.3,0.8-2.2,0.8c-1.6,0-2.7-1-3.3-3l-5.7-18.4h-0.1l-6,18.6C90.7,76.8,89.7,77.7,88.3,77.7z"/>
		<path class="st2" d="M115.4,57.9c0.6-1.7,1.5-3.2,2.7-4.5c1.2-1.2,2.5-2.2,4.2-2.9c1.6-0.7,3.4-1,5.3-1c1.9,0,3.7,0.3,5.3,1
			c1.6,0.7,3,1.6,4.2,2.9c1.2,1.2,2.1,2.7,2.7,4.5c0.6,1.7,1,3.7,1,5.8c0,2.1-0.3,4.1-0.9,5.8c-0.6,1.7-1.5,3.2-2.6,4.4
			c-1.1,1.2-2.5,2.2-4.2,2.8c-1.6,0.7-3.4,1-5.4,1s-3.8-0.3-5.4-1c-1.6-0.7-3-1.6-4.1-2.8c-1.1-1.2-2-2.7-2.7-4.4
			c-0.6-1.7-1-3.6-1-5.8C114.4,61.5,114.7,59.6,115.4,57.9z M122.9,69.8c1.2,1.5,2.8,2.2,4.7,2.2c1.9,0,3.5-0.7,4.7-2.2
			c1.2-1.5,1.8-3.4,1.8-6c0-2.6-0.6-4.7-1.8-6.2c-1.2-1.5-2.8-2.2-4.7-2.2c-1.9,0-3.5,0.8-4.7,2.2c-1.2,1.5-1.8,3.6-1.8,6.2
			C121.1,66.3,121.7,68.3,122.9,69.8z"/>
		<path class="st2" d="M147.6,51c0.6-0.7,1.7-1,3.5-1h7c3,0,4.5,1,4.5,2.9c0,1.9-1.5,2.9-4.5,2.9H153v17.5c0,2.9-1,4.4-3.1,4.4
			s-3.1-1.5-3.1-4.4v-19C146.8,52.8,147.1,51.7,147.6,51z"/>
		<path class="st2" d="M169.2,57.9c0.6-1.7,1.5-3.2,2.7-4.5c1.2-1.2,2.5-2.2,4.2-2.9c1.6-0.7,3.4-1,5.3-1c1.9,0,3.7,0.3,5.3,1
			c1.6,0.7,3,1.6,4.2,2.9c1.2,1.2,2.1,2.7,2.7,4.5c0.6,1.7,1,3.7,1,5.8c0,2.1-0.3,4.1-0.9,5.8c-0.6,1.7-1.5,3.2-2.6,4.4
			c-1.1,1.2-2.5,2.2-4.2,2.8c-1.6,0.7-3.4,1-5.4,1c-2,0-3.8-0.3-5.4-1c-1.6-0.7-3-1.6-4.1-2.8c-1.1-1.2-2-2.7-2.7-4.4
			c-0.6-1.7-1-3.6-1-5.8C168.2,61.5,168.5,59.6,169.2,57.9z M176.7,69.8c1.2,1.5,2.8,2.2,4.7,2.2c1.9,0,3.5-0.7,4.7-2.2
			c1.2-1.5,1.8-3.4,1.8-6c0-2.6-0.6-4.7-1.8-6.2c-1.2-1.5-2.8-2.2-4.7-2.2c-1.9,0-3.5,0.8-4.7,2.2c-1.2,1.5-1.8,3.6-1.8,6.2
			C174.9,66.3,175.5,68.3,176.7,69.8z"/>
		<path class="st2" d="M230.4,49.6c2.1,0,3.2,1.5,3.2,4.5v18.9c0,3-1.4,4.5-4.3,4.5h-24c-2.8,0-4.3-1.5-4.3-4.5V54
			c0-3,1-4.5,3.1-4.5c2.1,0,3.1,1.5,3.1,4.5v18.1h7.3V54c0-1.5,0.2-2.6,0.6-3.3c0.4-0.7,1.1-1.1,2.2-1.1c1.1,0,1.8,0.4,2.2,1.1
			c0.4,0.7,0.6,1.9,0.6,3.3v18.1h7.3V54C227.3,51.1,228.4,49.6,230.4,49.6z"/>
		<path class="st2" d="M255.5,52.9c0,1.9-1.5,2.9-4.5,2.9H246v4.9h4.4c2.9,0,4.4,1,4.4,2.9c0,1.9-1.5,2.9-4.4,2.9H246v5.1h5.3
			c3,0,4.5,1,4.5,2.9c0,1.9-1.5,2.9-4.5,2.9H244c-1.7,0-2.8-0.3-3.4-0.9c-0.6-0.6-0.9-1.6-0.9-3.1V54.3c0-1.5,0.3-2.6,0.8-3.3
			c0.6-0.7,1.7-1,3.5-1h7C254,49.9,255.5,50.9,255.5,52.9z"/>
		<path class="st2" d="M275.6,76.8c-0.5-0.6-0.7-1.6-0.7-3.1v-0.9h-2c-1.5,0-2.8-0.2-4.1-0.7c-1.2-0.4-2.3-1.1-3.2-1.9
			c-0.9-0.8-1.6-1.8-2.1-3s-0.7-2.4-0.7-3.8c0-1.4,0.2-2.7,0.7-3.8c0.5-1.1,1.2-2.1,2-3c0.9-0.8,1.9-1.5,3.2-1.9
			c1.3-0.5,2.6-0.7,4.2-0.7h2v-0.6c0-1.4,0.3-2.3,0.8-2.9c0.5-0.6,1.3-0.9,2.2-0.9c1,0,1.8,0.3,2.3,0.9c0.5,0.6,0.8,1.5,0.8,2.9v0.6
			h2c1.5,0,2.9,0.2,4.2,0.7c1.2,0.5,2.3,1.1,3.2,1.9c0.9,0.8,1.6,1.8,2.1,3c0.5,1.1,0.7,2.4,0.7,3.8c0,1.4-0.3,2.7-0.8,3.8
			c-0.5,1.2-1.2,2.2-2.1,3c-0.9,0.8-2,1.5-3.2,1.9c-1.2,0.4-2.6,0.7-4.1,0.7h-2v0.9c0,1.5-0.3,2.5-0.8,3.1c-0.5,0.6-1.3,0.9-2.3,0.9
			C276.8,77.7,276.1,77.4,275.6,76.8z M273.2,59c-2.8,0-4.2,1.5-4.2,4.4c0,2.9,1.4,4.3,4.2,4.3h1.7V59H273.2z M282.6,67.7
			c2.8,0,4.2-1.4,4.2-4.3c0-2.9-1.4-4.4-4.2-4.4h-1.8v8.7H282.6z"/>
	</g>
</g>
</svg>
