<?xml version="1.0" encoding="UTF-8" standalone="no"?>
<!-- Generator: Adobe Illustrator 16.2.0, SVG Export Plug-In . SVG Version: 6.00 Build 0)  -->
<!DOCTYPE svg  PUBLIC '-//W3C//DTD SVG 1.1//EN'  'http://www.w3.org/Graphics/SVG/1.1/DTD/svg11.dtd'>
<svg id="Capa_1" xmlns="http://www.w3.org/2000/svg" xml:space="preserve" height="1500px" viewBox="0 0 1500 1500" width="1500px" version="1.1" y="0px" x="0px" xmlns:xlink="http://www.w3.org/1999/xlink" enable-background="new 0 0 1500 1500">
<path d="m4195.6 861.43c-1.402-1.402-1.402-3.678 0-5.083l10.232-10.233-5.193-0.422c-0.885-0.074-1.669-0.459-2.252-1.041-0.721-0.723-1.131-1.74-1.041-2.834 0.166-1.979 1.898-3.451 3.873-3.291l12.939 1.054c1.758 0.146 3.146 1.539 3.291 3.292l1.055 12.938c0.162 1.979-1.313 3.71-3.289 3.873-1.979 0.16-3.71-1.313-3.874-3.292l-0.421-5.19-10.234 10.232c-1.5 1.4-3.7 1.4-5.1-0.01zm-13.3 8.15l-10.231 10.232-0.425-5.192c-0.162-1.979-1.896-3.453-3.873-3.29-1.979 0.163-3.451 1.896-3.292 3.871l1.054 12.94c0.145 1.754 1.539 3.146 3.293 3.289l12.938 1.054c1.976 0.163 3.71-1.313 3.873-3.287 0.091-1.096-0.321-2.113-1.04-2.836-0.584-0.584-1.365-0.968-2.25-1.04l-5.195-0.424 10.232-10.233c1.408-1.405 1.408-3.683 0.003-5.082-1.4-1.41-3.7-1.41-5.1 0zm32.9 1.74c-1.096-0.091-2.113 0.318-2.833 1.039-0.585 0.584-0.97 1.366-1.04 2.252l-0.425 5.192-10.231-10.232c-1.408-1.405-3.684-1.405-5.082 0-1.41 1.401-1.41 3.68 0 5.084l10.231 10.229-5.198 0.422c-1.975 0.164-3.445 1.899-3.287 3.878 0.162 1.976 1.896 3.45 3.877 3.289l12.936-1.056c1.754-0.143 3.146-1.535 3.293-3.288l1.051-12.941c0-1.96-1.4-3.7-3.4-3.86zm-38-25.21l5.193-0.422c1.979-0.162 3.449-1.897 3.291-3.875-0.166-1.979-1.897-3.451-3.875-3.291l-12.941 1.054c-1.75 0.143-3.146 1.536-3.287 3.292l-1.055 12.938c-0.162 1.979 1.313 3.711 3.289 3.873 1.09 0.088 2.111-0.318 2.834-1.043 0.586-0.582 0.971-1.361 1.041-2.249l0.424-5.194 10.234 10.232c1.402 1.406 3.682 1.406 5.082 0 1.407-1.401 1.407-3.679 0.003-5.083l-10.1-10.24z" fill="none"/>
<path d="m486.1 1e3h239.67c10.482 0 18.991-8.363 18.991-18.689v-14.254h62.988l16.652 24.622c3.532 5.194 9.454 8.321 15.813 8.321h314.16c9.559 0 17.619-6.981 18.847-16.29l3.489-26.689c5.466-41.742 3.272-76.504-6.7-106.3-10.243-30.637-28.953-55.498-55.611-73.928-42.854-29.65-96.576-36.943-153.46-44.693-24.704-3.376-50.24-6.855-73.854-12.342-2.649-0.624-5.288-0.645-7.804-0.188-3.885-2.441-8.675-3.513-13.566-2.628-0.718 0.135-1.425 0.291-2.13 0.445-2.142-3.179-5.258-5.755-9.163-7.188-10.036-3.72-18.783-7.771-26.741-12.466-0.862-0.511-1.768-0.915-2.682-1.269-3.179-4.613-8.353-7.626-14.087-8.104-1.008-2.286-2.482-4.415-4.445-6.233-6.275-5.808-11.709-12.197-16.603-19.531-2.432-3.646-5.933-6.171-9.828-7.448-0.333-0.521-0.707-1.028-1.091-1.507 1.257-4.03 1.153-8.499-0.634-12.675-10.306-24.289-16.021-55.569-16.997-92.938l-0.778-29.816c-0.26-10.13-8.695-18.212-19.002-18.212h-228.48c-10.493 0-19.002 8.373-19.002 18.71v242.48l-26.699 116.9c-0.312 1.372-0.468 2.764-0.468 4.146l0.188 99.121c0.02 10.31 8.51 18.65 19.01 18.65zm45.5-232.63c0.313-1.34 0.458-2.732 0.458-4.104v-225.88h190.97l0.313 11.595c1.049 40.642 7.376 75.435 18.763 103.52-39.707 16.861-68.339 59.664-71.892 65.159-5.621 8.706-3.014 20.229 5.827 25.775 3.158 1.983 6.7 2.93 10.191 2.93 6.265 0 12.404-3.055 16.04-8.623 7.896-12.145 32.311-42.823 57.639-52.018 3.947 5.662 8.271 11.013 12.902 15.999-32.028 19.583-54.261 52.827-57.367 57.616-5.621 8.706-3.013 20.248 5.828 25.797 3.169 1.974 6.701 2.92 10.191 2.92 6.265 0 12.403-3.044 16.041-8.613 7.874-12.134 32.227-42.729 57.513-51.986 0.956 0.873 2.005 1.662 3.169 2.35 4.457 2.628 9.101 5.08 13.952 7.396-26.325 19.635-44.132 46.272-46.886 50.511-5.62 8.706-3.014 20.238 5.828 25.786 3.158 1.975 6.69 2.931 10.182 2.931 6.274 0 12.415-3.045 16.041-8.623 8.685-13.36 37.338-49.108 65.211-54.097h0.031c1.744 1.091 3.688 1.922 5.808 2.421 25.359 5.892 51.81 9.495 77.377 12.986 52.194 7.106 101.5 13.817 136.82 38.241 40.372 27.916 55.581 75.311 46.47 144.88l-1.351 10.368h-287.2l-16.664-24.622c-3.521-5.194-9.453-8.321-15.812-8.321h-92.15c-10.492 0-19.012 8.362-19.012 18.679v14.266h-201.72l-0.146-78.354 26.7-116.92z" fill="#D24B4C"/>
</svg>
