<?xml version="1.0" encoding="utf-8"?>
<!-- Generator: Adobe Illustrator 19.2.1, SVG Export Plug-In . SVG Version: 6.00 Build 0)  -->
<svg version="1.1" id="Layer_1" xmlns="http://www.w3.org/2000/svg" xmlns:xlink="http://www.w3.org/1999/xlink" x="0px" y="0px"
	 viewBox="0 0 285 404.6" style="enable-background:new 0 0 285 404.6;" xml:space="preserve">
<style type="text/css">
	.st0{opacity:0.67;fill:#006278;enable-background:new    ;}
	.st1{fill:#F9AE81;}
	.st2{fill:#F79E77;}
	.st3{opacity:0.23;fill:#9F665C;enable-background:new    ;}
	.st4{fill:#CDD2D8;}
	.st5{fill:#203A49;}
	.st6{fill:#AFAFCB;}
	.st7{fill:#F49772;}
	.st8{fill:#7C3C3D;}
	.st9{fill:#F6E6D7;}
	.st10{fill:#DE705C;}
	.st11{fill:#535866;}
	.st12{opacity:0.4;fill:#F6E7D7;enable-background:new    ;}
	.st13{fill:#6E767E;}
	.st14{fill:#E8D5CC;}
	.st15{fill:#F6E7D7;}
	.st16{fill:#D4D7DC;}
	.st17{opacity:0.25;fill:#D5E5E3;enable-background:new    ;}
	.st18{display:none;opacity:0.1;enable-background:new    ;}
	.st19{display:inline;}
	.st20{fill:#FF0000;}
</style>
<g id="Guides">
</g>
<g>
	<g>
		<ellipse class="st0" cx="139.6" cy="379.5" rx="130.6" ry="17.6"/>
		<path class="st1" d="M63,166c0,0-20.8-19.5-20.8-37.7c4.4-4,18.6-14.6,21.3-14.6s2.7-8-6.6-8.4c-9.3,0.4-16.8,10.2-16.8,10.2
			s-4.9-16-13.3-11.5c-4.4,4-2.7,7.5-2.7,7.5s-5.8-6.6-7.5-1.8c-1.8,4.9-0.4,7.5-0.4,7.5s-7.1-1.8-5.3,7.4c-1.8,0-6.5,7.7,4.1,12.4
			c1.2,2.1,2.7,8.3,9.5,5.3c0,0-15.4,57.7,27.2,65.7c19.5-0.9,23-23.5,23-23.5l-4.9-8.4L63,166z"/>
		<path class="st2" d="M51.5,208.1c1.5-0.1,2.8-0.3,4.1-0.6l3.4-11c-35.9,9.7-34.7-54.2-34.7-54.2S9,200.1,51.5,208.1z"/>
		<path class="st3" d="M69.7,176.2l-2-3c-10.8,6.8-29.8,14.9-45.6,0c1.7,15.1,8.6,31,29.4,34.9c19.5-0.9,23-23.5,23-23.5L69.7,176.2
			z"/>
		<path class="st4" d="M100.7,141.6c0,0-34.6,22.2-37.7,24.4c2.2,4.9,6.6,10.2,6.6,10.2L100.7,141.6z"/>
		<path class="st5" d="M162.7,306c0,0,23,35.4,34.6,62.9c3.5,0.9,14.2-0.9,14.2-0.9s-10.6-68.2-9.7-78
			C191.1,292.7,162.7,306,162.7,306z"/>
		<path class="st5" d="M50.2,301.5c0,0,19.5,62,22.2,71.8c4,0.9,10.6-0.9,10.6-0.9s1.8-53.2,3.5-64.7
			C85.6,305.1,50.2,301.5,50.2,301.5z"/>
		<path class="st4" d="M106.5,137.2c0,0-86.5,52.7-62.9,171.5c4.7,4.7,21.9,14.8,33.1,16.5c2.4-9.5,4.7-18.3,4.7-18.3l10.6,23
			c0,0,61.4,12.4,111.1-36c-4.1-21.3-9.5-86.8,11.2-134.7c-1.2-4.1-12.4-24.8-33.1-35.4C168.2,127.9,106.5,137.2,106.5,137.2z"/>
		<path class="st1" d="M189.3,101.3c-1.5-2.3-5.1-2.8-8.6-2.6c0.2-3,0.5-6.2,1-9.4v0.1c-0.1,0-0.2-0.1-0.3-0.1
			c-31-23.9-62.9-16.8-62.9-16.8s-5.3,10.6-5.3,18.6c-1.3,0.9-4,22.4-4,22.4s-7.7,15.6,0.6,27.4c6.8,0,27.2,4.1,70.9-14.8
			c-0.3-3.2-0.6-9.3-0.5-16.8C185.2,107.5,191.5,104.6,189.3,101.3z"/>
		<path class="st5" d="M74.4,371.8c0,0-17.1,10.6-25.4,12.4c-0.6,3,4.7,4.1,11.8,1.8c7.1-2.4,18.9-11.8,18.9-14.2
			S74.4,371.8,74.4,371.8z"/>
		<path class="st5" d="M207.3,367.4c0,0,17.1,10.6,25.4,12.4c0.6,3-4.7,4.1-11.8,1.8c-7.1-2.4-18.9-11.8-18.9-14.2
			C201.9,365,207.3,367.4,207.3,367.4z"/>
		<path class="st6" d="M172,207.2c0,0,11.1,20.8,18.2,54.5c0,0-9.7,56.4-95.8,68.8c7.2,3,75.4,3.4,108.7-36.6
			c-2.2-29.5-4-65.6-2.8-75C193.1,216.5,172,207.2,172,207.2z"/>
		<path class="st7" d="M169.5,95.4c0,0-13.6,49-52.6,41.9c-4.2-1.1-7.5-2.2-10.3-3.3c0.6,2.3,1.6,4.7,3.1,6.9
			c6.8,0,27.2,4.1,70.9-14.8c-0.5-4.8-0.9-15.8,0.2-28.7L169.5,95.4z"/>
		<path class="st8" d="M167.6,76.9c0,0-0.4,21.3-2.2,27.9c2.7,0,10.6,0,10.6,0l4-5.8c0,0,13.3-1.8,11.5-7.1
			c-1.8-5.3-9.9-2.6-9.9-2.6L167.6,76.9z"/>
		<path class="st9" d="M178.7,139.4l-71.8,13.3l-3.5-8c0,0-23.9,18.6-41,39.4c-3.5,5.6-6.3,11.7-8.3,17.9
			c4.4,11.3,12.2,32.5,7.9,30.4c-4.1-2.1-9.4-6.7-12.2-9.3c-2,20.5,2.4,38.2,8.4,40.4c9.7,3.5,48.7-8.9,49.6-9.7
			c79.7-35.4,82.4-85.1,82.4-85.1L178.7,139.4z"/>
		<path class="st1" d="M224.3,171.3c0,0,11.9,65.1-27.1,69.1c-39.9,0.9-27.2-43.1-30.7-47.6C158.9,196.4,224.3,171.3,224.3,171.3z"
			/>
		<path class="st4" d="M200.2,197.6c0,0,9.9,9.3,25.8,12.3c2.7-7.1,8.4-31.8-5.2-47.1c-10.6-11.8-30.7,5.9-30.7,5.9l5.9,14.8
			L200.2,197.6z"/>
		<path class="st6" d="M196.1,183.4l4.1,14.2c0,0,0.7,0.6,2,1.5C207,185.6,223,170,223,170l-29.6,6.7L196.1,183.4z"/>
		<path class="st3" d="M188.9,188.7l-5.4-1.9c-8.1,3-14.7,5.5-16.8,6.2c3,4.8-7.3,42.6,23.3,47C172.5,227.2,188.9,188.7,188.9,188.7
			z M166.6,193c0-0.1-0.1-0.1-0.1-0.1C165.6,193.3,165.8,193.3,166.6,193z"/>
		<path class="st2" d="M196.1,183.4c0,0-17.1,21.3-39.6,20.1c-7.7,0-8.3-8.9-8.3-8.9L196.1,183.4z"/>
		<path class="st8" d="M165.6,106.8l5.5-0.2c0,0-9.5,16.2-16.2,17.1C158.3,119.7,165.6,106.8,165.6,106.8z"/>
		<path class="st8" d="M133.2,86.5c0,0,0.3-4.4,2.7-4.4s8.9,2.7,9.2,6.5C143.2,88,133.2,86.5,133.2,86.5z"/>
		<path class="st8" d="M118.6,81.8c0,0,0.2,2.4-0.2,3.5c-0.4,1.1-5.1,1.8-5.1,1.8S114.2,82.9,118.6,81.8z"/>
		<path class="st8" d="M133,92c0,0-0.2,7.3,6.4,6.6c5.8-1.8,3.3-6.2,3.3-6.2h1.3c0,0-1.8-1.6-2.7-0.9c-0.3,1,2.5,4.5-2.7,6
			C135.8,97.5,134,95.9,133,92z"/>
		<path class="st8" d="M117.6,90.3c0,0-0.7,4.1-3.4,3.9c-2.2-0.3-0.9-4.5-0.9-4.5l-1.8,0.6l1,0.3c0,0-0.6,4.3,1.7,4.3
			S118.1,93.1,117.6,90.3z"/>
		<path class="st10" d="M112.7,119.7c0,0,31.3,13.9,31-13.3c-0.3,0-0.3,0-0.3,0h1.8c0,0-1.2,20.4-16.8,18
			C112.7,122,112.7,119.7,112.7,119.7z"/>
		<path class="st10" d="M143.4,101.1c0,0-5.1,1.1-1.3,4.7c3.8,3.5,8.9,0.9,7.3-2C147.9,100.8,143.4,101.1,143.4,101.1z"/>
		<path class="st2" d="M200.2,197.6c0,0,20.5,17.1,12.6,36.2c4.9-3.1,12.4-16.8,11.1-24.4C221.2,206.3,200.2,197.6,200.2,197.6z"/>
		<path class="st3" d="M9.9,131.2c0,0,5.1,7.5,10,5.8c4.7-1.8-6.4-11.1-6.4-11.1s14.5,9.1,12.8,4.4c-1.4-4.1-8.2-12.4-8.2-12.4
			s10.2,13.3,12.2,8.6S25,112.8,25,112.8s7.8,11.3,11.5,9.1c3.8-2.2-0.2-13.3-3.3-15.9c2.4,2.2,7.6,9.5,5.7,14.8
			c-1.8,5.2-7.8,0.4-7.8,0.4s2.1,5.2-0.1,6.8c-2.2,1.6-3.8-0.1-3.8-0.1s1.2,2.7-0.3,4.1c-1.5,1.5-6.8-0.6-6.8-0.6s3.8,3.8,1.8,5.9
			C19.6,139.4,14.6,138.5,9.9,131.2z"/>
		<path class="st10" d="M106.6,134c0,0-5.6,3.3,0.3,18.7c17.1-1.2,89.5-18.2,89.5-18.2l-7.1-5.9l-8.8-5.4l0.2,2.9
			c0,0-42.5,17.3-70.8,14.5C108.8,138.7,106.6,134,106.6,134z"/>
		<circle class="st11" cx="100.1" cy="168.3" r="2.7"/>
		<circle class="st11" cx="86.8" cy="200.8" r="2.7"/>
		<circle class="st11" cx="80.9" cy="251.3" r="2.7"/>
		<path class="st10" d="M106.9,152.7c17.1-1.2,89.5-18.2,89.5-18.2l-7.1-5.9"/>
		<path class="st12" d="M44.1,113.6c0.6-0.6,9.1-10.8,17.3-5.7C66,113.9,41.9,115.6,44.1,113.6z"/>
		<path class="st10" d="M121,93.4c0,0-7.2,15.7-6.9,20.3c1.5,1.5,9.9-1.7,9.9-1.7s0.6,0.2,0.1,0.7s-8.4,3.2-10.7,2.1
			C111.8,113.7,117.5,98.5,121,93.4z"/>
		<g>
			<path class="st11" d="M106.9,205.8l135.3-30.7h-23.6c0,0-14.2-36-58.5-28.9c-33.1,4.7-37.8,50.2-37.8,50.2L106.9,205.8z"/>
			<path class="st13" d="M150,152.1c0,0-20.7,15.4-23,39.6c21.3-1.8,62-15.4,62-15.4l-28.4-26C160.6,150.3,157.1,147.4,150,152.1z"
				/>
			<path class="st14" d="M154.6,152.2c0,0-17.6,10.7-21.6,24c9.3,0,33.7-16.8,33.7-16.8S159.5,150,154.6,152.2z"/>
			<polygon class="st11" points="158.3,149.1 152.5,141.6 160.9,138.5 161.8,148.3 			"/>
		</g>
		<path class="st7" d="M118.4,72.5c0,0,42.7-0.3,49,20.1c2.3-10.2,0.2-15.7,0.2-15.7S138.2,62.6,118.4,72.5z"/>
		<path class="st15" d="M216.9,42.8c-0.6-13.3-18.3-19.5-25.4-11.5c0.9-3.5-2.1-19.5-24.8-23.3c-21.9-3.2-31.9,11.8-31.9,11.8
			s-18-11.2-27.8,1.5c-5.9,9.7,4.1,24.2,20.1,19.8c-3,8.6-8.6,29.2-8.7,31.5c0,0,31.9-7.1,62.9,16.8c0.1,0,0.2,0.1,0.3,0.1
			c1.3-9.7,3.5-19.8,7.3-28.9C190.9,60.8,215.5,65.5,216.9,42.8z"/>
		<path class="st16" d="M194.9,45.8c-1.7,1.5-4.4,2.8-7.3,3.9L194.9,45.8l-4.1-6.5c0,0,7.7-21.3-13.6-27.8c0,0,13.6,8.3,7.7,18.9
			c-5.9,10.6-27.8,15.9-43.1,8.3c-5.9-4.1-7.1-11.8-7.1-11.8l-0.3-3.5c0,0-19.2,21.3-28.7,6.5c3,8.9,9.2,15.9,21.4,11.2
			c2,0.4,5.1,1.5,8.8,2.7l0.5,15.6l4-14c7.3,2.4,16.1,4.7,24.3,4c2.6,1.1,4.7,3,6.3,4.6l-11.1,23.3c6.9,2.7,14.2,6.6,21.4,12.1
			c0.1,0,0.2,0.1,0.3,0.1c1.1-8.5,3-17.4,6-25.6c0.2-1,0.4-1.9,0.7-2.7c0.1,0,0.2,0,0.3,0c0.1-0.2,0.2-0.4,0.2-0.6
			c1.9,0.3,22.8,4.3,27.3-12.7c0-0.3,0-0.6,0-0.8C212,57,198.4,51.7,194.9,45.8z"/>
		<path class="st7" d="M114.3,125c0,0-7.1,2-2.6,6s9.7,2.7,11.2-0.3c0,0.7-4.5,6.8-10.9,1.4C109.9,130,106.9,126.6,114.3,125z"/>
	</g>
	<path class="st17" d="M174.8,154c0,0-8.9-15.1,8-20.5c16.9-5.3,32,17.8,32.9-1.8S197,85.4,221,93.4s30.3,26.7,47.2,9.8
		s-8.9-6-9.5-10.1c-0.6-4.2,8.3-7.7,14.2-3c5.9,4.7,5.3,8.9-4.7,17.8s-11.9,8.9-26.7,2.4s-22.6-9.5-11.9,9.5
		c10.7,19,30.9,40.4,11.3,36.2s-20.8,7.1-27.3,13.1C207.1,175,182.9,175.7,174.8,154z"/>
</g>
<g id="_x31_2_Col_Grid" class="st18">
	<g class="st19">
		<g>
			<rect x="-248.6" y="-113" class="st20" width="60" height="1020"/>
		</g>
		<g>
			<rect x="-328.6" y="-113" class="st20" width="60" height="1020"/>
		</g>
		<g>
			<rect x="-408.6" y="-113" class="st20" width="60" height="1020"/>
		</g>
		<g>
			<rect x="-488.6" y="-113" class="st20" width="60" height="1020"/>
		</g>
		<g>
			<rect x="-568.6" y="-113" class="st20" width="60" height="1020"/>
		</g>
		<g>
			<rect x="-648.6" y="-113" class="st20" width="60" height="1020"/>
		</g>
		<g>
			<rect x="-728.6" y="-113" class="st20" width="60" height="1020"/>
		</g>
		<g>
			<rect x="-808.6" y="-113" class="st20" width="60" height="1020"/>
		</g>
		<g>
			<rect x="-888.6" y="-113" class="st20" width="60" height="1020"/>
		</g>
		<g>
			<rect x="-968.6" y="-113" class="st20" width="60" height="1020"/>
		</g>
		<g>
			<rect x="-1048.6" y="-113" class="st20" width="60" height="1020"/>
		</g>
		<g>
			<rect x="-1128.6" y="-113" class="st20" width="60" height="1020"/>
		</g>
	</g>
</g>
</svg>
