<?xml version="1.0" encoding="utf-8"?>
<!-- Generator: Adobe Illustrator 19.2.1, SVG Export Plug-In . SVG Version: 6.00 Build 0)  -->
<svg version="1.1" id="Layer_1" xmlns="http://www.w3.org/2000/svg" xmlns:xlink="http://www.w3.org/1999/xlink" x="0px" y="0px"
	 viewBox="0 0 273.6 112.7" style="enable-background:new 0 0 273.6 112.7;" xml:space="preserve">
<style type="text/css">
	.st0{fill:none;}
	.st1{fill:#595A59;}
	.st2{fill:#7E7D7B;}
	.st3{fill:#A2836B;}
	.st4{fill:#4F393C;}
	.st5{clip-path:url(#SVGID_2_);fill:none;stroke:#8E735E;stroke-width:0.2646;stroke-miterlimit:10;}
	.st6{clip-path:url(#SVGID_4_);fill:none;stroke:#8E735E;stroke-width:0.2646;stroke-miterlimit:10;}
	.st7{clip-path:url(#SVGID_6_);fill:none;stroke:#8E735E;stroke-width:0.2646;stroke-miterlimit:10;}
	.st8{clip-path:url(#SVGID_8_);fill:none;stroke:#8E735E;stroke-width:0.2646;stroke-miterlimit:10;}
	.st9{clip-path:url(#SVGID_10_);fill:none;stroke:#8E735E;stroke-width:0.2646;stroke-miterlimit:10;}
	.st10{clip-path:url(#SVGID_12_);fill:none;stroke:#8E735E;stroke-width:0.2646;stroke-miterlimit:10;}
	.st11{clip-path:url(#SVGID_14_);fill:none;stroke:#8E735E;stroke-width:0.2646;stroke-miterlimit:10;}
	.st12{clip-path:url(#SVGID_16_);fill:none;stroke:#8E735E;stroke-width:0.2646;stroke-miterlimit:10;}
	.st13{clip-path:url(#SVGID_18_);fill:none;stroke:#8E735E;stroke-width:0.2646;stroke-miterlimit:10;}
	.st14{clip-path:url(#SVGID_20_);fill:none;stroke:#8E735E;stroke-width:0.2646;stroke-miterlimit:10;}
	.st15{clip-path:url(#SVGID_22_);fill:none;stroke:#8E735E;stroke-width:0.2646;stroke-miterlimit:10;}
	.st16{clip-path:url(#SVGID_24_);fill:none;stroke:#8E735E;stroke-width:0.2646;stroke-miterlimit:10;}
	.st17{clip-path:url(#SVGID_26_);fill:none;stroke:#8E735E;stroke-width:0.2646;stroke-miterlimit:10;}
	.st18{fill:none;stroke:#4F393C;stroke-width:0.5292;stroke-miterlimit:10;}
	.st19{fill:#FB573B;}
	.st20{fill:#A7BA59;}
	.st21{fill:#F0F0D8;}
	.st22{display:none;opacity:0.1;enable-background:new    ;}
	.st23{display:inline;}
	.st24{fill:#FF0000;}
</style>
<g id="Guides">
</g>
<g>
	<g>
		<path class="st0" d="M54.2,51.2c0.6,0.4,1.5,0.2,1.9-0.4l1.7-2.7c-1.1-0.1-2.1-0.1-3.2-0.2l-0.9,1.4
			C53.4,49.9,53.6,50.7,54.2,51.2z"/>
		<path class="st0" d="M69.5,42.9c0.5-0.6,0.4-1.5-0.2-2s-1.5-0.4-2,0.2l-5.7,7c1.2,0,2.4,0,3.7-0.1L69.5,42.9z"/>
		<path class="st0" d="M58.7,54c0.6,0.5,1.5,0.4,2-0.2l4.7-5.8c-1.2,0.1-2.5,0.1-3.7,0.1L58.6,52C58,52.7,58.1,53.5,58.7,54z"/>
		<path class="st0" d="M63.8,39c0.4-0.6,0.2-1.5-0.4-1.9c-0.6-0.4-1.5-0.2-1.9,0.4l-6.8,10.4c1,0.1,2.1,0.2,3.2,0.2L63.8,39z"/>
		<path class="st0" d="M58.1,35.1c0.4-0.7,0.1-1.5-0.6-1.9c-0.7-0.4-1.5-0.1-1.9,0.6l-6.5,12.5c-0.1,0.2-0.2,0.5-0.2,0.8
			c0.9,0.1,1.7,0.3,2.7,0.4L58.1,35.1z"/>
		<path class="st0" d="M49.8,48.2c0.7,0.4,1.5,0.1,1.9-0.6l0.1-0.1c-0.9-0.1-1.8-0.3-2.7-0.4C49.1,47.5,49.3,48,49.8,48.2z"/>
		<path class="st1" d="M65.3,48.1l-4.7,5.8c-0.5,0.6-1.4,0.7-2,0.2s-0.7-1.4-0.2-2l3.1-3.9c-1.3,0-2.5,0-3.7-0.1l-1.7,2.7
			c-0.4,0.6-1.3,0.8-1.9,0.4c-0.6-0.4-0.8-1.3-0.4-1.9l0.9-1.4c-1-0.1-2-0.2-3-0.4l-0.1,0.1c-0.4,0.7-1.2,0.9-1.9,0.6
			C49.3,48,49,47.5,49,47.1c-1.2-0.2-2.4-0.4-3.4-0.7c-0.9,1.9-0.2,4.3,1.6,5.5l3.3,2.2C46.6,60,21.3,97,19.4,99.2
			c-2.1,2.5,0.5,4.1,0.5,4.1l0,0l0,0c0,0,2.6,1.7,4-1.2c1.3-2.7,25.2-40.5,29-46.6l3.3,2.2c2.1,1.3,4.8,0.8,6.2-1.3l7.7-9
			C68.5,47.8,66.9,48,65.3,48.1z M21.1,101.6c-0.5-0.3-0.6-0.9-0.3-1.4c0.3-0.5,0.9-0.6,1.4-0.3c0.5,0.3,0.6,0.9,0.3,1.4
			S21.6,101.9,21.1,101.6z"/>
		<path class="st2" d="M72.1,37.5l-12.5-8.2c-2.1-1.3-4.8-0.8-6.2,1.3L46,45.7c-0.1,0.2-0.3,0.4-0.4,0.7c1,0.2,2.2,0.4,3.4,0.7
			c0-0.3,0-0.5,0.2-0.8l6.5-12.5c0.4-0.7,1.2-0.9,1.9-0.6c0.7,0.4,0.9,1.2,0.6,1.9l-6.4,12.3c1,0.1,2,0.3,3,0.4l6.8-10.4
			c0.4-0.6,1.3-0.8,1.9-0.4c0.6,0.4,0.8,1.3,0.4,1.9l-6,9.1c1.2,0.1,2.4,0.1,3.7,0.1l5.7-7c0.5-0.6,1.4-0.7,2-0.2s0.7,1.4,0.2,2
			l-4.2,5.2c1.6-0.1,3.2-0.3,4.8-0.5l3.3-3.9C74.7,41.6,74.2,38.8,72.1,37.5z"/>
	</g>
	<g>
		<path class="st3" d="M238.6,8.9l-75.3,19.6c-2.1,0.6-3.4,2.7-2.8,4.8l2.3,8.6c0,0,1.1,10.5-5.6,12.3c-3,0.8-7.2,0.1-8.7-0.2
			c-0.2,0-0.4-0.1-0.6-0.1l0,0c-1.9-0.4-4-0.3-5.8,0.1c-4.3,1.1-7.1,4.9-6.2,8.5s5.2,5.5,9.5,4.4c1.8-0.5,3.6-1.4,5.1-2.7l0,0
			c0.2-0.1,0.3-0.3,0.4-0.4c1.2-1,4.5-3.7,7.5-4.5c6.8-1.8,10.9,8,10.9,8l2.3,8.6c0.6,2.1,2.7,3.4,4.8,2.8l75.3-19.6
			c2.1-0.6,3.4-2.7,2.8-4.8l-11.1-42.6C242.9,9.6,240.7,8.3,238.6,8.9z M142.7,63.8c-1.6,0.4-3.3-0.5-3.7-2.2
			c-0.4-1.6,0.5-3.3,2.2-3.7c1.6-0.4,3.3,0.5,3.7,2.2C145.3,61.8,144.4,63.4,142.7,63.8z"/>
		<path class="st3" d="M238.6,8.9l-75.3,19.6c-2.1,0.6-3.4,2.7-2.8,4.8l2.3,8.6c0,0,1.1,10.5-5.6,12.3c-3,0.8-7.2,0.1-8.7-0.2
			c-0.2,0-0.4-0.1-0.6-0.1l0,0c-1.9-0.4-4-0.3-5.8,0.1c-4.3,1.1-7.1,4.9-6.2,8.5s5.2,5.5,9.5,4.4c1.8-0.5,3.6-1.4,5.1-2.7l0,0
			c0.2-0.1,0.3-0.3,0.4-0.4c1.2-1,4.5-3.7,7.5-4.5c6.8-1.8,10.9,8,10.9,8l2.3,8.6c0.6,2.1,2.7,3.4,4.8,2.8l75.3-19.6
			c2.1-0.6,3.4-2.7,2.8-4.8l-11.1-42.6C242.9,9.6,240.7,8.3,238.6,8.9z M142.7,63.8c-1.6,0.4-3.3-0.5-3.7-2.2
			c-0.4-1.6,0.5-3.3,2.2-3.7c1.6-0.4,3.3,0.5,3.7,2.2C145.3,61.8,144.4,63.4,142.7,63.8z"/>
		<g>
			<g>
				<path class="st4" d="M169.3,67.3c0,0-4.2-9.7-10.9-8c-3,0.8-6.3,3.5-7.5,4.5c-0.1,0.1-0.3,0.3-0.4,0.4l0,0
					c-1.5,1.2-3.3,2.2-5.1,2.7c-4.1,1.1-8.2-0.6-9.4-3.8c0,0.2,0.1,0.4,0.1,0.6c0.9,3.6,5.2,5.5,9.5,4.4c1.8-0.5,3.6-1.4,5.1-2.7
					l0,0c0.2-0.1,0.3-0.3,0.4-0.4c1.2-1,4.5-3.7,7.5-4.5c6.8-1.8,10.9,8,10.9,8L169.3,67.3z"/>
				<path class="st4" d="M141.2,58c-1.6,0.4-2.6,2.1-2.2,3.7c0.1,0.2,0.1,0.4,0.2,0.6c-0.1-1.4,0.8-2.7,2.3-3.1
					c1.4-0.4,2.9,0.3,3.5,1.6c0-0.2,0-0.4-0.1-0.6C144.5,58.5,142.8,57.6,141.2,58z"/>
				<path class="st4" d="M251.7,59.2l-75.3,19.6c-2.1,0.6-4.3-0.7-4.8-2.8l0.3,1.1c0.6,2.1,2.7,3.4,4.8,2.8L252,60.3
					c2.1-0.6,3.4-2.7,2.8-4.8l-0.3-1.1C255.1,56.5,253.8,58.6,251.7,59.2z"/>
			</g>
		</g>
		<g>
			<g>
				<defs>
					<path id="SVGID_1_" d="M238.6,8.9l-75.3,19.6c-2.1,0.6-3.4,2.7-2.8,4.8l2.3,8.6c0,0,1.1,10.5-5.6,12.3c-3,0.8-7.2,0.1-8.7-0.2
						c-0.2,0-0.4-0.1-0.6-0.1l0,0c-1.9-0.4-4-0.3-5.8,0.1c-4.3,1.1-7.1,4.9-6.2,8.5s5.2,5.5,9.5,4.4c1.8-0.5,3.6-1.4,5.1-2.7l0,0
						c0.2-0.1,0.3-0.3,0.4-0.4c1.2-1,4.5-3.7,7.5-4.5c6.8-1.8,10.9,8,10.9,8l2.3,8.6c0.6,2.1,2.7,3.4,4.8,2.8l75.3-19.6
						c2.1-0.6,3.4-2.7,2.8-4.8l-11.1-42.6C242.9,9.6,240.7,8.3,238.6,8.9z M142.7,63.8c-1.6,0.4-3.3-0.5-3.7-2.2
						c-0.4-1.6,0.5-3.3,2.2-3.7c1.6-0.4,3.3,0.5,3.7,2.2C145.3,61.8,144.4,63.4,142.7,63.8z"/>
				</defs>
				<clipPath id="SVGID_2_">
					<use xlink:href="#SVGID_1_"  style="overflow:visible;"/>
				</clipPath>
				<path class="st5" d="M157.2,41.9c2.5-1.7,6.1-1.8,8.9-2.7c3.1-1,6.2-2.2,9-3.9c6.5-3.7,13.7-6.3,20.6-9.1
					c7-2.9,14.7-3.7,22.2-4.3c7.2-0.6,14.9,0.2,22-1.3c1.1-0.2,7.7-1.6,7.8-1.3"/>
			</g>
			<g>
				<defs>
					<path id="SVGID_3_" d="M238.6,8.9l-75.3,19.6c-2.1,0.6-3.4,2.7-2.8,4.8l2.3,8.6c0,0,1.1,10.5-5.6,12.3c-3,0.8-7.2,0.1-8.7-0.2
						c-0.2,0-0.4-0.1-0.6-0.1l0,0c-1.9-0.4-4-0.3-5.8,0.1c-4.3,1.1-7.1,4.9-6.2,8.5s5.2,5.5,9.5,4.4c1.8-0.5,3.6-1.4,5.1-2.7l0,0
						c0.2-0.1,0.3-0.3,0.4-0.4c1.2-1,4.5-3.7,7.5-4.5c6.8-1.8,10.9,8,10.9,8l2.3,8.6c0.6,2.1,2.7,3.4,4.8,2.8l75.3-19.6
						c2.1-0.6,3.4-2.7,2.8-4.8l-11.1-42.6C242.9,9.6,240.7,8.3,238.6,8.9z M142.7,63.8c-1.6,0.4-3.3-0.5-3.7-2.2
						c-0.4-1.6,0.5-3.3,2.2-3.7c1.6-0.4,3.3,0.5,3.7,2.2C145.3,61.8,144.4,63.4,142.7,63.8z"/>
				</defs>
				<clipPath id="SVGID_4_">
					<use xlink:href="#SVGID_3_"  style="overflow:visible;"/>
				</clipPath>
				<path class="st6" d="M155.8,39.2c1.8,0,3.8-1.2,5.6-1.6c2-0.5,3.7-1,5.5-1.8s3.9-1.2,5.6-2.3c2-1.3,3.6-2.5,5.9-3.2
					c7.7-2.3,14.8-5.8,22.6-7.8c6.5-1.7,12.8-2.6,19.5-2.4c4.2,0.1,8.4,0.1,12.6-0.2c3.2-0.3,6.6-1.2,9.7-2.2
					c0.9-0.3,4.7-1.6,4.6-1.7"/>
			</g>
			<g>
				<defs>
					<path id="SVGID_5_" d="M238.6,8.9l-75.3,19.6c-2.1,0.6-3.4,2.7-2.8,4.8l2.3,8.6c0,0,1.1,10.5-5.6,12.3c-3,0.8-7.2,0.1-8.7-0.2
						c-0.2,0-0.4-0.1-0.6-0.1l0,0c-1.9-0.4-4-0.3-5.8,0.1c-4.3,1.1-7.1,4.9-6.2,8.5s5.2,5.5,9.5,4.4c1.8-0.5,3.6-1.4,5.1-2.7l0,0
						c0.2-0.1,0.3-0.3,0.4-0.4c1.2-1,4.5-3.7,7.5-4.5c6.8-1.8,10.9,8,10.9,8l2.3,8.6c0.6,2.1,2.7,3.4,4.8,2.8l75.3-19.6
						c2.1-0.6,3.4-2.7,2.8-4.8l-11.1-42.6C242.9,9.6,240.7,8.3,238.6,8.9z M142.7,63.8c-1.6,0.4-3.3-0.5-3.7-2.2
						c-0.4-1.6,0.5-3.3,2.2-3.7c1.6-0.4,3.3,0.5,3.7,2.2C145.3,61.8,144.4,63.4,142.7,63.8z"/>
				</defs>
				<clipPath id="SVGID_6_">
					<use xlink:href="#SVGID_5_"  style="overflow:visible;"/>
				</clipPath>
				<path class="st7" d="M156.2,32.6c5,0.2,10.8-1.6,15.7-2.9c7.6-2,15.2-4.3,22.7-6.6c9.1-2.8,18.1-5.9,27.4-8.2
					c7.3-1.8,16.7-3.6,23-5.3"/>
			</g>
			<g>
				<defs>
					<path id="SVGID_7_" d="M238.6,8.9l-75.3,19.6c-2.1,0.6-3.4,2.7-2.8,4.8l2.3,8.6c0,0,1.1,10.5-5.6,12.3c-3,0.8-7.2,0.1-8.7-0.2
						c-0.2,0-0.4-0.1-0.6-0.1l0,0c-1.9-0.4-4-0.3-5.8,0.1c-4.3,1.1-7.1,4.9-6.2,8.5s5.2,5.5,9.5,4.4c1.8-0.5,3.6-1.4,5.1-2.7l0,0
						c0.2-0.1,0.3-0.3,0.4-0.4c1.2-1,4.5-3.7,7.5-4.5c6.8-1.8,10.9,8,10.9,8l2.3,8.6c0.6,2.1,2.7,3.4,4.8,2.8l75.3-19.6
						c2.1-0.6,3.4-2.7,2.8-4.8l-11.1-42.6C242.9,9.6,240.7,8.3,238.6,8.9z M142.7,63.8c-1.6,0.4-3.3-0.5-3.7-2.2
						c-0.4-1.6,0.5-3.3,2.2-3.7c1.6-0.4,3.3,0.5,3.7,2.2C145.3,61.8,144.4,63.4,142.7,63.8z"/>
				</defs>
				<clipPath id="SVGID_8_">
					<use xlink:href="#SVGID_7_"  style="overflow:visible;"/>
				</clipPath>
				<path class="st8" d="M156.4,47.5c1.2,1.1,5.5-0.2,7.1-0.5c4.5-0.7,9.1-1.7,13.7-2.1c9.3-0.8,18.2-3.1,27.3-4.9
					c11.5-2.2,23.5-5.3,34.4-9.6c3.6-1.4,7.1-3.2,10.6-4.8c1.4-0.7,3.4-1,4.5-2.2c0-0.2-0.2-0.1-0.4,0.1"/>
			</g>
			<g>
				<defs>
					<path id="SVGID_9_" d="M238.6,8.9l-75.3,19.6c-2.1,0.6-3.4,2.7-2.8,4.8l2.3,8.6c0,0,1.1,10.5-5.6,12.3c-3,0.8-7.2,0.1-8.7-0.2
						c-0.2,0-0.4-0.1-0.6-0.1l0,0c-1.9-0.4-4-0.3-5.8,0.1c-4.3,1.1-7.1,4.9-6.2,8.5s5.2,5.5,9.5,4.4c1.8-0.5,3.6-1.4,5.1-2.7l0,0
						c0.2-0.1,0.3-0.3,0.4-0.4c1.2-1,4.5-3.7,7.5-4.5c6.8-1.8,10.9,8,10.9,8l2.3,8.6c0.6,2.1,2.7,3.4,4.8,2.8l75.3-19.6
						c2.1-0.6,3.4-2.7,2.8-4.8l-11.1-42.6C242.9,9.6,240.7,8.3,238.6,8.9z M142.7,63.8c-1.6,0.4-3.3-0.5-3.7-2.2
						c-0.4-1.6,0.5-3.3,2.2-3.7c1.6-0.4,3.3,0.5,3.7,2.2C145.3,61.8,144.4,63.4,142.7,63.8z"/>
				</defs>
				<clipPath id="SVGID_10_">
					<use xlink:href="#SVGID_9_"  style="overflow:visible;"/>
				</clipPath>
				<path class="st9" d="M158.1,51.3c1.5,0.6,5-0.3,6.8-0.5c2.6-0.3,5.2-0.2,7.9-0.3c3.2-0.1,12.2,0.3,5.6,4.4
					c-6,3.7-12.7,7-19.5,8.8"/>
			</g>
			<g>
				<defs>
					<path id="SVGID_11_" d="M238.6,8.9l-75.3,19.6c-2.1,0.6-3.4,2.7-2.8,4.8l2.3,8.6c0,0,1.1,10.5-5.6,12.3c-3,0.8-7.2,0.1-8.7-0.2
						c-0.2,0-0.4-0.1-0.6-0.1l0,0c-1.9-0.4-4-0.3-5.8,0.1c-4.3,1.1-7.1,4.9-6.2,8.5s5.2,5.5,9.5,4.4c1.8-0.5,3.6-1.4,5.1-2.7l0,0
						c0.2-0.1,0.3-0.3,0.4-0.4c1.2-1,4.5-3.7,7.5-4.5c6.8-1.8,10.9,8,10.9,8l2.3,8.6c0.6,2.1,2.7,3.4,4.8,2.8l75.3-19.6
						c2.1-0.6,3.4-2.7,2.8-4.8l-11.1-42.6C242.9,9.6,240.7,8.3,238.6,8.9z M142.7,63.8c-1.6,0.4-3.3-0.5-3.7-2.2
						c-0.4-1.6,0.5-3.3,2.2-3.7c1.6-0.4,3.3,0.5,3.7,2.2C145.3,61.8,144.4,63.4,142.7,63.8z"/>
				</defs>
				<clipPath id="SVGID_12_">
					<use xlink:href="#SVGID_11_"  style="overflow:visible;"/>
				</clipPath>
				<path class="st10" d="M158,61.4c2.5,0.2,5.6-1.8,7.8-2.9c0.9-0.4,4.9-1.8,5-3c0.3-3.3-11.9-1.4-13.5-1.4c-1.7,0-4.1-0.5-5.6,0.7
					s-1.1,3.1,0.8,3.6c3,0.7,6.3-1.1,9.1-1.9"/>
			</g>
			<g>
				<defs>
					<path id="SVGID_13_" d="M238.6,8.9l-75.3,19.6c-2.1,0.6-3.4,2.7-2.8,4.8l2.3,8.6c0,0,1.1,10.5-5.6,12.3c-3,0.8-7.2,0.1-8.7-0.2
						c-0.2,0-0.4-0.1-0.6-0.1l0,0c-1.9-0.4-4-0.3-5.8,0.1c-4.3,1.1-7.1,4.9-6.2,8.5s5.2,5.5,9.5,4.4c1.8-0.5,3.6-1.4,5.1-2.7l0,0
						c0.2-0.1,0.3-0.3,0.4-0.4c1.2-1,4.5-3.7,7.5-4.5c6.8-1.8,10.9,8,10.9,8l2.3,8.6c0.6,2.1,2.7,3.4,4.8,2.8l75.3-19.6
						c2.1-0.6,3.4-2.7,2.8-4.8l-11.1-42.6C242.9,9.6,240.7,8.3,238.6,8.9z M142.7,63.8c-1.6,0.4-3.3-0.5-3.7-2.2
						c-0.4-1.6,0.5-3.3,2.2-3.7c1.6-0.4,3.3,0.5,3.7,2.2C145.3,61.8,144.4,63.4,142.7,63.8z"/>
				</defs>
				<clipPath id="SVGID_14_">
					<use xlink:href="#SVGID_13_"  style="overflow:visible;"/>
				</clipPath>
				<path class="st11" d="M163.5,66.6c-0.2,0.2-0.3,0.4-0.5,0.6c5.3-1.1,10.5-2.7,15.7-4.1c5-1.3,10-2.5,14.8-4.4
					c10-4,19.5-8.7,29.2-13.4c6.1-3,11.2-7.2,17-10.5c4.5-2.6,11.7-4.8,15.7-5.9"/>
			</g>
			<g>
				<defs>
					<path id="SVGID_15_" d="M238.6,8.9l-75.3,19.6c-2.1,0.6-3.4,2.7-2.8,4.8l2.3,8.6c0,0,1.1,10.5-5.6,12.3c-3,0.8-7.2,0.1-8.7-0.2
						c-0.2,0-0.4-0.1-0.6-0.1l0,0c-1.9-0.4-4-0.3-5.8,0.1c-4.3,1.1-7.1,4.9-6.2,8.5s5.2,5.5,9.5,4.4c1.8-0.5,3.6-1.4,5.1-2.7l0,0
						c0.2-0.1,0.3-0.3,0.4-0.4c1.2-1,4.5-3.7,7.5-4.5c6.8-1.8,10.9,8,10.9,8l2.3,8.6c0.6,2.1,2.7,3.4,4.8,2.8l75.3-19.6
						c2.1-0.6,3.4-2.7,2.8-4.8l-11.1-42.6C242.9,9.6,240.7,8.3,238.6,8.9z M142.7,63.8c-1.6,0.4-3.3-0.5-3.7-2.2
						c-0.4-1.6,0.5-3.3,2.2-3.7c1.6-0.4,3.3,0.5,3.7,2.2C145.3,61.8,144.4,63.4,142.7,63.8z"/>
				</defs>
				<clipPath id="SVGID_16_">
					<use xlink:href="#SVGID_15_"  style="overflow:visible;"/>
				</clipPath>
				<path class="st12" d="M157.4,49.3c6.1-1.6,12.4-0.7,18.7-1.8c9.2-1.6,18.8-1.5,27.8-3.9c5.6-1.5,11.3-2.5,16.6-4.7
					c4.5-1.9,8.6-4.4,13-6.4c7.1-3.2,14-6.3,21.8-7.6c1.1-0.2,2.2-0.4,3.3-0.7"/>
			</g>
			<g>
				<defs>
					<path id="SVGID_17_" d="M238.6,8.9l-75.3,19.6c-2.1,0.6-3.4,2.7-2.8,4.8l2.3,8.6c0,0,1.1,10.5-5.6,12.3c-3,0.8-7.2,0.1-8.7-0.2
						c-0.2,0-0.4-0.1-0.6-0.1l0,0c-1.9-0.4-4-0.3-5.8,0.1c-4.3,1.1-7.1,4.9-6.2,8.5s5.2,5.5,9.5,4.4c1.8-0.5,3.6-1.4,5.1-2.7l0,0
						c0.2-0.1,0.3-0.3,0.4-0.4c1.2-1,4.5-3.7,7.5-4.5c6.8-1.8,10.9,8,10.9,8l2.3,8.6c0.6,2.1,2.7,3.4,4.8,2.8l75.3-19.6
						c2.1-0.6,3.4-2.7,2.8-4.8l-11.1-42.6C242.9,9.6,240.7,8.3,238.6,8.9z M142.7,63.8c-1.6,0.4-3.3-0.5-3.7-2.2
						c-0.4-1.6,0.5-3.3,2.2-3.7c1.6-0.4,3.3,0.5,3.7,2.2C145.3,61.8,144.4,63.4,142.7,63.8z"/>
				</defs>
				<clipPath id="SVGID_18_">
					<use xlink:href="#SVGID_17_"  style="overflow:visible;"/>
				</clipPath>
				<path class="st13" d="M162.9,70.5c0.5,1.4,9.4-0.3,10.7-0.3c6-0.4,12.1-1.7,17.8-3.2c7.6-1.9,15.1-4,22.1-7.7
					c3.7-1.9,7.7-3.6,11-6.1c5.7-4.3,11.7-9,18.6-11.4c3-1,6.2-1.5,9.2-2.6c0.7-0.3,2.4-0.8,2-1.2"/>
			</g>
			<g>
				<defs>
					<path id="SVGID_19_" d="M238.6,8.9l-75.3,19.6c-2.1,0.6-3.4,2.7-2.8,4.8l2.3,8.6c0,0,1.1,10.5-5.6,12.3c-3,0.8-7.2,0.1-8.7-0.2
						c-0.2,0-0.4-0.1-0.6-0.1l0,0c-1.9-0.4-4-0.3-5.8,0.1c-4.3,1.1-7.1,4.9-6.2,8.5s5.2,5.5,9.5,4.4c1.8-0.5,3.6-1.4,5.1-2.7l0,0
						c0.2-0.1,0.3-0.3,0.4-0.4c1.2-1,4.5-3.7,7.5-4.5c6.8-1.8,10.9,8,10.9,8l2.3,8.6c0.6,2.1,2.7,3.4,4.8,2.8l75.3-19.6
						c2.1-0.6,3.4-2.7,2.8-4.8l-11.1-42.6C242.9,9.6,240.7,8.3,238.6,8.9z M142.7,63.8c-1.6,0.4-3.3-0.5-3.7-2.2
						c-0.4-1.6,0.5-3.3,2.2-3.7c1.6-0.4,3.3,0.5,3.7,2.2C145.3,61.8,144.4,63.4,142.7,63.8z"/>
				</defs>
				<clipPath id="SVGID_20_">
					<use xlink:href="#SVGID_19_"  style="overflow:visible;"/>
				</clipPath>
				<path class="st14" d="M254.3,34c-0.2,2.3-11,8-13,5.7c-2.8-3.3,11.4-6.3,12.7-7.4"/>
			</g>
			<g>
				<defs>
					<path id="SVGID_21_" d="M238.6,8.9l-75.3,19.6c-2.1,0.6-3.4,2.7-2.8,4.8l2.3,8.6c0,0,1.1,10.5-5.6,12.3c-3,0.8-7.2,0.1-8.7-0.2
						c-0.2,0-0.4-0.1-0.6-0.1l0,0c-1.9-0.4-4-0.3-5.8,0.1c-4.3,1.1-7.1,4.9-6.2,8.5s5.2,5.5,9.5,4.4c1.8-0.5,3.6-1.4,5.1-2.7l0,0
						c0.2-0.1,0.3-0.3,0.4-0.4c1.2-1,4.5-3.7,7.5-4.5c6.8-1.8,10.9,8,10.9,8l2.3,8.6c0.6,2.1,2.7,3.4,4.8,2.8l75.3-19.6
						c2.1-0.6,3.4-2.7,2.8-4.8l-11.1-42.6C242.9,9.6,240.7,8.3,238.6,8.9z M142.7,63.8c-1.6,0.4-3.3-0.5-3.7-2.2
						c-0.4-1.6,0.5-3.3,2.2-3.7c1.6-0.4,3.3,0.5,3.7,2.2C145.3,61.8,144.4,63.4,142.7,63.8z"/>
				</defs>
				<clipPath id="SVGID_22_">
					<use xlink:href="#SVGID_21_"  style="overflow:visible;"/>
				</clipPath>
				<path class="st15" d="M166.2,75.8c-0.3-0.5,9-2.6,10.3-2.8c3.8-0.8,7.6-1.6,11.4-2.4c8.3-1.8,16.4-3.7,24.7-5.9
					c9.9-2.6,20.1-5.2,29.8-8.6c6.6-2.3,13-5,19.5-7.6c-0.2,0-0.3,0.1-0.5,0.1"/>
			</g>
			<g>
				<defs>
					<path id="SVGID_23_" d="M238.6,8.9l-75.3,19.6c-2.1,0.6-3.4,2.7-2.8,4.8l2.3,8.6c0,0,1.1,10.5-5.6,12.3c-3,0.8-7.2,0.1-8.7-0.2
						c-0.2,0-0.4-0.1-0.6-0.1l0,0c-1.9-0.4-4-0.3-5.8,0.1c-4.3,1.1-7.1,4.9-6.2,8.5s5.2,5.5,9.5,4.4c1.8-0.5,3.6-1.4,5.1-2.7l0,0
						c0.2-0.1,0.3-0.3,0.4-0.4c1.2-1,4.5-3.7,7.5-4.5c6.8-1.8,10.9,8,10.9,8l2.3,8.6c0.6,2.1,2.7,3.4,4.8,2.8l75.3-19.6
						c2.1-0.6,3.4-2.7,2.8-4.8l-11.1-42.6C242.9,9.6,240.7,8.3,238.6,8.9z M142.7,63.8c-1.6,0.4-3.3-0.5-3.7-2.2
						c-0.4-1.6,0.5-3.3,2.2-3.7c1.6-0.4,3.3,0.5,3.7,2.2C145.3,61.8,144.4,63.4,142.7,63.8z"/>
				</defs>
				<clipPath id="SVGID_24_">
					<use xlink:href="#SVGID_23_"  style="overflow:visible;"/>
				</clipPath>
				<path class="st16" d="M257.5,47.1c-1.4,0.7-2.6,1.7-3.9,2.6c-2,1.3-3.9,1.2-6,1.9c-3.4,1.1-6.8,2.1-10.2,3
					c-1.7,0.4-7.6,2.6-8.3-0.1c-0.7-2.5,7.5-6,9.4-6.9c4.2-2.2,8.3-3.9,12.8-5.1c1.7-0.5,7.1-1.7,4.4,1.9c-1.5,2.1-5,3.6-7.2,4.8
					c-2.6,1.3-4.9,2.1-7.8,2.6c-0.9,0.2-3.8,1.1-3.7-0.5c0.1-1.5,5.2-3.3,6.3-3.7c2.8-1,7.5-1.3,9.7-3.2c-0.1-0.2-0.2-0.1-0.4-0.2"
					/>
			</g>
			<g>
				<defs>
					<path id="SVGID_25_" d="M238.6,8.9l-75.3,19.6c-2.1,0.6-3.4,2.7-2.8,4.8l2.3,8.6c0,0,1.1,10.5-5.6,12.3c-3,0.8-7.2,0.1-8.7-0.2
						c-0.2,0-0.4-0.1-0.6-0.1l0,0c-1.9-0.4-4-0.3-5.8,0.1c-4.3,1.1-7.1,4.9-6.2,8.5s5.2,5.5,9.5,4.4c1.8-0.5,3.6-1.4,5.1-2.7l0,0
						c0.2-0.1,0.3-0.3,0.4-0.4c1.2-1,4.5-3.7,7.5-4.5c6.8-1.8,10.9,8,10.9,8l2.3,8.6c0.6,2.1,2.7,3.4,4.8,2.8l75.3-19.6
						c2.1-0.6,3.4-2.7,2.8-4.8l-11.1-42.6C242.9,9.6,240.7,8.3,238.6,8.9z M142.7,63.8c-1.6,0.4-3.3-0.5-3.7-2.2
						c-0.4-1.6,0.5-3.3,2.2-3.7c1.6-0.4,3.3,0.5,3.7,2.2C145.3,61.8,144.4,63.4,142.7,63.8z"/>
				</defs>
				<clipPath id="SVGID_26_">
					<use xlink:href="#SVGID_25_"  style="overflow:visible;"/>
				</clipPath>
				<path class="st17" d="M226.8,31.3c1.4,0.9,3.8-1.5,2.8-3c-0.8-1.3-4.3-1.7-5.8-1.8c-7.7-0.5-15.6,1.2-23.1,2.8
					c-4.7,1-9.2,2.7-13.5,4.7c-1.1,0.5-6.9,2-7.3,3.4c-1.1,3.6,12.8,0.7,14.1,0.5c5.7-0.7,11.8-1.4,17.4-2.9
					c2.8-0.7,9.8-1.2,10.8-4.6c-2.1-1.3-5.9-0.3-8.2,0c-3.4,0.4-6.7,0.9-10.1,1.7c-3.5,0.9-7.9,1.2-11,3.1c2,1.4,6.4-0.2,8.6-0.6
					c2.6-0.5,5.2-0.8,7.7-1.3"/>
			</g>
		</g>
		<path class="st18" d="M175.9,76.8c-1,0.3-2-0.3-2.3-1.3l-11.1-42.6c-0.3-1,0.3-2,1.3-2.3L239.1,11c1-0.3,2,0.3,2.3,1.3l11.1,42.6
			c0.3,1-0.3,2-1.3,2.3L175.9,76.8z"/>
	</g>
	<g>
		<circle class="st19" cx="213.3" cy="38.4" r="12.9"/>
		<g>
			<path class="st20" d="M212.5,36c0,0-2.1-2-4,0c0,0,3.1,0.8,4,1.7c0,0-2.4,1.5-1.5,4.3c0,0,1.9-3.8,2.8-3.4c0,0,2.3,0.8,2.3,2.5
				c0,0,0.5-3.2-1.1-3.4c0,0,1.5-2.4,2.9-1.2c0,0-1.9-2-3.3-0.4c0,0-1.5-2.7-0.4-3.5C214.3,32.5,212.5,34.3,212.5,36z"/>
			<circle class="st21" cx="213.6" cy="37.2" r="0.7"/>
		</g>
	</g>
</g>
<g id="_x31_2_Col_Grid" class="st22">
	<g class="st23">
		<g>
			<rect x="-179.4" y="-3552.3" class="st24" width="60" height="1020"/>
		</g>
		<g>
			<rect x="-259.4" y="-3552.3" class="st24" width="60" height="1020"/>
		</g>
		<g>
			<rect x="-339.4" y="-3552.3" class="st24" width="60" height="1020"/>
		</g>
		<g>
			<rect x="-419.4" y="-3552.3" class="st24" width="60" height="1020"/>
		</g>
		<g>
			<rect x="-499.4" y="-3552.3" class="st24" width="60" height="1020"/>
		</g>
		<g>
			<rect x="-579.4" y="-3552.3" class="st24" width="60" height="1020"/>
		</g>
		<g>
			<rect x="-659.4" y="-3552.3" class="st24" width="60" height="1020"/>
		</g>
		<g>
			<rect x="-739.4" y="-3552.3" class="st24" width="60" height="1020"/>
		</g>
		<g>
			<rect x="-819.4" y="-3552.3" class="st24" width="60" height="1020"/>
		</g>
		<g>
			<rect x="-899.4" y="-3552.3" class="st24" width="60" height="1020"/>
		</g>
		<g>
			<rect x="-979.4" y="-3552.3" class="st24" width="60" height="1020"/>
		</g>
		<g>
			<rect x="-1059.4" y="-3552.3" class="st24" width="60" height="1020"/>
		</g>
	</g>
</g>
</svg>
