<!-- Generator: Adobe Illustrator 17.1.0, SVG Export Plug-In  -->
<svg version="1.1"
	 xmlns="http://www.w3.org/2000/svg" xmlns:xlink="http://www.w3.org/1999/xlink" xmlns:a="http://ns.adobe.com/AdobeSVGViewerExtensions/3.0/"
	 x="0px" y="0px" width="51.4px" height="113.8px" viewBox="0 0 51.4 113.8" enable-background="new 0 0 51.4 113.8"
	 xml:space="preserve">
<defs>
</defs>
<g>
	<path fill="#A2A09D" d="M51.4,32.1c0.3-23-26-32.1-26-32.1L12,53.9L7.3,72.5L40,80.7l10.9-43.5C51.2,35.4,51.3,33.7,51.4,32.1z"/>
	<g>
		<path fill="#595A59" d="M9.9,73.1L1,109c0,0-0.9,3.7,2.5,4.6s7.6-1.3,4.9-4.5c-2.7-3.2,2.5-9.3,2.5-9.3s6.3-9.6,2.3-17.4
			c-2.8-5.4,4-2.4,5.2-7.1L9.9,73.1z"/>
		<path fill="#7E7D7B" d="M9.1,72.9l-9,35.9c0,0-0.9,3.7,2.5,4.6s7.6-1.3,4.9-4.5c-2.7-3.2,2.5-9.3,2.5-9.3s6.3-9.6,2.3-17.4
			c-2.8-5.4,4-2.4,5.2-7.1L9.1,72.9z"/>
		<circle fill="#EFEFEF" cx="3.4" cy="109.7" r="1"/>
		<circle fill="#EFEFEF" cx="11.8" cy="75.8" r="1"/>
	</g>
	<g>
		<path fill="#EFEFEF" d="M50.1,31.8c0.4-19.4-17.4-28.7-23-31.1l-13.2,53C33.6,51.9,44.4,40.9,50.1,31.8z"/>
		<path fill="#E1E1E1" d="M49.6,36.9c0.3-1.8,0.5-3.5,0.5-5.1c-5.7,9.1-16.6,20.1-36.3,21.9L9.1,72.9l29.7,7.4L49.6,36.9z"/>
	</g>
</g>
</svg>
