<?xml version="1.0" encoding="UTF-8" standalone="no"?>
<!-- Generator: Adobe Illustrator 16.2.0, SVG Export Plug-In . SVG Version: 6.00 Build 0)  -->
<!DOCTYPE svg  PUBLIC '-//W3C//DTD SVG 1.1//EN'  'http://www.w3.org/Graphics/SVG/1.1/DTD/svg11.dtd'>
<svg id="Capa_1" xmlns="http://www.w3.org/2000/svg" xml:space="preserve" height="1500px" viewBox="0 0 1500 1500" width="1500px" version="1.1" y="0px" x="0px" xmlns:xlink="http://www.w3.org/1999/xlink" enable-background="new 0 0 1500 1500">
<path d="m4195.6 861.43c-1.402-1.402-1.402-3.678 0-5.083l10.232-10.233-5.193-0.422c-0.885-0.074-1.669-0.459-2.252-1.041-0.721-0.723-1.131-1.74-1.041-2.834 0.166-1.979 1.898-3.451 3.873-3.291l12.939 1.054c1.758 0.146 3.146 1.539 3.291 3.292l1.055 12.938c0.162 1.979-1.313 3.71-3.289 3.873-1.979 0.16-3.71-1.313-3.874-3.292l-0.421-5.19-10.234 10.232c-1.5 1.4-3.7 1.4-5.1-0.01zm-13.3 8.15l-10.231 10.232-0.425-5.192c-0.162-1.979-1.896-3.453-3.873-3.29-1.979 0.163-3.451 1.896-3.292 3.871l1.054 12.94c0.145 1.754 1.539 3.146 3.293 3.289l12.938 1.054c1.976 0.163 3.71-1.313 3.873-3.287 0.091-1.096-0.321-2.113-1.04-2.836-0.584-0.584-1.365-0.968-2.25-1.04l-5.195-0.424 10.232-10.233c1.408-1.405 1.408-3.683 0.003-5.082-1.4-1.41-3.7-1.41-5.1 0zm32.9 1.74c-1.096-0.091-2.113 0.318-2.833 1.039-0.585 0.584-0.97 1.366-1.04 2.252l-0.425 5.192-10.231-10.232c-1.408-1.405-3.684-1.405-5.082 0-1.41 1.401-1.41 3.68 0 5.084l10.231 10.229-5.198 0.422c-1.975 0.164-3.445 1.899-3.287 3.878 0.162 1.976 1.896 3.45 3.877 3.289l12.936-1.056c1.754-0.143 3.146-1.535 3.293-3.288l1.051-12.941c0-1.96-1.4-3.7-3.4-3.86zm-38-25.21l5.193-0.422c1.979-0.162 3.449-1.897 3.291-3.875-0.166-1.979-1.897-3.451-3.875-3.291l-12.941 1.054c-1.75 0.143-3.146 1.536-3.287 3.292l-1.055 12.938c-0.162 1.979 1.313 3.711 3.289 3.873 1.09 0.088 2.111-0.318 2.834-1.043 0.586-0.582 0.971-1.361 1.041-2.249l0.424-5.194 10.234 10.232c1.402 1.406 3.682 1.406 5.082 0 1.407-1.401 1.407-3.679 0.003-5.083l-10.1-10.24z" fill="none"/>
		<path d="m749.99 489.8c-137.86 0-249.99 112.15-249.99 250s112.14 249.99 249.99 249.99 250.01-112.14 250.01-249.99-112.16-250-250.01-250zm0 465.95c-119.08 0-215.96-96.875-215.96-215.95s96.886-215.96 215.96-215.96c119.08 0 215.96 96.885 215.96 215.96 0.01 119.07-96.87 215.95-215.96 215.95zm0-394.94c-98.687 0-178.98 80.3-178.98 178.99 0 98.696 80.292 178.98 178.98 178.98 16.46 0 29.776-13.345 29.776-29.795 0-16.441-13.316-29.775-29.776-29.775-65.839 0-119.4-53.578-119.4-119.41 0-65.839 53.561-119.41 119.4-119.41s119.42 53.569 119.42 119.41c0 16.442 13.335 29.786 29.794 29.786 16.46 0 29.786-13.344 29.786-29.786 0-98.67-80.29-178.98-179-178.98zm34.79 180.48c0.019-0.506 0.143-0.985 0.143-1.501 0-19.273-15.625-34.934-34.927-34.934-19.292 0-34.917 15.659-34.917 34.934 0 19.293 15.625 34.936 34.917 34.936 0.641 0 1.207-0.159 1.848-0.194l100.38 84.108c4.634 3.906 11.559 3.994 16.3-0.09 5.3-4.518 5.913-12.481 1.385-17.772l-85.12-99.5z" fill="#D24B4C"/>
</svg>
