<!-- Generator: Adobe Illustrator 17.1.0, SVG Export Plug-In  -->
<svg version="1.1"
	 xmlns="http://www.w3.org/2000/svg" xmlns:xlink="http://www.w3.org/1999/xlink" xmlns:a="http://ns.adobe.com/AdobeSVGViewerExtensions/3.0/"
	 x="0px" y="0px" width="135px" height="177.5px" viewBox="0 0 135 177.5" enable-background="new 0 0 135 177.5"
	 xml:space="preserve">
<defs>
</defs>
<g>
	<path fill-rule="evenodd" clip-rule="evenodd" fill="#FFDBC1" d="M21.2,51.9c0.3-1.8,1.6-3.1,3.1-3.5c0.4-0.1,0.8-0.1,1.2-0.1
		c0.1,0,0.2,0,0.3,0c0,0,0,0,0,0c0.3,0,0.5,0.1,0.7,0.2c0,0,0,0,0,0c0.4-2.1,1.1-4.1,2-6c0.9-1.9,2.1-3.7,3.5-5.3
		c4.5-5.2,11.1-8.4,18.5-8.4c1.8,0,3.5,0.2,5.1,0.5c2.2,0.5,4.3,1.2,6.2,2.3c0.3,0.1,0.6,0.3,0.8,0.5c0.6,0.3,1.1,0.7,1.7,1
		c6.4,4.4,10.6,11.8,10.6,20.1c0,0.2,0,0.4,0,0.6c-0.1,2.8-0.6,5.5-1.5,7.9c-3.2,8.6-11.2,15-20.7,15.8v2.3c1.2,0.2,2.3,0.6,3.4,1.1
		c-0.6,1.9-2.9,3.3-5.7,3.3c-2.9,0-5.3-1.5-5.8-3.4c1-0.4,2-0.8,3.1-0.9v-2.4c-11-1.3-19.8-9.9-21.3-20.9c0,0,0,0,0,0
		c-0.6,0.2-1.3,0.3-2,0.2C22.2,56.3,20.8,54.2,21.2,51.9z"/>
	<path fill-rule="evenodd" clip-rule="evenodd" fill="#028DA7" d="M39,22.9c1.1-0.3,2.2-0.8,3.3-1.5c5.3-3.6,6.8-10.9,3.1-16.2
		c-3.4-5-10-6.6-15.2-3.8c4.7-1.4,10,0.4,12.9,4.7c3.6,5.4,2.2,12.6-3.1,16.2C39.6,22.5,39.3,22.7,39,22.9z"/>
	<path fill-rule="evenodd" clip-rule="evenodd" fill="#34B2BD" d="M5.1,18.2c2.2-1.5,4.8-2.1,7.3-2c-0.8-0.3-0.5-7,4.3-9
		c5-2.2,5.5,0.1,8.1,0.3c0.8-2.2,2.3-4.1,4.4-5.5c0.3-0.2,0.7-0.4,1-0.6c0,0,0,0,0,0c4.7-1.4,10,0.4,12.9,4.7c3,4.4,2.5,10.1-0.7,14
		l5.8,8.6l-24,16.2l-5.3-7.8c-0.2,0.2-0.5,0.4-0.7,0.5C12.9,41.2,5.6,39.8,2,34.5C-1.6,29.1-0.2,21.8,5.1,18.2z"/>
	<path fill-rule="evenodd" clip-rule="evenodd" fill="#028DA7" d="M33.4,12.6C30,7.6,22.2,4.3,17,7.1c4.7-1.4,11.2,2.1,14.1,6.4
		C34.7,18.9,37,17.9,33.4,12.6z"/>
	<path fill-rule="evenodd" clip-rule="evenodd" fill="#028DA7" d="M21.4,21.3c-3.4-5-10-6.6-15.2-3.8c4.7-1.4,10,0.4,12.9,4.7
		C22.7,27.6,25,26.7,21.4,21.3z"/>
	<path fill-rule="evenodd" clip-rule="evenodd" fill="#FFDBC1" d="M17.2,96.3c-1.9,1.3-2.7,3.7-1.6,5.3l0,0c1.1,1.6,3.4,0.8,5.4-0.4
		l16.9-10.9c1.9-1.3,3.2-3,2.1-4.6l0,0c-1.1-1.6-3.5-1.9-5.5-0.7L17.2,96.3z"/>
	<path fill-rule="evenodd" clip-rule="evenodd" fill="#FFDBC1" d="M74.4,104.4c1.6,1.7,4.1,2,5.5,0.6l0,0c1.4-1.4,0.2-3.5-1.4-5.2
		L64.7,85.1c-1.6-1.7-3.5-2.6-4.9-1.2l0,0c-1.4,1.4-1.3,3.8,0.3,5.5L74.4,104.4z"/>
	<path fill-rule="evenodd" clip-rule="evenodd" fill="#FFDBC1" d="M77,99.9l18.2-0.7c0-2.4,3.3-4.4,7.4-4.4c4.1,0,7.4,2,7.4,4.4
		c0,2.4-3.3,4.4-7.4,4.4c-1.2,0-2.4-0.2-3.4-0.5c-0.1,0-0.4,0.1-0.8,0.1l-20.5,2.6c-2,0.1-3.6-1.4-3.8-3.4
		C73.9,100.5,75,100.1,77,99.9z"/>
	<path fill-rule="evenodd" clip-rule="evenodd" fill="#34B2BD" d="M24.1,143.3v0.1h51.2v-0.1c0-16.6-4.1-38.7-10.5-51.9l4.6-4.3
		c-1.8-1.7-6.6-5.5-11.9-6.2c-0.8,2.5-3.8,4.4-7.3,4.4c-3.6,0-6.6-1.9-7.3-4.5c-5.2,0.7-9.9,4.5-11.6,6.1l4.4,4
		C28.7,104.2,24.1,126.5,24.1,143.3z"/>
	<path fill-rule="evenodd" clip-rule="evenodd" fill="#644633" d="M60.3,53.2c0,0.8,1.3-1.1,3.2-1c2.4,0.1,3.3,1.8,3.3,0.9
		c0-1.2-1.7-2.1-3.5-2.1C62,51,60.3,52.3,60.3,53.2z"/>
	<path fill-rule="evenodd" clip-rule="evenodd" fill="#644633" d="M43.6,53.2c0,0.8,1.3-1.1,3.2-1c2.4,0.1,3.3,1.8,3.3,0.9
		c0-1.2-1.7-2.1-3.5-2.1C45.3,51,43.6,52.3,43.6,53.2z"/>
	<ellipse fill-rule="evenodd" clip-rule="evenodd" fill="#FFBD98" cx="67.9" cy="59.6" rx="4.3" ry="3.2"/>
	<ellipse fill-rule="evenodd" clip-rule="evenodd" fill="#FFBD98" cx="44.2" cy="60.2" rx="4.3" ry="3.4"/>
	<g>
		<path fill="#FFAB8A" d="M60.8,67.1c0,0-4.8-3.1-11.9-0.4C48.9,66.7,54.3,75.3,60.8,67.1z"/>
		<path fill="#EB9075" d="M62.8,66.4c0,0-9.3,2-15.6-0.3C47.3,66,53.8,70.7,62.8,66.4z"/>
	</g>
	<circle fill-rule="evenodd" clip-rule="evenodd" fill="#644633" cx="49.7" cy="92.6" r="1.5"/>
	<circle fill-rule="evenodd" clip-rule="evenodd" fill="#644633" cx="49.7" cy="102.6" r="1.5"/>
	<circle fill-rule="evenodd" clip-rule="evenodd" fill="#644633" cx="49.7" cy="113.6" r="1.5"/>
	<circle fill-rule="evenodd" clip-rule="evenodd" fill="#644633" cx="49.7" cy="124.5" r="1.5"/>
	<circle fill-rule="evenodd" clip-rule="evenodd" fill="#644633" cx="49.7" cy="135.7" r="1.5"/>
	<rect x="53.6" y="143.4" fill-rule="evenodd" clip-rule="evenodd" fill="#FFDBC1" width="6.1" height="29.6"/>
	<rect x="38.4" y="143.4" fill-rule="evenodd" clip-rule="evenodd" fill="#FFDBC1" width="6.1" height="29.6"/>
	<path fill-rule="evenodd" clip-rule="evenodd" fill="#028DA7" d="M63.4,174.6c0,1.4-0.9,2.5-2,2.5H55c-1.1,0-2-1.1-2-2.5l0,0
		c0-1.4,0.9-2.5,2-2.5h6.5C62.5,172.1,63.4,173.2,63.4,174.6L63.4,174.6z"/>
	<path fill-rule="evenodd" clip-rule="evenodd" fill="#028DA7" d="M48.2,174.6c0,1.4-0.9,2.5-2.1,2.5h-6.8c-1.1,0-2.1-1.1-2.1-2.5
		l0,0c0-1.4,0.9-2.5,2.1-2.5h6.8C47.3,172.1,48.2,173.2,48.2,174.6L48.2,174.6z"/>
	<path fill-rule="evenodd" clip-rule="evenodd" fill="#FF7131" d="M74.9,53.7c-0.1,2.8-0.6,5.5-1.5,7.9c0.1-0.2,0.2-0.3,0.4-0.5
		c2.6-3.3,4.2-7.5,4.2-12c0-0.3,0-0.5,0-0.8c0-0.2,0-0.4,0-0.5c-1.5-0.1-2.3-5.7-7.8-9.3c3.1,4.1,4.9,9.2,4.9,14.6
		C74.9,53.3,74.9,53.5,74.9,53.7z"/>
	<path fill-rule="evenodd" clip-rule="evenodd" fill="#FF7131" d="M22.9,42.8c0,2.1,0.7,4.3,1.4,5.6c0.4-0.1,0.8-0.1,1.2-0.1
		c0.1,0.4,0.1,0.8,0.2,1.2c0.1,0.7,0.3,1.3,0.5,2c0.4,1.4,1,2.7,1.7,4c0.5,1,1.1,1.9,1.8,2.7c2.1,2.7,4.8,4.8,7.9,6.3
		c-3.1-3.6-5-8.2-5-13.3c0-1.6,0.2-3.2,0.6-4.8c1-4.2,3.3-7.9,6.6-10.7c-1.1-0.7-1.8-1.9-1.8-3.8c0-3.7,2.3-7,6-9.3
		c-0.3,0-0.7,0-1,0C31.6,22.4,23,31.7,22.9,42.8z"/>
	<path fill-rule="evenodd" clip-rule="evenodd" fill="#644633" d="M42.8,80.9c0.8,2.6,3.8,4.5,7.3,4.5c3.5,0,6.5-1.9,7.3-4.4
		c-0.5-0.1-1-0.1-1.4-0.1c-0.6,1.9-2.9,3.3-5.7,3.3c-2.9,0-5.3-1.5-5.8-3.4C44,80.7,43.4,80.8,42.8,80.9z"/>
	<path fill-rule="evenodd" clip-rule="evenodd" fill="#FFDBC1" d="M17.2,96.5c1.8-0.8,2.6,0.1,3.5,1.8l7.3,16.6
		c2.3-0.9,4.9,0.4,5.8,2.8c1,2.5-0.1,5.2-2.4,6c-2.3,0.9-4.9-0.4-5.9-2.8c-0.2-0.6-0.4-1.3-0.3-1.9l-9.7-17.9
		C14.6,99.5,15.4,97.4,17.2,96.5z"/>
	<g>
		<g>
			<path fill-rule="evenodd" clip-rule="evenodd" fill="#989695" d="M119.6,109.3c0.1,0,0.1,0,0.2,0c-0.8-2.7-2.1-4.6-3.7-4.6
				c-1.5,0-2.9,1.8-3.7,4.6c0.1,0,0.3,0,0.4,0H119.6z"/>
			<path fill-rule="evenodd" clip-rule="evenodd" fill="#989695" d="M112.2,118.4c0.7,3.3,2.2,5.7,3.9,5.7c1.7,0,3.2-2.3,3.9-5.6
				c-0.1,0-0.3,0-0.4,0h-6.7C112.7,118.4,112.5,118.4,112.2,118.4z"/>
			<path fill-rule="evenodd" clip-rule="evenodd" fill="#989695" d="M113.7,103.7c0,0.9,0.7,1.6,1.6,1.6h1.8c0.9,0,1.6-0.7,1.6-1.6
				l0,0c0-0.9-0.7-1.6-1.6-1.6h-1.8C114.5,102.2,113.7,102.9,113.7,103.7L113.7,103.7z"/>
			<path fill-rule="evenodd" clip-rule="evenodd" fill="#FFDBC1" d="M111.8,114.4c0,1.4,0.1,2.8,0.4,4c0.2,0,0.4,0.1,0.7,0.1h6.7
				c0.1,0,0.3,0,0.4,0c0.3-1.2,0.4-2.6,0.4-4c0-1.9-0.2-3.6-0.7-5.1c-0.1,0-0.1,0-0.2,0h-6.7c-0.1,0-0.3,0-0.4,0
				C112.1,110.8,111.8,112.5,111.8,114.4z"/>
			<path fill-rule="evenodd" clip-rule="evenodd" fill="#989695" d="M128.7,112.5c0.1,0,0.1,0,0.1,0c-0.6-2.2-1.7-3.7-3-3.7
				c-1.3,0-2.4,1.5-3,3.7c0.1,0,0.2,0,0.3,0H128.7z"/>
			<path fill-rule="evenodd" clip-rule="evenodd" fill="#989695" d="M122.7,119.9c0.5,2.7,1.8,4.6,3.2,4.6c1.4,0,2.6-1.9,3.2-4.6
				c-0.1,0-0.2,0-0.4,0h-5.5C123.1,120,122.9,119.9,122.7,119.9z"/>
			<path fill-rule="evenodd" clip-rule="evenodd" fill="#989695" d="M123.9,108c0,0.7,0.6,1.3,1.3,1.3h1.5c0.7,0,1.3-0.6,1.3-1.3
				l0,0c0-0.7-0.6-1.3-1.3-1.3h-1.5C124.5,106.7,123.9,107.3,123.9,108L123.9,108z"/>
			<path fill-rule="evenodd" clip-rule="evenodd" fill="#028DA7" d="M122.4,116.7c0,1.2,0.1,2.3,0.3,3.3c0.2,0,0.4,0,0.6,0h5.5
				c0.1,0,0.2,0,0.4,0c0.2-1,0.3-2.1,0.3-3.3c0-1.5-0.2-3-0.5-4.2c-0.1,0-0.1,0-0.1,0h-5.5c-0.1,0-0.2,0-0.3,0
				C122.6,113.7,122.4,115.1,122.4,116.7z"/>
			<path fill-rule="evenodd" clip-rule="evenodd" fill="#989695" d="M107.1,118c-0.3,3.2-2.9,5.7-6.2,5.7c-3.3,0-5.9-2.5-6.2-5.7
				H107.1z"/>
		</g>
		<path fill-rule="evenodd" clip-rule="evenodd" fill="#644633" d="M62.2,123.7h70.3c1.4,0,2.5,1.1,2.5,2.5c0,1.4-1.1,2.5-2.5,2.5
			h-4.2v48.6h-5.9v-48.6h-49v48.8h-6v-48.8h-5.2c-1.4,0-2.5-1.1-2.5-2.5C59.7,124.8,60.8,123.7,62.2,123.7z"/>
	</g>
	<path fill-rule="evenodd" clip-rule="evenodd" fill="#807F7D" d="M80.5,96.3c0,1,0.8,1.8,1.8,1.8h50.3c1,0,1.8-0.8,1.8-1.8l0,0
		c0-1-0.8-1.8-1.8-1.8H82.3C81.3,94.6,80.5,95.3,80.5,96.3L80.5,96.3z"/>
	<circle fill-rule="evenodd" clip-rule="evenodd" fill="#FFDBC1" cx="121.3" cy="87.6" r="4.7"/>
	<path fill-rule="evenodd" clip-rule="evenodd" fill="#FF7131" d="M127.4,88.8c-0.3,3.2-2.9,5.7-6.2,5.7c-3.3,0-5.9-2.5-6.2-5.7
		H127.4z"/>
	<circle fill-rule="evenodd" clip-rule="evenodd" fill="#FFDBC1" cx="105.7" cy="87.7" r="4.7"/>
	<path fill-rule="evenodd" clip-rule="evenodd" fill="#FF7131" d="M111.8,88.9c-0.3,3.2-2.9,5.7-6.2,5.7c-3.3,0-5.9-2.5-6.2-5.7
		H111.8z"/>
	<circle fill-rule="evenodd" clip-rule="evenodd" fill="#FFDBC1" cx="91.2" cy="87.8" r="4.7"/>
	<path fill-rule="evenodd" clip-rule="evenodd" fill="#FF7131" d="M97.3,89.1c-0.3,3.2-2.9,5.7-6.2,5.7c-3.3,0-5.9-2.5-6.2-5.7H97.3
		z"/>
	<path fill-rule="evenodd" clip-rule="evenodd" fill="#644633" d="M109.6,87.6c0,0-0.4-2.8-2.5-3.7c-2.1-0.9-1.4-2.3-1.5-2.5
		c0,0-1,1.9,0.9,3.4C108.4,86.3,109.6,86.8,109.6,87.6z"/>
	<path fill-rule="evenodd" clip-rule="evenodd" fill="#644633" d="M106.1,88.7c0,0,1-2.6-0.4-4.4c-1.4-1.8-0.1-2.7-0.1-2.9
		c0,0-1.8,1.2-0.8,3.4C105.6,86.9,106.4,87.9,106.1,88.7z"/>
	<path fill-rule="evenodd" clip-rule="evenodd" fill="#644633" d="M102.1,88.4c0,0,2.1-1.8,1.7-4.1c-0.4-2.3,1.5-3,1.5-3.1
		c0,0-2.4,0.7-2.6,3.1C102.5,86.6,102.8,87.9,102.1,88.4z"/>
	<path fill-rule="evenodd" clip-rule="evenodd" fill="#644633" d="M95.1,87.5c0,0-0.4-2.8-2.5-3.7c-2.1-0.9-1.4-2.3-1.5-2.5
		c0,0-1,1.9,0.9,3.4C93.9,86.2,95.1,86.6,95.1,87.5z"/>
	<path fill-rule="evenodd" clip-rule="evenodd" fill="#644633" d="M91.5,88.5c0,0,1-2.6-0.4-4.4c-1.4-1.8-0.1-2.7-0.1-2.9
		c0,0-1.8,1.2-0.8,3.4C91.1,86.8,91.9,87.8,91.5,88.5z"/>
	<path fill-rule="evenodd" clip-rule="evenodd" fill="#644633" d="M87.6,88.2c0,0,2.1-1.8,1.7-4.1c-0.4-2.3,1.5-3,1.5-3.1
		c0,0-2.4,0.7-2.6,3.1C88,86.5,88.3,87.7,87.6,88.2z"/>
	<path fill-rule="evenodd" clip-rule="evenodd" fill="#644633" d="M125,86.4c0,0-0.4-2.8-2.5-3.7c-2.1-0.9-1.4-2.3-1.5-2.5
		c0,0-1,1.9,0.9,3.4C123.8,85.1,125,85.6,125,86.4z"/>
	<path fill-rule="evenodd" clip-rule="evenodd" fill="#644633" d="M121.5,87.5c0,0,1-2.6-0.4-4.4c-1.4-1.8-0.1-2.7-0.1-2.9
		c0,0-1.8,1.2-0.8,3.4C121,85.7,121.8,86.7,121.5,87.5z"/>
	<path fill-rule="evenodd" clip-rule="evenodd" fill="#644633" d="M117.5,87.2c0,0,2.1-1.8,1.7-4.1c-0.4-2.3,1.5-3,1.5-3.1
		c0,0-2.4,0.7-2.6,3.1C117.9,85.4,118.2,86.7,117.5,87.2z"/>
	<path fill-rule="evenodd" clip-rule="evenodd" fill="#644633" d="M114.5,89.4c0,0.4,0.3,0.7,0.7,0.7h12.1c0.4,0,0.7-0.3,0.7-0.7
		l0,0c0-0.4-0.3-0.7-0.7-0.7h-12.1C114.8,88.7,114.5,89,114.5,89.4L114.5,89.4z"/>
	<path fill-rule="evenodd" clip-rule="evenodd" fill="#644633" d="M98.9,89.4c0,0.4,0.3,0.7,0.7,0.7h12.1c0.4,0,0.7-0.3,0.7-0.7l0,0
		c0-0.4-0.3-0.7-0.7-0.7H99.6C99.2,88.7,98.9,89,98.9,89.4L98.9,89.4z"/>
	<path fill-rule="evenodd" clip-rule="evenodd" fill="#644633" d="M84.1,89.4c0,0.4,0.3,0.7,0.7,0.7h12.1c0.4,0,0.7-0.3,0.7-0.7l0,0
		c0-0.4-0.3-0.7-0.7-0.7H84.8C84.4,88.7,84.1,89,84.1,89.4L84.1,89.4z"/>
	<circle fill-rule="evenodd" clip-rule="evenodd" fill="#028DA7" cx="105.6" cy="81.2" r="1.9"/>
	<path fill-rule="evenodd" clip-rule="evenodd" fill="#989695" d="M98.5,123.3c0,0.2,0.2,0.4,0.4,0.4h4.2c0.2,0,0.4-0.2,0.4-0.4l0,0
		c0-0.2-0.2-0.4-0.4-0.4h-4.2C98.7,122.9,98.5,123.1,98.5,123.3L98.5,123.3z"/>
	<path fill-rule="evenodd" clip-rule="evenodd" fill="#FF804E" d="M37.9,31.8c0,2,0.6,3.1,1.8,3.8c3.2,1.9,10.4-0.1,18.7-0.1
		c5.4,0,9.1,1.3,11.7,3c5.6,3.6,6.3,9.2,7.8,9.3c0.6,0,1.4-0.9,2.7-3.5c3.4-6.7-1.2-26.6-22.2-25.8c-5.6,0.2-10.8,1.7-14.5,4.1
		C40.2,24.8,37.9,28.1,37.9,31.8z"/>
</g>
</svg>
