<!-- Generator: Adobe Illustrator 19.0.1, SVG Export Plug-In  -->
<svg version="1.1"
	 xmlns="http://www.w3.org/2000/svg" xmlns:xlink="http://www.w3.org/1999/xlink" xmlns:a="http://ns.adobe.com/AdobeSVGViewerExtensions/3.0/"
	 x="0px" y="0px" width="501.8px" height="172.2px" viewBox="0 0 501.8 172.2"
	 style="overflow:scroll;enable-background:new 0 0 501.8 172.2;" xml:space="preserve">
<style type="text/css">
	.st0{fill:#699E8E;}
	.st1{fill:#82CAA4;}
</style>
<defs>
</defs>
<g>
	<path class="st0" d="M184,169.2c0.3,0.2,0.6,0.4,1,0.6c0.4,0.2,0.7,0.3,1.1,0.4c0.4,0.1,0.8,0.2,1.1,0.3s0.7,0.1,1.1,0.1
		c1.3,0,2.4-0.3,3-0.8c0.7-0.5,1-1.3,1-2.2c0-0.5-0.1-0.9-0.2-1.2c-0.2-0.4-0.4-0.7-0.7-1c-0.3-0.3-0.7-0.6-1.3-0.9
		c-0.5-0.3-1.1-0.6-1.8-1c-0.8-0.4-1.4-0.8-2-1.2c-0.5-0.4-1-0.7-1.3-1.1c-0.3-0.4-0.6-0.8-0.8-1.2c-0.2-0.4-0.2-1-0.2-1.5
		c0-0.7,0.2-1.4,0.5-1.9c0.3-0.6,0.7-1.1,1.2-1.5c0.5-0.4,1.1-0.7,1.8-0.9s1.4-0.3,2.2-0.3c1.4,0,2.6,0.2,3.5,0.6v1.8
		c-1-0.6-2.3-0.9-3.7-0.9c-0.5,0-1,0.1-1.5,0.2c-0.5,0.1-0.9,0.3-1.2,0.6c-0.4,0.2-0.6,0.6-0.8,0.9c-0.2,0.4-0.3,0.8-0.3,1.3
		c0,0.5,0.1,0.9,0.2,1.2c0.1,0.3,0.4,0.7,0.7,0.9c0.3,0.3,0.7,0.6,1.2,0.9c0.5,0.3,1.1,0.6,1.8,1c0.7,0.4,1.4,0.8,1.9,1.2
		c0.6,0.4,1,0.8,1.4,1.2c0.4,0.4,0.6,0.8,0.8,1.3c0.2,0.5,0.3,1,0.3,1.5c0,0.8-0.1,1.5-0.4,2.1c-0.3,0.6-0.7,1.1-1.2,1.5
		c-0.5,0.4-1.1,0.7-1.9,0.9c-0.7,0.2-1.5,0.3-2.4,0.3c-0.3,0-0.6,0-1-0.1c-0.4,0-0.8-0.1-1.2-0.2c-0.4-0.1-0.8-0.2-1.1-0.3
		c-0.4-0.1-0.7-0.3-0.9-0.4V169.2z"/>
	<polygon class="st0" points="213,155.6 213,171.9 211.3,171.9 211.3,155.6 206.2,155.6 206.2,154.1 218.1,154.1 218.1,155.6 	"/>
	<path class="st0" d="M243.7,164.7c0,5-2.2,7.5-6.5,7.5c-4.2,0-6.2-2.4-6.2-7.2v-10.9h1.6v10.8c0,2,0.4,3.4,1.2,4.4
		c0.8,1,2,1.5,3.6,1.5c3.1,0,4.7-1.9,4.7-5.7v-10.9h1.6V164.7z"/>
	<path class="st0" d="M258.2,171.9v-17.8h4.7c3,0,5.3,0.7,6.9,2.2c1.6,1.5,2.3,3.6,2.3,6.5c0,1.4-0.2,2.6-0.7,3.7
		c-0.4,1.1-1.1,2.1-1.9,2.9c-0.8,0.8-1.8,1.4-3,1.8c-1.2,0.4-2.5,0.7-3.9,0.7H258.2z M259.8,155.6v14.8h2.7c1.2,0,2.3-0.2,3.3-0.5
		c1-0.3,1.8-0.8,2.4-1.5c0.7-0.6,1.2-1.4,1.5-2.4c0.4-0.9,0.5-2,0.5-3.2c0-4.8-2.5-7.2-7.6-7.2H259.8z"/>
	<rect x="285.8" y="154.1" class="st0" width="1.6" height="17.8"/>
	<path class="st0" d="M309.4,172.2c-1.3,0-2.4-0.2-3.5-0.7c-1-0.5-1.9-1.1-2.6-1.9c-0.7-0.8-1.3-1.8-1.6-2.9
		c-0.4-1.1-0.6-2.3-0.6-3.5c0-1.4,0.2-2.7,0.6-3.8c0.4-1.2,0.9-2.1,1.7-3c0.7-0.8,1.6-1.5,2.7-1.9c1.1-0.5,2.3-0.7,3.6-0.7
		c1.3,0,2.4,0.2,3.4,0.7c1,0.5,1.9,1.1,2.6,1.9c0.7,0.8,1.2,1.7,1.6,2.8c0.4,1.1,0.6,2.3,0.6,3.6c0,1.3-0.2,2.6-0.6,3.8
		c-0.4,1.2-0.9,2.2-1.6,3c-0.7,0.8-1.6,1.5-2.6,2C311.9,171.9,310.7,172.2,309.4,172.2 M309.5,155.3c-1.1,0-2,0.2-2.9,0.6
		c-0.8,0.4-1.5,1-2.1,1.7c-0.6,0.7-1,1.5-1.3,2.5c-0.3,0.9-0.4,1.9-0.5,3c0,1,0.1,2,0.4,2.9c0.3,0.9,0.7,1.7,1.2,2.4
		c0.5,0.7,1.2,1.3,2.1,1.7c0.8,0.4,1.8,0.6,2.9,0.6c1.1,0,2.1-0.2,2.9-0.6c0.8-0.4,1.5-0.9,2.1-1.6c0.6-0.7,1-1.5,1.3-2.4
		c0.3-0.9,0.4-2,0.4-3.1c0-1-0.1-2-0.4-3c-0.3-0.9-0.6-1.8-1.2-2.4c-0.5-0.7-1.2-1.3-2-1.7C311.7,155.5,310.7,155.3,309.5,155.3"/>
	<polygon class="st0" points="126.8,25.5 170.8,25.5 170.8,22.7 123.9,22.7 123.9,56.1 126.8,56.1 	"/>
	<polygon class="st0" points="126.8,162.1 126.8,131.6 123.9,131.6 123.9,164.9 170.8,164.9 170.8,162.1 	"/>
	<polygon class="st0" points="375.1,25.5 375.1,56.1 377.9,56.1 377.9,22.7 331,22.7 331,25.5 	"/>
	<polygon class="st0" points="375.1,162.1 331,162.1 331,164.9 377.9,164.9 377.9,131.6 375.1,131.6 	"/>
	<path class="st0" d="M303.7,26.9c-7.5,2.2-15.2,4-23,4.8c-7.2,0.8-14.5,0.7-21.7,0.1c-7.9-0.7-15.6-2.1-23.3-3.9
		c-8-1.9-16-3.8-24.1-5.3c-9-1.7-18.1-2.9-27.2-1.5c-0.4,0.1-0.6-0.5-0.2-0.6c7.5-1.7,15.6-0.6,23.1,0.7c8,1.4,16,3.2,23.9,5.1
		c15.1,3.6,30.4,6.3,46,5.2c8.9-0.6,17.8-2.4,26.3-4.9C303.8,26.5,303.9,26.8,303.7,26.9"/>
	<path class="st0" d="M304,26.8c-6.9,2.9-14.4,4.4-21.8,5.4c-7.6,1-15.3,1.2-23,0.7c-15.9-1-31.2-5.5-46.8-8.4
		c-8.7-1.6-17.6-2.7-26.4-1.4c-0.6,0.1-0.9-0.9-0.3-1c7.4-1.1,15-0.4,22.3,0.8c8,1.3,15.7,3.3,23.6,5c7.9,1.8,15.9,3.5,23.9,4.3
		c7.7,0.8,15.5,0.7,23.3-0.1c8.6-0.9,16.9-3,25.1-5.6C304.1,26.4,304.2,26.7,304,26.8"/>
	<path class="st0" d="M184.7,20.6c0.3,0.3,0.5,0.6,0.8,0.9c0.3,0.3,0.6,0.6,0.7,0.9c0.2,0.4-0.3,0.8-0.6,0.5
		c-0.3-0.2-0.5-0.6-0.7-0.9c-0.2-0.3-0.5-0.6-0.7-1C183.9,20.7,184.4,20.4,184.7,20.6"/>
	<path class="st0" d="M196.8,19.8c3.6,0.4,5.7-2.9,7.6-5.4c1.7-2.2,3.6-4.3,5.7-6c4.2-3.5,9.3-6,14.6-7.3c3.1-0.7,6.2-1.1,9.4-0.9
		c0.3,0,0.6,0.5,0.2,0.7c-4.4,2-8,5.6-10.2,9.9c-1.1,2.2-1.8,4.4-2.1,6.8c-0.4,2.4-1.4,4.5-3,6.3c-0.4,0.4-1-0.2-0.6-0.6
		c0.9-1.1,1.7-2.3,2.2-3.6c0.4-1.2,0.6-2.5,0.8-3.7c0.5-2.3,1.3-4.5,2.4-6.5c2.4-4.1,5.9-7.3,10.2-9.3l0.2,0.7
		c-5.9-0.1-11.7,1.1-16.9,3.8c-5.4,2.7-9.6,6.7-13.1,11.5c-1.6,2.2-4.2,5-7.3,4C196.7,20,196.7,19.7,196.8,19.8"/>
	<path class="st0" d="M218.8,23.3c-0.1,0-0.1-0.1-0.2-0.1c-0.2-0.2,0.1-0.5,0.3-0.3c0,0,0.1,0.1,0.1,0.2
		C219.1,23.3,218.9,23.4,218.8,23.3"/>
	<path class="st0" d="M218.9,23c3.2-0.3,4.3-3.7,5.4-6.2c0.8-2,1.9-3.9,3.3-5.6c2.8-3.5,6.5-6.1,10.6-7.6c0.4-0.2,0.6,0.5,0.2,0.7
		c-3.7,1.3-5.6,5-6.5,8.6c-1.1,4.3-1,8.8-2.5,13c-0.2,0.5-1,0.3-0.9-0.2c1.6-4.6,1.3-9.5,2.9-14.1c1.2-3.4,3.3-6.6,6.8-7.9
		c0.1,0.2,0.1,0.4,0.2,0.7c-4.6,1.7-8.6,4.8-11.4,8.8c-1.4,2.1-2.2,4.4-3.3,6.6c-1,1.9-2.5,3.6-4.7,3.7
		C218.6,23.4,218.6,23,218.9,23"/>
	<path class="st0" d="M228.9,25.7c5.5-3.3,6.4-10.1,9.5-15.2c1.3-2.1,3.1-4.1,5.3-5.2c2.7-1.3,5.6-1,8.5-0.7
		c3.9,0.4,7.8,0.9,11.8,1.3c0.4,0,0.6,0.5,0.2,0.8c-7.7,5.1-11.4,14.8-9.5,23.7c0.1,0.4-0.6,0.6-0.7,0.2c-2.3-9.2,1.9-19.5,9.7-24.6
		c0.1,0.3,0.1,0.5,0.2,0.8c-4.2-0.5-8.5-1-12.7-1.4c-2-0.2-4.1-0.4-6.1,0.2c-1.7,0.5-3.2,1.7-4.4,3c-4.7,5.2-4.9,14.2-11.6,17.6
		C228.8,26.3,228.6,25.8,228.9,25.7"/>
	<path class="st0" d="M268,31.8c5.4-10.1,15.1-18.4,26-22.2c0.4-0.1,0.6,0.5,0.3,0.7c-2.3,1.2-4.1,3.2-5,5.6
		c-0.2-0.1-0.4-0.3-0.6-0.4c9.4-4.2,18.9,4,28.5,1.6c0.3-0.1,0.7,0.2,0.6,0.6c-2.3,7.2-7.2,13.5-13.7,17.6c-6.8,4.3-15.2,5.6-23.1,4
		c-4.6-0.9-9.1-2.9-12.8-5.8c-0.4-0.3,0.1-0.9,0.5-0.6c6.8,4.6,14.5,7.2,22.8,6.2c7.4-0.9,14.4-5.2,19.2-10.8
		c2.7-3.1,4.8-6.8,6.1-10.7l0.6,0.6c-9.5,2.4-19.1-6-28.4-1.9c-0.3,0.1-0.7-0.1-0.6-0.4c1-2.7,2.9-4.8,5.4-6.1
		c0.1,0.2,0.2,0.4,0.3,0.7c-11,3.7-19.8,12-25.7,21.7C268.3,32.3,267.9,32.1,268,31.8"/>
	<path class="st0" d="M254.1,30.7c-1.2-5.8,0.9-11.6,4.8-15.9c1.9-2.1,4.2-3.8,6.7-5.3c2.7-1.6,5.4-2.9,8.5-3.1
		c3.8-0.3,7.6,0.6,11.2,1.6c0.4,0.1,0.5,0.6,0.1,0.8c-4.4,2.2-8.2,5.2-11.5,8.9c-3,3.4-7.9,9.2-5,13.9c0.2,0.3-0.3,0.7-0.5,0.3
		c-3.2-4.7,1.1-10.3,4.1-13.9c3.4-4.1,7.8-7.5,12.6-10c0,0.3,0.1,0.5,0.1,0.8c-3.9-1-8.1-2.1-12.2-1.5c-3.4,0.5-6.8,2.5-9.6,4.5
		c-5.7,4.2-10.3,11.3-8.4,18.6C255,31,254.2,31.3,254.1,30.7"/>
	<path class="st0" d="M251.7,32c-0.4,1.6-0.7,3-0.3,4.6c0.3,1.5,1,2.9,1.9,4.1c1.9,2.5,4.7,4.1,7.7,4.8c6.4,1.6,13.3,0.1,19.4,3
		c-0.2,0.2-0.4,0.4-0.6,0.6c-2.1-3-5-5.1-7.5-7.8c-2.1-2.2-4.2-4.9-4.4-8c0-0.4,0.6-0.4,0.6,0c0.1,3.4,2.8,6.2,5.1,8.5
		c2.3,2.3,5,4.3,6.9,6.9c0.3,0.4-0.2,0.7-0.6,0.6c-6.8-3.1-14.6-1-21.5-3.7c-2.7-1.1-5.2-2.9-6.7-5.5c-1.4-2.4-2.1-5.7-0.5-8.2
		C251.4,31.6,251.8,31.7,251.7,32"/>
	<path class="st0" d="M197.5,21.8c3.1,1.5,4.4,5.1,5.6,8.1c1.4,3.5,3.1,6.5,6,8.9c5.9,5.1,13.7,6.8,21.1,8.5
		c-0.1,0.3-0.2,0.6-0.3,0.9c-4.2-1.4-7.8-4.2-9.8-8.2c-2.2-4.5-2.4-9.7,0-14.1c0.2-0.5,1-0.1,0.7,0.4c-4,8.1,0.4,18.7,9.4,20.9
		c0.6,0.1,0.3,1.1-0.3,0.9c-5.9-1.2-12-2.6-17.3-5.6c-2.3-1.4-4.4-3-6.2-5.1c-1.8-2.1-3-4.4-3.9-6.9c-1.3-3.3-2.5-6.3-5.3-8.5
		C197.1,21.9,197.3,21.7,197.5,21.8"/>
	<path class="st0" d="M221.3,26c-0.4,1.3-0.7,2.4-0.6,3.8c0.1,1.3,0.4,2.6,0.9,3.8c1,2.5,2.8,4.5,4.7,6.3c1.9,1.7,3.9,3.3,5.8,4.9
		c1.7,1.5,3.8,3.3,4.7,5.5c0.1,0.4-0.4,0.7-0.7,0.4c-0.9-1-1.6-2.3-2.6-3.3c-0.9-1-1.9-1.9-2.9-2.8c-2.1-1.8-4.2-3.6-6.1-5.6
		c-1.6-1.8-3.1-3.9-3.8-6.2c-0.6-2.1-1-4.9,0.2-6.9C220.9,25.7,221.4,25.8,221.3,26"/>
	<path class="st0" d="M234.5,28.8c-0.2,1.9,0.1,3.7,0.6,5.5c0.6,1.8,1.2,3.5,1.6,5.3c0.7,3.4,1,7.5,0,10.9c-0.2,0.6-1,0.3-0.9-0.2
		c0.6-3.9,0.8-7.9-0.2-11.8c-0.8-3-2.8-6.7-1.6-9.8C234.2,28.5,234.5,28.5,234.5,28.8"/>
	<path class="st0" d="M234.7,28.9c1.8,1,2.3,3.3,2.8,5.1c0.7,2.6,1,5.1,2.2,7.5c2.2,4.2,6,7.2,10.5,8.7c-0.1,0.2-0.3,0.4-0.4,0.6
		c-0.7-1.5-1.4-2.9-1.7-4.5c-0.4-1.6-0.5-3.3-0.4-5c0.2-3.2,1.1-6.6,3-9.2c0.3-0.4,0.8,0,0.6,0.4c-1.8,2.7-2.9,5.6-3,8.9
		c-0.1,3,0.5,6.6,2.2,9.1c0.2,0.3-0.1,0.7-0.4,0.6c-4.3-1.1-8.1-4.1-10.4-7.8c-1.3-2-2-4.3-2.5-6.6c-0.5-2.4-0.8-5.5-2.9-7.1
		C234.1,29.1,234.5,28.8,234.7,28.9"/>
	<path class="st0" d="M242.3,3.9c-4.4,0.6-5.7,5.5-7.1,9c-0.8,2-1.5,4-2.2,6.1c-0.7,2-1.4,4.1-2.3,6c-0.2,0.4-1.2,0.8-1.1,0.3
		c0.7-2.3,2.1-5.2,3-7.4c0.9-2.3,1.9-4.6,2.8-6.9c1.3-3.1,3-6.8,6.8-7.2C242.4,3.7,242.4,3.9,242.3,3.9"/>
	<path class="st0" d="M229.4,45.6c-2.9-2.4-5.9-4.7-7.9-8c-1.7-2.8-2.9-6.8-1.6-9.9c0.1-0.3,0.5-0.2,0.5,0.1c-0.3,1.8-0.4,3.4,0,5.2
		c0.4,1.7,1.1,3.4,2.1,4.8c1.9,2.9,4.4,5.3,7.1,7.5C229.7,45.5,229.6,45.7,229.4,45.6"/>
	<path class="st0" d="M287,11.1c-2.3,0.7-4.2,1.8-6.1,3.2c-2,1.4-3.9,2.8-5.7,4.5c-3.4,3.3-5,7.8-6.3,12.3c-0.2,0.5-1,0.3-0.8-0.2
		c1.6-4.5,3.2-9.1,6.8-12.5c1.7-1.6,3.7-3.1,5.6-4.5c2-1.4,4.1-2.7,6.5-3.1C287.1,10.8,287.2,11.1,287,11.1"/>
	<path class="st0" d="M294.3,42.2c-4.8,0.7-9.4,0-14-1.4c-2.2-0.6-4.5-1.6-6.5-2.7c-2-1.2-4.2-2.5-5.7-4.3c-0.2-0.2,0.1-0.6,0.3-0.4
		c1.9,1.3,3.6,2.8,5.6,4c2,1.2,4.1,2.2,6.3,3c4.3,1.6,9.2,1.8,13.8,1.5C294.4,41.9,294.4,42.2,294.3,42.2"/>
	<path class="st0" d="M279.7,44.4c-4.8-2.3-9-6-11.6-10.7c-0.2-0.4,0.4-0.8,0.6-0.4c1.5,2.2,2.9,4.3,4.8,6.2
		c1.9,1.8,3.9,3.4,6.3,4.5C280,44.2,279.8,44.5,279.7,44.4"/>
	<path class="st0" d="M256.3,49.2c-2.4-0.8-4.4-3.3-5.3-5.6c-1.3-3.3-1-6.7-0.7-10.2c0-0.3,0.5-0.3,0.5,0c-0.2,3-0.3,6.2,0.5,9.1
		c0.4,1.4,1,2.6,1.9,3.8c0.9,1.1,2,1.8,3.2,2.6C256.5,49.1,256.4,49.3,256.3,49.2"/>
	<path class="st0" d="M281.5,15.5c-2.7,1.7-5.2,3.8-7.3,6.3c-2.1,2.5-3.6,5.3-5,8.2c-0.1,0.3-0.6,0.1-0.5-0.2c1.1-3.1,3-5.8,5.1-8.2
		c2.2-2.5,4.7-4.7,7.6-6.4C281.6,15.2,281.7,15.4,281.5,15.5"/>
	<path class="st0" d="M235.7,2.8c-1,0.4-2.1,0.7-3,1.2c-1.1,0.5-2.1,1.2-3,2c-1.8,1.6-3.1,3.6-4.2,5.8c-1.8,3.8-3,8.4-6.1,11.4
		c-0.3,0.3-0.8-0.1-0.6-0.4c1.4-1.9,2.6-3.7,3.7-5.8c1-2.1,2.1-4.3,3.3-6.4c1.1-2,2.5-3.9,4.3-5.3c1.5-1.2,3.6-2.4,5.6-2.6
		C235.7,2.6,235.7,2.7,235.7,2.8"/>
	<path class="st0" d="M233.9,24.3c6.5-4.8,5.6-14.5,11.9-19.4c0.3-0.2,0.7,0.2,0.4,0.4c-6.2,4.9-5.2,15.1-12.2,19.2
		C233.9,24.6,233.8,24.4,233.9,24.3"/>
	<path class="st0" d="M237.9,24c2.9-2.9,4.3-6.8,5.8-10.6c1.3-3.3,2.9-6.8,5.9-9c0.2-0.2,0.5,0.2,0.3,0.4c-3.1,2.7-4.7,6.2-6.2,9.9
		c-1.4,3.4-2.8,6.9-5.6,9.5C237.9,24.4,237.8,24.2,237.9,24"/>
	<path class="st0" d="M249.6,25.8c0.1-7.3,3.3-14.6,8.1-20.1c0.2-0.3,0.7,0.1,0.4,0.4c-4.9,5.6-7.4,12.4-8.2,19.7
		C249.8,26,249.6,26,249.6,25.8"/>
	<path class="st0" d="M245,23.3c0.9-6.6,4.1-13,8-18.3c0.2-0.3,0.7,0,0.5,0.3c-2,2.6-3.7,5.5-5,8.5C247.1,16.9,246.1,20.1,245,23.3
		C245,23.4,245,23.4,245,23.3"/>
	<path class="st0" d="M241.8,26.3c0,0,0.1,0,0.1,0c0,0,0,0.1,0,0.1c0,0-0.1,0-0.1,0C241.7,26.4,241.7,26.3,241.8,26.3"/>
	<path class="st0" d="M241.6,26.3c1.7-7.7,4.9-15.4,9.8-21.6c0.1-0.2,0.4,0.1,0.3,0.2c-2.3,3.2-4.4,6.5-6,10.1
		c-1.7,3.7-2.9,7.5-3.9,11.4C241.8,26.6,241.6,26.5,241.6,26.3"/>
	<path class="st0" d="M251.4,25.5c0-3.6,1-7.3,2.5-10.6c1.5-3.2,3.7-6.8,6.6-9c0.2-0.2,0.5,0.1,0.3,0.3c-1.2,1.4-2.5,2.6-3.6,4
		c-1.1,1.4-2,3-2.8,4.6c-1.6,3.4-2.3,7-2.8,10.7C251.7,25.7,251.4,25.7,251.4,25.5"/>
	<path class="st0" d="M248.5,19.9c0.6-2.6,1.6-5,2.7-7.5c1.1-2.5,2.4-5,3.8-7.3c0.2-0.3,0.6,0,0.5,0.3c-1.4,2.3-2.6,4.7-3.7,7.2
		c-1.1,2.4-2,5-3.1,7.4C248.6,20,248.5,20,248.5,19.9"/>
	<path class="st0" d="M236.1,19.6c1.9-2.7,2.1-5.9,3.6-8.8c1.1-2.2,3-4.6,5.4-5.7c0.2-0.1,0.5,0.2,0.3,0.4c-1.1,0.9-2.2,1.6-3.2,2.6
		c-0.9,1-1.7,2.2-2.3,3.5C238.6,14.3,238.5,17.7,236.1,19.6C236.2,19.7,236.1,19.7,236.1,19.6"/>
	<path class="st0" d="M240.9,17.2c1.2-4.5,2.9-10.4,7.4-12.7c0.3-0.1,0.5,0.2,0.2,0.4C244.1,7.7,243,12.7,240.9,17.2
		C240.9,17.2,240.9,17.2,240.9,17.2"/>
	<path class="st0" d="M256,28.1c0-1.8,0.7-3.7,1.3-5.4c0.6-1.8,1.4-3.5,2.4-5.2c1.8-3.2,4.3-6.3,7.3-8.5c0.2-0.2,0.5,0.2,0.3,0.4
		c-2.8,2.4-5.3,5.1-7.2,8.4c-1,1.6-1.8,3.3-2.4,5.1c-0.6,1.7-0.9,3.6-1.5,5.3C256.1,28.1,256,28.1,256,28.1"/>
	<path class="st0" d="M258.8,28.6c1.6-5.2,5.4-10.1,9.6-13.5c4.3-3.6,9.6-6.1,15.1-7c0.4-0.1,0.5,0.5,0.2,0.6
		c-5.5,1-10.7,3.3-15,6.9c-2.2,1.8-4.1,3.8-5.8,6c-1.6,2.2-2.8,4.6-3.9,7.1C258.9,28.7,258.8,28.7,258.8,28.6"/>
	<path class="st0" d="M265.4,30.4c-0.8-2.5,0.1-5.2,1.1-7.5c1-2.2,2.3-4.3,3.8-6.1c3-3.6,7.3-6.9,11.9-8.1c0.2-0.1,0.4,0.3,0.2,0.4
		c-2.1,0.9-4.1,1.7-6,3c-1.9,1.3-3.7,2.8-5.2,4.6c-1.5,1.7-2.8,3.7-3.9,5.7c-1.2,2.4-2.5,5.3-1.8,8
		C265.6,30.5,265.4,30.5,265.4,30.4"/>
	<path class="st0" d="M257.4,26.9c1.9-5.3,5.6-10.2,9.7-14c3.9-3.7,9.4-6,14.8-5.3c0.3,0,0.3,0.5,0,0.5c-5.6-0.5-10.8,1.7-14.9,5.5
		c-2,1.9-3.8,3.9-5.4,6.2C260,22.1,258.8,24.5,257.4,26.9C257.4,27,257.4,27,257.4,26.9"/>
	<path class="st0" d="M262.7,28.1c2.2-7,7-13.2,13.4-16.8c0.2-0.1,0.4,0.2,0.2,0.3c-6.3,3.8-11,9.6-13.4,16.6
		C262.9,28.3,262.7,28.2,262.7,28.1"/>
	<path class="st0" d="M258.5,22.6c1.4-3,3.5-5.8,5.6-8.3c2.1-2.5,4.5-5.1,7.2-7.1c0.2-0.1,0.4,0.1,0.2,0.3c-2.4,2.2-4.9,4.3-7.1,6.9
		C262.2,16.9,260.4,19.7,258.5,22.6C258.5,22.6,258.5,22.6,258.5,22.6"/>
	<path class="st0" d="M272.9,28.7c2.6-3.3,5.6-6.4,8.8-9.3c3-2.8,6.2-5.6,9.7-7.8c0.2-0.1,0.4,0.2,0.2,0.3c-3.3,2.6-6.7,5.1-9.8,7.9
		C278.6,22.6,275.8,25.7,272.9,28.7C272.9,28.8,272.8,28.7,272.9,28.7"/>
	<path class="st0" d="M276.8,28c2.3-4.4,6.7-7.7,11.4-9.3c6-2,12-0.3,18.1,0.3c1.7,0.2,3.5,0.2,5.2,0.1c1.9-0.2,3.6-0.8,5.4-1.4
		c0.2-0.1,0.4,0.3,0.2,0.4c-3,1.8-7.2,1.8-10.6,1.4c-4.1-0.4-8.1-1.4-12.2-1.3c-3.5,0.1-6.9,1-10,2.8c-3,1.8-5.4,4.3-7.3,7.2
		C276.9,28.2,276.7,28.1,276.8,28"/>
	<path class="st0" d="M278.4,29.2c5-4,11.3-5.2,17.5-6c3.6-0.5,7.3-0.9,10.9-1.8c1.7-0.4,3.4-1,5.1-1.6c1.6-0.6,3.2-1.5,4.9-2.1
		c0.3-0.1,0.4,0.3,0.2,0.4c-1.3,1-3,1.5-4.5,2.1c-1.5,0.6-3.1,1.1-4.7,1.5c-3.3,0.8-6.6,1.2-10,1.6c-6.7,0.8-13.7,1.7-19.2,5.9
		C278.5,29.4,278.4,29.3,278.4,29.2"/>
	<path class="st0" d="M285.8,23.1c3.8-2.1,8.4-2.4,12.6-2.6c4.9-0.2,9.8-0.1,14.6-1.5c0.3-0.1,0.4,0.4,0.1,0.5
		c-4.5,1.4-9.2,1.3-13.8,1.4C294.6,20.9,290.2,21.4,285.8,23.1C285.8,23.2,285.8,23.1,285.8,23.1"/>
	<path class="st0" d="M285.2,18.4c1.3-1.1,2.8-2,4.2-3c0.2-0.1,0.4,0.2,0.2,0.3c-1.4,1-2.8,1.9-4.3,2.7
		C285.2,18.5,285.1,18.4,285.2,18.4"/>
	<path class="st0" d="M283.2,33.7c3.4,0.2,6.8,0.2,10.2-0.4c3.2-0.6,6.5-1.6,9.4-3.1c2.8-1.4,5.3-3.3,7.6-5.4
		c2.3-2.1,4.1-4.5,6.1-6.9c0.2-0.3,0.6,0.1,0.4,0.3c-1.6,2.7-4,5.2-6.4,7.3c-2.4,2.1-5,4-7.8,5.3c-5.9,2.8-13.1,4.2-19.6,3
		C283.1,33.8,283.1,33.7,283.2,33.7"/>
	<path class="st0" d="M290.2,27.3c3.7-2.5,8.4-3.2,12.7-3.9c4.6-0.8,9.1-1.7,13.1-4.2c0.3-0.2,0.5,0.2,0.2,0.4
		c-3.6,2.6-8.3,3.4-12.6,4.1c-4.6,0.8-9.1,1.5-13.3,3.9C290.2,27.6,290.1,27.4,290.2,27.3"/>
	<path class="st0" d="M278.1,33.9c4.8,1.3,9.7,1.9,14.6,1.6c5-0.3,9.9-1.6,14.5-3.7c0.3-0.1,0.6,0.3,0.3,0.5
		c-8.9,4.2-20.1,5.1-29.5,1.9C277.9,34.1,278,33.9,278.1,33.9"/>
	<path class="st0" d="M274.3,34.2c2.5,2,5.1,3.6,8.2,4.5c0.2,0.1,0.1,0.4-0.1,0.4C279.3,38.2,276.3,36.6,274.3,34.2
		C274.1,34.2,274.2,34.1,274.3,34.2"/>
	<path class="st0" d="M279.4,35.9c2.5,0.7,5,1.4,7.5,1.9c2.7,0.5,5.3,0.5,8,0.7c0.2,0,0.2,0.3,0,0.4c-2.6,0.2-5.4-0.2-8-0.6
		C284.4,37.7,281.8,37,279.4,35.9C279.4,35.9,279.4,35.8,279.4,35.9"/>
	<path class="st0" d="M265.8,33.9c-1,3.6,3.3,6.1,5.6,8c2.8,2.2,5.8,4.3,8.4,6.7c0.2,0.2-0.1,0.6-0.3,0.4c-1.7-1.2-3.2-2.6-4.8-3.9
		c-1.6-1.3-3.1-2.6-4.7-3.8c-2.2-1.8-5.7-4.1-4.4-7.4C265.7,33.8,265.8,33.8,265.8,33.9"/>
	<path class="st0" d="M262.6,34.6c0.7,2.6,1.7,5.1,3.4,7.2c1.7,2.1,3.7,3.6,6,4.9c0.3,0.2,0,0.5-0.2,0.4c-4.7-2.3-8.6-7.2-9.3-12.4
		C262.4,34.5,262.5,34.5,262.6,34.6"/>
	<path class="st0" d="M254.3,33.3c-0.4,1.6-0.7,3.2-0.5,4.8c0.2,1.7,0.7,3.4,1.6,4.8c0.1,0.2-0.2,0.5-0.4,0.2
		c-1.8-2.8-2.5-6.9-0.9-10C254.2,33.2,254.3,33.2,254.3,33.3"/>
	<path class="st0" d="M257.5,34.4c0.3,4.6,2.1,8.3,5.4,11.4c0.2,0.2-0.1,0.6-0.4,0.4c-3.4-2.6-5.6-7.4-5.3-11.7
		C257.3,34.3,257.5,34.3,257.5,34.4"/>
	<path class="st0" d="M260.2,34.5c0.4,2.4,0.9,4.7,2.2,6.8c1.3,2.2,3.1,3.8,5.1,5.3c0.2,0.2,0,0.5-0.2,0.4
		c-4.2-2.3-7.4-7.7-7.3-12.4C260,34.5,260.2,34.4,260.2,34.5"/>
	<path class="st0" d="M255.4,36.2c0.5,3.4,1.5,6.3,3.8,9c0.2,0.2-0.1,0.5-0.3,0.3c-2.3-2.4-3.8-5.9-3.7-9.3
		C255.2,36.1,255.4,36.1,255.4,36.2"/>
	<path class="st0" d="M265.3,38.2c1.6,1.8,3.3,3.6,5.2,5.2c2,1.6,4.1,3,6.4,4.2c0.3,0.1,0,0.5-0.2,0.4c-4.3-2.3-8.6-5.6-11.5-9.6
		C265.1,38.2,265.2,38.1,265.3,38.2"/>
	<path class="st0" d="M247.1,32.6c-1.4,3.2-0.9,6.7-0.2,10c0.3,1.3,0.6,2.6,1,3.9c0.5,1.5,1.2,2.7,2,3.9c0.1,0.2-0.2,0.5-0.4,0.3
		c-2.2-2.1-2.6-5.8-3.1-8.6c-0.6-3.2-1-6.6,0.5-9.6C247,32.4,247.2,32.5,247.1,32.6"/>
	<path class="st0" d="M242.6,31.9c-0.6,3.4-0.3,6.6,0.9,9.9c1,2.8,2.1,5.3,4.4,7.3c0.2,0.2-0.1,0.6-0.3,0.4
		c-2.4-1.7-3.5-4.8-4.5-7.4c-1.2-3.3-1.7-6.8-0.7-10.2C242.4,31.7,242.6,31.8,242.6,31.9"/>
	<path class="st0" d="M239.3,32.1c-0.6,3.9,0.8,7.2,3,10.3c0.9,1.4,1.8,2.7,2.9,4c1,1.2,2.1,2.2,3.2,3.3c0.2,0.2-0.1,0.5-0.3,0.4
		c-2.8-1.9-4.7-5.1-6.5-7.8c-1.9-2.9-3.6-6.6-2.4-10.1C239.2,32,239.3,32,239.3,32.1"/>
	<path class="st0" d="M245.4,31.9c-0.4,3.4-1.2,6.8,0,10.1c0.9,2.7,2.4,5.2,4.4,7.3c0.2,0.2-0.1,0.6-0.3,0.4
		c-2.2-1.7-3.5-4.8-4.4-7.3c-1.2-3.4-0.3-7,0.2-10.5C245.2,31.8,245.4,31.8,245.4,31.9"/>
	<path class="st0" d="M248.2,34.5c-1.6,4-0.9,8.1,0.4,12c0.1,0.3-0.3,0.3-0.4,0.1c-1.6-3.8-1.9-8.4-0.1-12.2
		C248.1,34.4,248.2,34.5,248.2,34.5"/>
	<path class="st0" d="M243.8,33c-0.5,2.7-0.4,5.4,0.3,8c0.9,3.2,2.6,6,4.6,8.7c0.1,0.1-0.1,0.2-0.2,0.1
		C244.7,45.4,242.2,38.8,243.8,33C243.7,32.9,243.8,32.9,243.8,33"/>
	<path class="st0" d="M256.2,34.8c0.1,2,0.4,4,1.2,5.9c0.8,1.9,2,3.4,3.4,4.9c0.1,0.1,0,0.2-0.1,0.1c-1.5-1.3-2.7-3.2-3.5-5
		c-0.8-1.9-1.3-3.9-1.2-6C256,34.7,256.2,34.7,256.2,34.8"/>
	<path class="st0" d="M258.5,33.8c0.3,1.2,0.5,2.4,0.9,3.5c0.4,1.2,0.9,2.3,1.5,3.4c1.2,2.2,2.9,3.9,4.7,5.6c0.1,0.1,0,0.3-0.2,0.2
		c-2-1.4-3.6-3.6-4.8-5.7c-0.6-1.1-1.1-2.2-1.5-3.4c-0.4-1.2-0.8-2.4-0.8-3.6C258.3,33.7,258.4,33.7,258.5,33.8"/>
	<path class="st0" d="M261,33.9c0.4,1.3,0.7,2.5,1.2,3.7c0.5,1.2,1.1,2.4,1.8,3.4c0.7,1.1,1.5,2.1,2.4,3c0.4,0.4,0.9,0.9,1.4,1.3
		c0.5,0.4,1.1,0.8,1.6,1.3c0.1,0.1,0,0.3-0.2,0.2c-0.6-0.3-1.1-0.8-1.5-1.2c-0.5-0.4-1-0.9-1.5-1.4c-0.9-1-1.7-2-2.5-3.1
		c-1.4-2.1-2.6-4.7-2.9-7.3C260.9,33.9,261,33.9,261,33.9"/>
	<path class="st0" d="M266.7,34.6c0.2,2.8,2.2,5,4.3,6.7c2,1.8,4.3,3.2,6.6,4.6c0.1,0.1,0,0.3-0.1,0.2c-2.5-1.3-4.9-3-7-4.9
		c-2-1.8-3.8-3.9-3.9-6.7C266.6,34.5,266.7,34.5,266.7,34.6"/>
	<path class="st0" d="M277.2,34.6c3.7,1,7.4,1.8,11.2,2.2c3.7,0.4,7.5,0.4,11.2,0.1c0.2,0,0.2,0.3,0,0.3
		C292.1,37.9,284.3,37.1,277.2,34.6C277.1,34.7,277.1,34.6,277.2,34.6"/>
	<path class="st0" d="M282,24c6-5.3,14.5-5.2,22-4.8c2.1,0.1,4.2,0.2,6.2,0.4c0.1,0,0.2,0.2,0,0.2c-1.7,0-3.5-0.2-5.3-0.3
		c-2-0.1-4-0.2-6-0.2c-3.9,0-7.7,0.3-11.4,1.6C285.6,21.7,283.7,22.8,282,24C282,24.1,281.9,24,282,24"/>
	<path class="st0" d="M289,17.6c2.5-1.8,5.7-2,8.7-1.6c3.5,0.5,6.9,1.7,10.4,2.2c2.1,0.3,4.2,0.3,6.3,0.3c0.2,0,0.1,0.2,0,0.2
		c-3.4,0.3-7-0.2-10.3-1.1c-3.2-0.8-6.5-1.8-9.8-1.5C292.4,16.3,290.6,16.7,289,17.6C289,17.7,289,17.7,289,17.6"/>
	<path class="st0" d="M246.8,23.1c0.2-3.3,1.1-6.6,2.3-9.7c1.2-2.9,2.7-6,4.9-8.3c0.1-0.1,0.4,0,0.3,0.2c-0.9,1.4-1.9,2.6-2.7,4.1
		c-0.8,1.4-1.6,3-2.2,4.5c-1.2,3-1.8,6.1-2.3,9.3C247,23.3,246.8,23.2,246.8,23.1"/>
	<path class="st0" d="M239.9,25c2.2-7.3,5.7-14.2,10.2-20.3c0.1-0.2,0.4,0,0.3,0.2c-4.5,6.2-7.9,12.9-10.3,20.2
		C240.1,25.1,239.9,25.1,239.9,25"/>
	<path class="st0" d="M231.3,29.6c-0.9,2-0.2,4,0.8,5.8c0.8,1.4,1.5,2.9,2.1,4.4c1.3,3.2,1.9,6.6,2,10.1c0,0.4-0.5,0.3-0.5,0
		c-0.2-4-1.2-8.1-2.8-11.7c-1.1-2.5-3.9-6-1.7-8.7C231.2,29.4,231.4,29.5,231.3,29.6"/>
	<path class="st0" d="M225.8,30.2c-1.1,4.2,1.5,8.3,2.9,12.2c0.1,0.3-0.4,0.4-0.5,0.1c-0.9-2.2-1.9-4.5-2.6-6.8
		c-0.6-1.8-0.9-3.9,0.1-5.6C225.7,30,225.9,30.1,225.8,30.2"/>
	<path class="st0" d="M222.7,27.9c0,1.7-0.1,3.4,0.2,5.1c0.3,1.7,0.7,3.3,1.4,4.9c0.1,0.3-0.3,0.5-0.4,0.2c-1.4-3-2.3-7-1.4-10.2
		C222.5,27.7,222.7,27.7,222.7,27.9"/>
	<path class="st0" d="M228.2,29.7c-0.6,3.3,0.6,6.5,2,9.4c1,2.1,2.2,4.2,2.4,6.6c0,0.3-0.4,0.3-0.5,0.1c-0.4-1.5-0.7-2.9-1.3-4.3
		c-0.5-1.1-1-2.1-1.4-3.2c-1.1-2.7-2.2-5.7-1.4-8.7C228,29.4,228.2,29.5,228.2,29.7"/>
	<path class="st0" d="M223.2,23c1.7-3.1,3.5-6.3,5.2-9.4c1.5-2.7,3.3-5.8,5.7-7.7c0.3-0.2,0.6,0.1,0.4,0.4c-1.1,1.3-2.4,2.5-3.4,3.9
		c-0.9,1.2-1.7,2.6-2.5,3.9c-1.8,2.9-3.5,6-5.2,9C223.3,23.2,223.1,23.1,223.2,23"/>
	<path class="st0" d="M225.3,23.6c4.1-4.7,3.8-12.1,8.5-16.4c0.3-0.2,0.6,0.1,0.4,0.4c-2.2,2.5-3.4,5.4-4.5,8.5
		c-1,2.8-2.2,5.5-4.2,7.7C225.4,24,225.1,23.7,225.3,23.6"/>
	<path class="st0" d="M228.1,23.5c0.7-1.1,1-2.4,1.8-3.5c0.2-0.2,0.5,0,0.4,0.2c-0.5,1.2-1.5,2.2-2,3.3
		C228.2,23.7,228.1,23.6,228.1,23.5"/>
	<path class="st0" d="M229.4,31c-0.3,1.9,0.6,3.5,1.3,5.2c0.6,1.4,1.2,2.8,1.9,4.2c1.2,2.8,2.5,5.5,3.6,8.4c0.1,0.2-0.3,0.4-0.4,0.2
		c-1.4-3.1-2.7-6.3-4-9.5c-0.7-1.7-1.4-3.3-2.1-5C229.2,33.4,228.6,32.1,229.4,31C229.3,30.9,229.4,31,229.4,31"/>
	<path class="st0" d="M232.5,31.5c-0.1,3,1.7,5.5,2.7,8.2c1,2.7,1.4,5.6,1.2,8.5c0,0.3-0.4,0.3-0.4,0c0.1-3.2-0.4-6.3-1.5-9.3
		c-0.9-2.4-2.8-4.8-2.2-7.5C232.3,31.3,232.5,31.4,232.5,31.5"/>
	<path class="st0" d="M227,29.1c0.3,2.6,0.3,5.1,0.8,7.7c0.5,2.4,1.4,4.7,2.4,7c0.1,0.2-0.2,0.3-0.3,0.1c-1.2-2.2-1.9-4.8-2.4-7.2
		c-0.5-2.4-1-5.1-0.6-7.6C226.8,29,227,29,227,29.1"/>
	<path class="st0" d="M224.5,29.5c-0.5,3.3-0.2,6.3,0.8,9.5c0.1,0.2-0.3,0.3-0.3,0.1c-1.3-2.9-1.5-6.6-0.7-9.7
		C224.4,29.4,224.5,29.4,224.5,29.5"/>
	<path class="st0" d="M251,21.7c0.9-5.9,4-11.8,8.1-16c0.2-0.2,0.4,0.1,0.2,0.2c-2.1,2.2-3.8,4.6-5.2,7.3c-1.4,2.7-2.2,5.6-2.9,8.5
		C251.2,21.9,251,21.8,251,21.7"/>
	<path class="st0" d="M261.9,20.4c4.4-6.1,11.3-10.6,18.4-12.8c0.3-0.1,0.4,0.3,0.1,0.4c-3.6,1.1-7,2.8-10.1,4.9
		c-3.1,2.2-5.8,4.8-8.2,7.7C262,20.7,261.9,20.5,261.9,20.4"/>
	<path class="st0" d="M266.1,27.4c1.2-4.5,3.3-8.5,6.5-11.9c3-3.2,7.2-6.1,11.5-7.2c0.3-0.1,0.4,0.3,0.1,0.5
		c-2.1,0.9-4.1,1.6-6.1,2.8c-1.9,1.2-3.7,2.6-5.2,4.2C269.8,19,267.4,23.1,266.1,27.4C266.2,27.4,266.1,27.4,266.1,27.4"/>
	<path class="st0" d="M287.2,27.6c3.1-3.7,8.5-3.6,12.9-4.4c5.1-0.9,9.8-2.7,14.6-4.6c0.2-0.1,0.3,0.2,0.1,0.3
		c-4.2,2.2-9.1,3.5-13.8,4.4c-4.6,0.9-10.4,0.4-13.8,4.3C287.2,27.8,287.1,27.7,287.2,27.6"/>
	<path class="st0" d="M295.5,27.4c6.1-3.2,13.6-2.5,19-7.2c0.2-0.2,0.5,0.1,0.3,0.3c-5.1,4.9-13.1,4.4-19.2,7
		C295.5,27.5,295.4,27.4,295.5,27.4"/>
	<path class="st0" d="M291.6,34.9c3.4-0.5,6.8-1.2,10.1-2.3c3.3-1.1,6.3-2.6,9.4-4.3c0.3-0.2,0.5,0.3,0.3,0.4
		c-5.8,3.7-12.9,5.8-19.7,6.3C291.5,35.1,291.5,34.9,291.6,34.9"/>
	<path class="st0" d="M272.1,33.7c0.2,0.9,0.7,1.7,1.5,2.3c0.1,0.1,0,0.3-0.1,0.2c-0.8-0.5-1.4-1.4-1.5-2.4
		C271.9,33.6,272,33.6,272.1,33.7"/>
	<path class="st0" d="M203.3,18.9c2.1-2.3,4.4-4.5,6.6-6.6c2.1-2,4.2-4,6.6-5.6c4.5-3.1,10-5.6,15.4-6.4c0.3,0,0.5,0.4,0.1,0.5
		c-2.6,0.7-5.2,1.3-7.8,2.3c-2.6,1.1-5.2,2.4-7.6,4C211.8,10.4,207.8,15,203.3,18.9C203.3,19.1,203.2,19,203.3,18.9"/>
	<path class="st0" d="M208.6,17.7c2.1-4.2,5.8-7.4,9.8-9.9c4.6-2.9,9.6-5.2,14.5-7.6c0.3-0.2,0.6,0.3,0.3,0.5
		C224.2,5,214.2,9,208.6,17.7C208.6,17.8,208.6,17.7,208.6,17.7"/>
	<path class="st0" d="M216.4,20.6c3.3-3.5,3.9-8.6,6.5-12.6c2.3-3.5,6-6.6,10.1-7.8c0.3-0.1,0.5,0.3,0.2,0.5c-2.1,0.9-4.1,1.9-6,3.3
		c-1.8,1.4-3.3,3.2-4.5,5.2C220.6,12.9,220,17.8,216.4,20.6C216.5,20.7,216.4,20.6,216.4,20.6"/>
	<path class="st0" d="M212.5,19.1c0.6-1.7,1.8-3.3,2.8-4.8c1.1-1.6,2.3-3.1,3.6-4.4c2.6-2.8,5.8-5.3,9.1-7.1
		c0.3-0.1,0.5,0.2,0.2,0.4c-3.3,2-6.3,4.2-8.9,6.9c-1.3,1.4-2.5,2.8-3.6,4.3c-1.1,1.5-2,3.2-3.1,4.8
		C212.6,19.2,212.5,19.1,212.5,19.1"/>
	<path class="st0" d="M210.1,19.3c4.2-6.8,10.1-12.9,17.5-16.3c0.2-0.1,0.4,0.2,0.2,0.3c-3.5,2-6.8,4.1-9.8,6.8
		C215,12.8,212.2,15.9,210.1,19.3C210.1,19.3,210.1,19.3,210.1,19.3"/>
	<path class="st0" d="M207.5,13.2c5-6.8,13.9-11.2,22.3-11.9c0.3,0,0.3,0.4,0,0.4c-4.3,0.5-8.4,1.7-12.3,3.7
		C213.7,7.5,210.5,10.2,207.5,13.2C207.5,13.3,207.5,13.2,207.5,13.2"/>
	<path class="st0" d="M213.7,20.5c1.4-2.2,2.9-4.3,4.4-6.5c1.2-1.9,2.5-3.7,3.9-5.5c1.4-1.8,2.9-3.5,4.7-4.9
		c1.5-1.3,3.2-2.8,5.3-2.9c0.3,0,0.3,0.4,0,0.4c-2.2,0.1-4.3,2.1-5.9,3.6c-1.5,1.4-2.9,3-4.2,4.7c-2.8,3.6-5.2,7.6-7.9,11.3
		C213.8,20.7,213.6,20.6,213.7,20.5"/>
	<path class="st0" d="M217.4,21.9c3.5-2.9,3.6-7.7,5.4-11.6c1.5-3.3,4.1-6.4,7.2-8.4c0.2-0.1,0.4,0.2,0.2,0.3
		c-3.4,2.5-6.1,5.6-7.6,9.6C221.2,15.4,220.6,19.5,217.4,21.9C217.4,21.9,217.4,21.9,217.4,21.9"/>
	<path class="st0" d="M203.6,24.5c0,5.9,4.5,10.4,8.8,13.9c4.3,3.5,9.1,6,14.3,8c0.3,0.1,0.2,0.6-0.1,0.5
		c-5.4-1.6-10.5-4.7-14.8-8.4c-4.2-3.5-8.7-8.2-8.3-14C203.4,24.4,203.6,24.4,203.6,24.5"/>
	<path class="st0" d="M209.1,26c-0.6,2.6,0.7,4.9,2.2,6.9c1.3,1.7,2.8,3.3,4.3,4.9c3.1,3.2,6.6,5.9,10.2,8.6c0.3,0.2,0,0.7-0.3,0.5
		c-4-2.7-7.6-6-10.9-9.6c-2.6-2.9-7-6.9-5.7-11.3C208.9,25.8,209.1,25.9,209.1,26"/>
	<path class="st0" d="M214.7,26.4c-0.9,3.5,0.6,6.9,2.3,10c1.6,2.9,3.7,5.5,6.1,7.9c0.2,0.2-0.1,0.6-0.4,0.4
		c-2.6-2.5-4.9-5.5-6.6-8.7c-1.5-2.8-3.1-6.5-1.7-9.6C214.5,26.2,214.7,26.3,214.7,26.4"/>
	<path class="st0" d="M217.6,27.5c-0.9,7.6,2.3,14.6,8.6,18.9c0.3,0.2,0,0.6-0.3,0.4c-6.5-4-9.9-11.9-8.6-19.4
		C217.4,27.4,217.6,27.4,217.6,27.5"/>
	<path class="st0" d="M211.6,26.8c0.8,3.3,1.9,6.5,3.8,9.4c1.9,2.9,4.4,5.4,7.3,7.4c0.2,0.2,0,0.5-0.2,0.4
		C216.7,40.4,212.1,33.7,211.6,26.8C211.6,26.8,211.6,26.8,211.6,26.8"/>
	<path class="st0" d="M206.6,25.4c0.8,4.5,3,8.3,6.2,11.5c1.7,1.6,3.5,3.1,5.4,4.4c1.9,1.3,4,2.4,6,3.8c0.2,0.1,0,0.4-0.2,0.3
		c-2.2-1.1-4.4-2.6-6.4-4.1c-1.9-1.4-3.7-2.8-5.4-4.5c-3-3.1-5.4-7-5.8-11.4C206.4,25.3,206.6,25.2,206.6,25.4"/>
	<path class="st0" d="M205.3,25.4c0.9,7.1,6.2,12.2,12,15.9c1.7,1.1,3.4,2.1,5.2,3.1c0.1,0.1,0,0.3-0.1,0.2
		c-6.1-3.5-12.6-7.5-15.7-14c-0.8-1.6-1.3-3.4-1.4-5.2C205.2,25.3,205.3,25.3,205.3,25.4"/>
	<path class="st0" d="M204.6,31.1c0.8,3.2,3.2,5.6,5.7,7.6c2.6,2.1,5.5,3.8,8.5,5.3c1.7,0.9,3.4,1.6,5.1,2.5c0.1,0.1,0,0.2-0.1,0.2
		c-3.1-1.3-6.2-2.9-9.2-4.7c-2.9-1.7-5.7-3.8-7.9-6.4C205.6,34.4,204.7,32.8,204.6,31.1C204.5,31.1,204.6,31.1,204.6,31.1"/>
	<path class="st0" d="M210.7,25.5c-0.5,5.1,1.5,9.9,5.4,13.1c0.1,0.1,0,0.2-0.1,0.1c-4-2.9-6.3-8.4-5.5-13.3
		C210.6,25.4,210.7,25.4,210.7,25.5"/>
	<path class="st0" d="M216.1,26c-0.4,2.9-0.2,5.8,0.7,8.6c0.8,2.8,2.3,5.3,4.2,7.5c0.1,0.1-0.1,0.2-0.1,0.1
		c-4-4.2-5.7-10.5-4.8-16.2C216,25.9,216.1,25.9,216.1,26"/>
	<path class="st0" d="M206.7,18c4.3-6.4,10.5-11.4,17.5-14.4c2-0.9,4.1-1.6,6.2-2c0.2,0,0.3,0.3,0.1,0.3C223.1,3.7,216.3,7.6,211,13
		C209.4,14.6,208,16.3,206.7,18C206.8,18.1,206.7,18.1,206.7,18"/>
	<path class="st0" d="M231.5,1.5c-3.4,2.2-6.3,5.3-8.3,8.9c-0.1,0-0.1-0.1-0.2-0.1c2.1-3.3,4.6-6.3,7.6-8.8c0.1,0.1,0.1,0.1,0.2,0.2
		c-2.4,1.8-4.4,3.9-6.2,6.2c-0.1,0.1-0.3,0-0.2-0.1c1.7-2.5,3.9-4.6,6.3-6.4c0.1-0.1,0.3,0.1,0.2,0.2c-3,2.5-5.5,5.4-7.6,8.7
		c-0.1,0.1-0.3,0-0.2-0.1c2-3.7,4.9-6.7,8.4-8.9C231.5,1.4,231.6,1.5,231.5,1.5"/>
	<path class="st0" d="M252.3,25.8c0.1-3,0.6-5.8,1.7-8.6c1-2.7,2.5-5.2,4.3-7.5c1.1-1.3,2.3-2.5,3.6-3.6c0.1-0.1,0.3,0.1,0.2,0.2
		c-4.5,3.7-7.6,8.9-8.9,14.6c-0.4,1.6-0.6,3.3-0.7,4.9C252.5,25.9,252.3,25.9,252.3,25.8"/>
	<path class="st0" d="M248.3,26.2c0.3-6,2.4-11.8,5.6-16.9c0.9-1.4,1.9-2.8,3-4.1c0.1-0.1,0.2,0,0.1,0.1c-3.8,4.6-6.4,10-7.7,15.7
		C248.9,22.8,248.6,24.5,248.3,26.2C248.4,26.3,248.3,26.3,248.3,26.2"/>
	<path class="st0" d="M252.9,33.3c-0.3,1.2-0.6,2.4-0.5,3.7c0.1,1.3,0.4,2.6,0.9,3.8c0,0.1-0.1,0.2-0.2,0.1
		C251.9,38.6,251.7,35.6,252.9,33.3C252.8,33.2,252.9,33.2,252.9,33.3"/>
	<path class="st0" d="M251.7,34.5c-0.1,0.7-0.2,1.4-0.2,2.2c0.1,0.8,0.3,1.6,0.6,2.3c0,0.1-0.1,0.2-0.2,0.1
		C251.3,37.7,251,35.9,251.7,34.5C251.6,34.4,251.7,34.5,251.7,34.5"/>
	<path class="st0" d="M237.4,31.2c-0.2,2.5,0.2,4.9,1.1,7.2c0,0.1-0.1,0.1-0.1,0.1c-1-2.3-1.4-4.8-1.1-7.2
		C237.3,31.2,237.4,31.2,237.4,31.2"/>
	<path class="st0" d="M221.3,28.7c-0.6,2.6-0.2,5.1,1.2,7.4c0.1,0.1-0.1,0.3-0.2,0.1c-1.5-2.1-2-5.1-1.2-7.6
		C221.2,28.6,221.4,28.6,221.3,28.7"/>
	<path class="st0" d="M218.5,28.2c-0.7,2.4-0.4,4.8,0.7,7.1c0.1,0.1-0.1,0.2-0.2,0.1c-1.3-2.1-1.5-4.9-0.7-7.2
		C218.3,28,218.5,28.1,218.5,28.2"/>
	<path class="st0" d="M225.5,16.7c0.6-1.8,1.8-3.6,3-5.1c1.2-1.5,2.7-3.1,4.4-4.1c0.1-0.1,0.3,0.1,0.2,0.2c-1.5,1.2-3,2.5-4.3,4
		c-0.6,0.8-1.2,1.6-1.8,2.5c-0.5,0.8-1,1.7-1.4,2.6C225.6,16.9,225.4,16.8,225.5,16.7"/>
	<path class="st0" d="M227.6,17.5c0.8-1.7,1.6-3.4,2.5-5.1c0.7-1.5,1.4-3.1,2.5-4.4c0.1-0.1,0.3,0,0.2,0.1c-1,1.4-1.8,2.9-2.5,4.4
		c-0.8,1.6-1.7,3.3-2.5,4.9C227.7,17.6,227.6,17.5,227.6,17.5"/>
	<path class="st0" d="M228.1,21c0.5-0.7,0.9-1.5,1.3-2.3c0.4-0.9,0.5-1.8,0.8-2.6c0-0.1,0.2-0.1,0.2,0c0,0.9-0.4,1.8-0.8,2.6
		c-0.4,0.8-0.9,1.7-1.5,2.4C228.2,21.1,228.1,21,228.1,21"/>
	<path class="st0" d="M279.2,36.8c1.5,0.8,3.2,1.3,4.8,1.7c0.8,0.2,1.6,0.3,2.4,0.5c0.8,0.1,1.7,0.1,2.6,0.3c0.1,0,0.1,0.2,0,0.3
		c-0.8,0.1-1.7,0-2.5-0.2c-0.9-0.1-1.7-0.3-2.5-0.5c-1.7-0.4-3.3-1.1-4.8-1.9C279,36.9,279.1,36.8,279.2,36.8"/>
	<path class="st0" d="M290.1,31.9c6.7-0.8,13-3.1,18.5-7c1.6-1.1,3-2.3,4.4-3.6c0.1-0.1,0.3,0.1,0.2,0.2c-4.8,4.7-11,8-17.5,9.6
		C293.8,31.5,292,31.8,290.1,31.9C290.1,32,290.1,31.9,290.1,31.9"/>
	<path class="st0" d="M274.6,36c0.5,0.4,1,0.6,1.6,0.9c0.1,0,0,0.2-0.1,0.1c-1.2-0.3-2.4-1.2-3.1-2.3
		C273.1,34.7,274.4,35.9,274.6,36"/>
	<path class="st0" d="M267.4,34.5c0.8,2.2,1.9,4.2,3.5,6c1.6,1.8,3.5,3.2,5.6,4.3c0.2,0.1,0,0.4-0.2,0.3c-4.2-2.1-7.9-6-9.1-10.6
		C267.3,34.5,267.4,34.4,267.4,34.5"/>
	<path class="st0" d="M238.9,30.6c-0.4,1.7-0.7,3.4-0.4,5.1c0.3,2.6,1.6,4.9,3,7c1.3,2,2.9,3.7,4.5,5.5c0.1,0.1-0.1,0.3-0.2,0.2
		c-1.5-1.5-2.9-3.2-4.1-4.9c-0.9-1.3-1.7-2.6-2.4-4.1c-0.8-1.9-1.3-4-1-6.1C238.3,32.4,238.6,31.5,238.9,30.6
		C238.8,30.6,238.9,30.6,238.9,30.6"/>
	<path class="st0" d="M264.7,14.9c2.9-4.7,8.1-7.7,13.7-7.7c0.3,0,0.2,0.4-0.1,0.4C273,7.6,267.7,10.4,264.7,14.9
		C264.7,14.9,264.7,14.9,264.7,14.9"/>
	<path class="st0" d="M261.1,25.5c3.8-6,8.8-12,15.5-14.7c1.8-0.7,3.8-1.3,5.8-1.2c0.2,0,0.2,0.3,0,0.3c-1.7,0.2-3.4,0.5-5,1.1
		c-1.6,0.6-3.2,1.4-4.6,2.3c-3,2-5.5,4.6-7.8,7.3c-1.3,1.6-2.5,3.3-3.7,5C261.2,25.7,261,25.6,261.1,25.5"/>
	<path class="st0" d="M270,20.1c2.8-4.9,7.5-9,12.8-10.9c0.2-0.1,0.3,0.3,0.1,0.4c-5.3,2.1-9.8,5.7-12.8,10.6
		C270.1,20.2,270,20.2,270,20.1"/>
	<path class="st0" d="M288.1,23.8c3.8-1.7,8.1-1.9,12.2-2.3c2.1-0.2,4.2-0.4,6.3-0.8c2.2-0.4,4.2-1.2,6.3-2.1
		c0.4-0.2,0.7,0.3,0.3,0.5c-3.4,2.1-7.7,2.5-11.6,2.9c-4.6,0.4-9,0.6-13.4,2C288.1,24,288,23.9,288.1,23.8"/>
	<path class="st0" d="M255,33.9c-0.7,3.8-0.1,7.4,2.4,10.4c0.2,0.3-0.2,0.6-0.4,0.4c-2.4-2.9-3.5-7.2-2.1-10.8
		C254.9,33.8,255,33.8,255,33.9"/>
	<path class="st0" d="M264.4,35.3c0.4,2.8,2.5,4.6,4.5,6.3c2,1.7,4,3.3,6,5.1c0.4,0.3-0.2,0.8-0.5,0.5c-2.2-1.9-4.5-3.8-6.6-5.8
		c-1.7-1.6-3.4-3.6-3.6-6.1C264.2,35.3,264.4,35.2,264.4,35.3"/>
	<path class="st0" d="M245.1,45.9c-2.9-3.5-4.7-8.4-4.3-12.9c0-0.1,0.1-0.1,0.1,0c0.1,2.3,0.3,4.6,1.1,6.9c0.7,2,1.8,3.9,3.1,5.5
		V45.9z"/>
	<polygon class="st1" points="5.7,69.7 21.4,96.8 37,69.7 42.7,69.7 42.7,118 36.5,118 36.5,83.1 21.4,109.2 6.3,83.1 6.3,118 
		0,118 0,69.7 	"/>
	<rect x="72.4" y="69.7" class="st1" width="6.3" height="48.3"/>
	<polygon class="st1" points="106.9,69.7 112.6,69.7 132.5,104.2 132.5,69.7 138.8,69.7 138.8,118 133.4,118 113.2,83.1 113.2,118 
		106.9,118 	"/>
	<polygon class="st1" points="181,75.9 181,118 174.7,118 174.7,75.9 163.4,75.9 163.4,69.7 192.2,69.7 192.2,75.9 	"/>
	<polygon class="st1" points="256.8,118 256.8,69.7 263,69.7 263,111.7 280.3,111.7 280.3,118 	"/>
	<path class="st1" d="M324,69.7l17.6,48.3H335l-6.2-17.1h-12.8l-6.2,17.1h-6.7l17.6-48.3H324z M326.5,94.7l-4.1-11.3l-4.1,11.3
		H326.5z"/>
	<path class="st1" d="M380.2,93.2c-3.4-1.1-6.2-2.8-8.3-4.9c-2.1-2.1-3.2-4.8-3.2-7.9c0-3.1,1.1-5.7,3.3-7.9c2.2-2.2,4.9-3.3,8-3.3
		c3.1,0,5.8,1.1,8,3.3c1.2,1.2,2.3,3.1,3.1,5.8l-5.7,2.2c-0.7-1.9-1.3-3.1-1.9-3.6c-1-1-2.2-1.4-3.6-1.4c-1.4,0-2.6,0.5-3.6,1.5
		c-1,1-1.5,2.2-1.5,3.6c0,1.4,0.5,2.6,1.5,3.6c1.1,1.1,2.6,2.1,4.6,3c3.8,1.2,7,3.2,9.6,5.8c3,2.9,4.4,6.5,4.4,10.6
		c0,4.2-1.5,7.7-4.4,10.7c-3,2.9-6.5,4.4-10.6,4.4c-4.2,0-7.7-1.5-10.7-4.4c-2.4-2.4-3.8-5.6-4.5-9.8l6.1-2.2
		c0.4,3.6,1.3,6.1,2.8,7.6c1.7,1.7,3.8,2.6,6.3,2.6c2.4,0,4.5-0.9,6.3-2.6c1.7-1.7,2.6-3.8,2.6-6.3c0-2.4-0.9-4.5-2.6-6.3
		C384.6,95.5,382.6,94.2,380.2,93.2"/>
	<polygon class="st1" points="445.8,69.7 445.8,75.9 426,75.9 426,90.7 445.8,90.7 445.8,97 426,97 426,111.7 445.8,111.7 
		445.8,118 419.7,118 419.7,69.7 	"/>
	<path class="st1" d="M484.6,102.5h-5.7V118h-6.3V69.7h13.7c3.9,0.5,7.2,2.1,9.8,4.8c3.2,3.2,4.8,7.1,4.8,11.6
		c0,4.6-1.6,8.4-4.8,11.7c-2.2,2.2-3.9,3.5-5.1,3.7l10.7,16.5h-7.6L484.6,102.5z M478.9,76v20.3h5.7c2.8,0,5.2-1,7.1-3
		c2-2,3-4.4,3-7.2c0-2.8-1-5.2-3-7.2c-2-2-4.4-3-7.1-3H478.9z"/>
</g>
</svg>
