<?xml version="1.0" encoding="utf-8"?>
<!-- Generator: Adobe Illustrator 21.0.2, SVG Export Plug-In . SVG Version: 6.00 Build 0)  -->
<svg version="1.1" id="Layer_1" xmlns="http://www.w3.org/2000/svg" xmlns:xlink="http://www.w3.org/1999/xlink" x="0px" y="0px"
	 viewBox="0 0 500 500" style="enable-background:new 0 0 500 500;" xml:space="preserve">
<style type="text/css">
	.st0{fill:#A93439;}
	.st1{fill:#FCB340;}
	.st2{fill:#DA2128;}
	.st3{fill:#FFFFFF;}
	.st4{fill:none;stroke:#FFFFFF;stroke-width:8;stroke-linecap:round;stroke-linejoin:round;stroke-miterlimit:10;}
	.st5{fill:#EF4038;}
	.st6{fill:#E8E7E7;}
	.st7{fill:#F47421;}
	.st8{fill:#424143;}
	.st9{fill:#FDCB9D;}
	.st10{fill:#EDBF9F;}
	.st11{fill:#DA6627;}
	.st12{fill:#E678AD;}
	.st13{fill:#C56397;}
	.st14{fill:#D5EEF5;}
	.st15{fill:#ADDEE2;}
	.st16{fill:#F8DDB9;}
	.st17{fill:#595A5C;}
	.st18{fill:#4B718C;}
	.st19{fill:#93CEEE;}
	.st20{fill:#84BCDB;}
	.st21{opacity:0.1;}
	.st22{fill:#231F20;}
	.st23{fill:#EA7575;}
	.st24{opacity:0.21;}
</style>
<g>
	<g>
		<circle class="st6" cx="249.2" cy="193.1" r="105.4"/>
	</g>
	<g>
		<ellipse class="st6" cx="242.5" cy="332.9" rx="27.5" ry="3"/>
	</g>
	<g>
		<g>
			<g>
				<path class="st7" d="M282.6,116.5c-5.6-6.3-6.6-13.8-7.1-21.9c0.1-0.2,0.1-0.4,0.1-0.7c-0.1-0.4-0.2-0.9-0.3-1.3
					c-0.1-0.3-0.4-0.6-0.7-0.7c-16.9-3.1-33.8,1.7-50.7,0.5c-0.8-0.1-1.1,0.7-0.8,1.3c0,0.1,0,0.2-0.1,0.3c-0.5,8.3-1.5,16-7.2,22.5
					c-3.8,4.3-8.2,8.5-8.3,14.6c-0.3,10.4,10.3,17,19.2,13.5c2.4,2.5,6.4,2.5,9.6,2.3c2.5-0.2,4.8-0.9,6.7-2.5
					c0.1,0.1,0.1,0.1,0.3,0.2c1.9,1,3.9,1.5,6,1.4c2,0,4.1-0.4,6-1.4c0.1-0.1,0.2-0.1,0.3-0.2c1.8,1.6,4.1,2.3,6.7,2.5
					c3.2,0.3,7.3,0.3,9.6-2.3c8.9,3.4,19.5-3.1,19.2-13.5C290.8,125,286.4,120.8,282.6,116.5z"/>
				<path class="st8" d="M233.9,148.4c-2.7,0-5.5-0.4-7.5-2.2c-4.6,1.5-9.7,0.7-13.7-2.2c-4.3-3-6.6-7.7-6.5-12.9
					c0.2-6,3.9-10.1,7.4-14.1c0.4-0.5,0.8-0.9,1.2-1.4c5.5-6.2,6.4-13.8,6.8-21.7c0-0.1,0-0.1,0-0.2c-0.1-0.6,0-1.3,0.4-1.8
					c0.4-0.6,1.1-0.9,1.9-0.8c7.1,0.5,14.5-0.1,21.5-0.7c9.6-0.8,19.5-1.6,29.3,0.2c0.8,0.2,1.6,0.9,1.7,1.7l0.3,1.3
					c0.1,0.4,0.1,0.8-0.1,1.1c0.5,7.2,1.4,14.7,6.8,20.8l0,0c0.4,0.5,0.8,0.9,1.2,1.4c3.6,4,7.3,8.1,7.4,14.1
					c0.1,5.2-2.2,9.9-6.5,12.9c-4.1,2.9-9.1,3.7-13.7,2.2c-2.7,2.3-6.8,2.3-10.1,2.1c-2.6-0.2-4.9-1-6.7-2.2c-2,0.9-4,1.4-6.1,1.3
					c-2.1,0-4.2-0.4-6.1-1.3c-1.8,1.3-4,2-6.7,2.2C235.6,148.3,234.8,148.4,233.9,148.4z M227.1,143.1l0.6,0.7
					c1.9,2.1,5.6,2.1,8.6,1.8c2.5-0.2,4.4-0.9,5.9-2.2l1-0.8l0.8,0.9c1.7,0.9,3.4,1.3,5.3,1.2l0,0l0,0c1.8,0,3.6-0.4,5.3-1.2
					l0.8-0.9l1,0.8c1.5,1.3,3.4,2,5.9,2.2c3,0.2,6.6,0.2,8.6-1.8l0.6-0.7l0.8,0.3c4,1.5,8.5,0.9,12-1.6c3.5-2.5,5.5-6.4,5.3-10.7
					c-0.1-5-3.3-8.6-6.8-12.4c-0.4-0.5-0.8-0.9-1.3-1.4l0,0c-6-6.8-7-14.9-7.5-22.7l0-0.4l0.1-0.2l-0.2-0.9
					c-9.4-1.7-19-0.9-28.3-0.1c-7,0.6-14.1,1.2-21.3,0.8l-0.1,0.3c-0.5,8.3-1.5,16.4-7.5,23.2c-0.4,0.5-0.8,0.9-1.3,1.4
					c-3.4,3.8-6.6,7.4-6.8,12.4c-0.1,4.3,1.8,8.2,5.3,10.7c3.6,2.5,8.1,3.1,12,1.6L227.1,143.1z M254.5,143.5L254.5,143.5
					L254.5,143.5z M244,143.5L244,143.5L244,143.5z M224.4,94.1C224.4,94.1,224.4,94.1,224.4,94.1C224.4,94.1,224.4,94.1,224.4,94.1
					z"/>
			</g>
			<g>
				<g>
					<g>
						<path class="st9" d="M249.9,151.7L249.9,151.7c-1.4,0-2.5-1.1-2.5-2.5v-10c0-1.4,1.1-2.5,2.5-2.5l0,0c1.4,0,2.5,1.1,2.5,2.5
							v10C252.4,150.6,251.3,151.7,249.9,151.7z"/>
						<path class="st8" d="M249.9,153c-2.1,0-3.9-1.7-3.9-3.9v-10c0-2.1,1.7-3.9,3.9-3.9s3.9,1.7,3.9,3.9v10
							C253.8,151.3,252,153,249.9,153z M249.9,138c-0.6,0-1.2,0.5-1.2,1.2v10c0,0.6,0.5,1.2,1.2,1.2s1.2-0.5,1.2-1.2v-10
							C251.1,138.5,250.6,138,249.9,138z"/>
					</g>
					<g>
						<path class="st9" d="M259.4,142h-19c-10.4,0-18.9-8.5-18.9-18.9V79.7c0-10.4,8.5-18.9,18.9-18.9h19c10.4,0,18.9,8.5,18.9,18.9
							v43.4C278.3,133.5,269.9,142,259.4,142z"/>
						<path class="st8" d="M249.9,143.3c-16.4,0-29.8-13.4-29.8-29.8V89.2c0-16.4,13.4-29.8,29.8-29.8s29.8,13.4,29.8,29.8v24.4
							C279.7,130,266.3,143.3,249.9,143.3z M249.9,62.1c-14.9,0-27.1,12.1-27.1,27.1v24.4c0,14.9,12.1,27.1,27.1,27.1
							s27.1-12.1,27.1-27.1V89.2C277,74.3,264.8,62.1,249.9,62.1z"/>
					</g>
				</g>
			</g>
			<g>
				<g>
					<path class="st10" d="M250.2,142v-1.3c-14.5-1.3-25.9-15.3-25.9-30.1V86.2c0-7.7,3-14.6,7.9-19.7c-6.4,5.2-10.5,13.1-10.5,22
						v24.4c0,14.9,11.4,27,25.9,28.3"/>
				</g>
			</g>
			<g>
				<g>
					<g>
						<path class="st8" d="M249.9,143.3c-16.4,0-29.8-13.4-29.8-29.8V89.2c0-16.4,13.4-29.8,29.8-29.8s29.8,13.4,29.8,29.8v24.4
							C279.7,130,266.3,143.3,249.9,143.3z M249.9,62.1c-14.9,0-27.1,12.1-27.1,27.1v24.4c0,14.9,12.1,27.1,27.1,27.1
							s27.1-12.1,27.1-27.1V89.2C277,74.3,264.8,62.1,249.9,62.1z"/>
					</g>
				</g>
			</g>
			<g>
				<g>
					<path class="st11" d="M249.4,59.3c-5.3,0.1-10.3,1.6-14.5,4.1c-1.3,0.2-2.6,0.4-4,0.5c-2.7,0.1-5.5,0-8.1,0.7
						c-7.3,2.1-10,10.1-9.4,17.1c0.7,8.3,5.7,15.6,14.7,15.6H252c11.9,0,13.3-4,16.3-10.3c1.1-2.3,3.7-2.9,5.7-1.9
						c1.2,0.6,1.9,1.8,2.1,3.1l2.3,16.8l1.4-15.3C279.8,73,266.1,59.1,249.4,59.3z"/>
					<path class="st8" d="M278.6,116.6l-3.9-28.3c-0.1-0.9-0.6-1.7-1.3-2.1c-0.7-0.4-1.5-0.4-2.2-0.2c-0.5,0.2-1.2,0.6-1.6,1.4
						l-0.3,0.7c-2.9,6-4.9,10.4-17.2,10.4h-23.9c-10.1,0-15.3-8.4-16.1-16.8c-0.6-7.5,2.3-16.1,10.3-18.5c2.2-0.6,4.4-0.7,6.6-0.7
						c0.6,0,1.2,0,1.8-0.1c1.2-0.1,2.3-0.2,3.6-0.4c4.6-2.6,9.7-4.1,15-4.2l0,0c8.3-0.1,16.1,3,22.2,8.9c6.1,6,9.6,14.3,9.6,22.8
						l0,0.1L278.6,116.6z M249.4,59.3l0,1.3c-4.9,0.1-9.7,1.4-13.9,3.9l-0.2,0.1l-0.2,0c-1.4,0.3-2.8,0.4-4.2,0.5
						c-0.6,0-1.3,0-1.9,0.1c-2.1,0-4,0.1-5.9,0.6c-6.6,1.9-8.9,9.2-8.4,15.7c0.6,6.6,4.4,14.3,13.4,14.3H252
						c10.6,0,12.1-3.1,14.8-8.8l0.3-0.7c0.6-1.4,1.8-2.4,3.2-2.8c1.4-0.5,3-0.4,4.3,0.3c1.5,0.8,2.5,2.3,2.8,4.1l0.7,5.3l0.3-3.7
						c0-7.8-3.2-15.3-8.8-20.8c-5.4-5.3-12.4-8.2-19.7-8.2c-0.2,0-0.3,0-0.5,0L249.4,59.3z"/>
				</g>
				<g>
					<path class="st7" d="M249.4,59.3c-5.3,0-10.3,1.6-14.5,4.1c-1.3,0.2-2.6,0.4-4,0.5c-2.7,0.1-5.5,0-8.1,0.7
						c-7.3,2.1-10,10.1-9.4,17.1c0.7,8.3,5.7,15.6,14.7,15.6H252c4.1,0,7-0.5,9.1-1.4c0-0.2-0.1-0.4-0.1-0.6
						c-0.2-1.3-0.8-2.5-1.8-3.3c-3.6-2.9-7.1-6.5-4.9-11.9c2.4-5.7,10.4-7.1,15.5-4.3c5.2,2.9,6.5,8.2,6.4,13.6l2.2,15.7l1.4-15.3
						C280.9,75.1,266.2,59.2,249.4,59.3z"/>
					<path class="st8" d="M278.6,116.6l-3.8-27.2l0-0.1c0.1-6.2-1.8-10.2-5.7-12.4c-2.5-1.4-5.9-1.6-8.8-0.6c-2.3,0.8-4,2.3-4.8,4.2
						c-1.7,4.2,0.4,7.1,4.5,10.4c1.2,1,2,2.5,2.3,4.2c0,0.2,0.1,0.4,0.1,0.5l0.2,1.1l-1,0.4c-2.4,1-5.4,1.5-9.6,1.5h-23.9
						c-10.1,0-15.3-8.4-16.1-16.8c-0.6-7.5,2.3-16.1,10.3-18.5c2.2-0.6,4.4-0.7,6.6-0.7c0.6,0,1.2,0,1.8-0.1
						c1.2-0.1,2.3-0.2,3.6-0.4c4.6-2.7,9.8-4.1,15-4.2l0,0c0.1,0,0.1,0,0.2,0c8.4,0,16.8,3.8,23.1,10.6c5.9,6.3,8.9,14,8.4,21.3
						L278.6,116.6z M249.4,60.7c-4.8,0-9.6,1.4-13.9,3.9l-0.2,0.1l-0.2,0c-1.4,0.3-2.8,0.4-4.2,0.5c-0.6,0-1.3,0-1.9,0.1
						c-2.1,0-4,0.1-5.9,0.6c-6.6,1.9-8.9,9.2-8.4,15.7c0.6,6.6,4.4,14.3,13.4,14.3H252c3.2,0,5.6-0.3,7.5-0.9
						c-0.2-0.8-0.6-1.5-1.2-2c-2.6-2.1-8.1-6.6-5.3-13.5c1.1-2.7,3.4-4.7,6.4-5.7c3.6-1.3,7.8-0.9,11,0.8c4.8,2.7,7.2,7.5,7.1,14.7
						l0.6,4.1l0.3-3.7c0.5-6.5-2.3-13.5-7.7-19.2C264.9,64.2,257.2,60.6,249.4,60.7L249.4,60.7z"/>
				</g>
			</g>
			<g>
				<path class="st8" d="M229.2,106.4c-0.2,0-0.3,0-0.5-0.1c-0.5-0.3-0.6-0.8-0.4-1.3c0-0.1,4.4-7.5,12.8-2.9
					c0.5,0.3,0.6,0.8,0.4,1.3c-0.3,0.5-0.8,0.6-1.3,0.4c-6.8-3.7-10.1,1.9-10.2,2.1C229.9,106.3,229.5,106.4,229.2,106.4z"/>
			</g>
			<g>
				<path class="st8" d="M267.9,106c-0.3,0-0.5-0.1-0.7-0.3c-5.3-5.5-10.2-1.2-10.4-1c-0.4,0.4-1,0.3-1.4-0.1c-0.4-0.4-0.3-1,0-1.4
					c0.1-0.1,6.4-5.8,13.1,1.1c0.4,0.4,0.4,1,0,1.4C268.4,105.9,268.1,106,267.9,106z"/>
			</g>
		</g>
		<g>
			<polygon class="st12" points="228.7,207.4 225.8,223.5 272.2,223.5 263.9,191.2 			"/>
		</g>
		<g>
			<polygon class="st13" points="258.7,200.5 266.3,224.3 272,223 265.4,195.4 			"/>
		</g>
		<g>
			<g>
				<polygon class="st8" points="274.3,225.4 222.7,225.4 229.9,196 233.6,196.9 227.6,221.6 269.5,221.6 263.9,196.8 267.1,193.8 
									"/>
			</g>
		</g>
		<g>
			<path class="st14" d="M245.9,166.4c0,0-12.4,1.1-22.4,13s-5.2,24.2,1.2,29.4s17.3,11.1,27.6,4.6s15-12.5,14.8-31.4
				S245.9,166.4,245.9,166.4z"/>
			<path class="st8" d="M242.4,217.5c-7.6,0-14.5-4.4-18.6-7.8c-4-3.3-6.8-8.5-7.3-13.9c-0.6-6,1.5-12,6-17.3
				c10-11.9,22.3-13.3,23.2-13.4c0.8-0.1,10.8-1.5,17.3,4c3.4,2.9,5.2,7.2,5.2,12.8c0.1,19.3-4.9,25.8-15.4,32.5
				C249.3,216.6,245.8,217.5,242.4,217.5z M246,167.6c-0.1,0-12.1,1.2-21.6,12.5c-4,4.8-5.9,10.2-5.4,15.5c0.5,4.8,2.8,9.3,6.4,12.2
				c5.4,4.4,16.1,10.9,26.1,4.5c10-6.3,14.4-12.2,14.3-30.4c0-4.8-1.5-8.5-4.4-10.9C255.7,166.1,246.2,167.6,246,167.6L246,167.6z"
				/>
		</g>
		<g>
			<path class="st15" d="M220.5,183.5c0,0,6.2,26,28.5,31.5l2.4-1.2l-11.1-6.5L229.4,197l-5.6-12.1l-1.9-3L220.5,183.5z"/>
		</g>
		<g>
			<path class="st15" d="M250.2,173.9c0,0,8.9,10.9,16.6,14.6l0.5-3.8c0,0-12-8.2-14.3-11.2L250.2,173.9z"/>
		</g>
		<g>
			<path class="st15" d="M230.5,172.8c0,0,14.9,28.3,31.5,32l1.3-3.4l-11.7-7.3l-10.6-9.9l-8.1-12.7L230.5,172.8z"/>
		</g>
		<g>
			<path class="st8" d="M252.8,214.4l-1.3-2.1c10-6.3,14.4-12.2,14.3-30.4l2.5,0C268.3,201.2,263.4,207.8,252.8,214.4z"/>
		</g>
		<g>
			<path class="st16" d="M284,151.7c0.6-2.3,0.9-4.6,0.9-7c0-16.1-13.1-29.2-29.2-29.2s-29.2,13.1-29.2,29.2s13.1,29.2,29.2,29.2
				c11.5,0,21.4-6.6,26.2-16.3c0.2,0.1,0.5,0.2,0.8,0.2c2.3,0.4,2.3-1.5,2.7-4C285.5,152.6,284.8,152,284,151.7z"/>
		</g>
		<g>
			<g>
				<path class="st8" d="M282.2,159.6c-0.7,0-1.5-0.2-2.2-0.5c-0.8-0.4-1.2-1.3-0.8-2.1c0.4-0.8,1.3-1.2,2.1-0.8
					c1.1,0.5,2.4,0,2.9-1.1c0.2-0.5,0.3-1.1,0.1-1.7c-0.2-0.6-0.6-1-1.2-1.2c-0.5-0.2-1-0.3-1.5-0.1c-0.8,0.2-1.7-0.2-2-1.1
					c-0.2-0.8,0.2-1.7,1.1-2c1.2-0.4,2.6-0.3,3.7,0.3c1.3,0.6,2.3,1.7,2.8,3c0.5,1.4,0.5,2.8-0.1,4.1
					C286.3,158.4,284.3,159.6,282.2,159.6z"/>
			</g>
		</g>
		<g>
			<g>
				<path class="st8" d="M251.1,131c-0.1,0-0.2,0-0.3,0c-2.1-0.5-3.7-1.8-4.5-3.6c-0.9-2.1-0.7-4.6,0.5-6.8c1-1.9,3.1-2.8,5.3-2.3
					c2.1,0.5,3.6,2.2,3.6,4c0,2.8-2.5,4.1-3.8,4.4c-0.7,0.2-1.4-0.3-1.6-1c-0.1-0.7,0.3-1.4,1-1.6c0.2,0,1.7-0.4,1.7-1.7
					c0-0.5-0.7-1.2-1.5-1.4c-0.6-0.1-1.7-0.2-2.3,0.9c-0.8,1.5-1,3.2-0.4,4.5c0.5,1.1,1.4,1.8,2.7,2.1c0.7,0.2,1.1,0.9,1,1.6
					C252.3,130.6,251.7,131,251.1,131z"/>
			</g>
		</g>
		<g>
			<g>
				<path class="st8" d="M238,146.9c-0.5,0-1-0.3-1.2-0.8c-0.3-0.7,0-1.5,0.7-1.8l6.7-2.9c0.7-0.3,1.5,0,1.8,0.7s0,1.5-0.7,1.8
					l-6.7,2.9C238.4,146.8,238.2,146.9,238,146.9z"/>
			</g>
		</g>
		<g>
			<g>
				<path class="st8" d="M266.3,148.7c-0.2,0-0.3,0-0.5-0.1l-7.8-3.3c-0.7-0.3-1-1.1-0.7-1.7c0.3-0.7,1.1-1,1.7-0.7l7.8,3.3
					c0.7,0.3,1,1.1,0.7,1.7C267.3,148.4,266.8,148.7,266.3,148.7z"/>
			</g>
		</g>
		<g>
			<g>
				<circle class="st8" cx="242.3" cy="150.5" r="2.4"/>
			</g>
		</g>
		<g>
			<g>
				<circle class="st8" cx="260.4" cy="152.2" r="2.4"/>
			</g>
		</g>
		<g>
			<g>
				<ellipse class="st8" cx="250.2" cy="156" rx="2.8" ry="1.8"/>
			</g>
		</g>
		<g>
			<g>
				<path class="st8" d="M250.7,163.2c-2,0-4-1-5.8-3l0,0c-0.3-0.2-0.5-0.6-0.5-1c0-0.6,0.3-1.1,0.9-1.3c0.9-0.3,1.4,0.3,1.6,0.5
					c2.3,2.5,4.6,2.7,7.1,0.6c0.6-0.5,1.4-0.4,1.9,0.2c0.5,0.6,0.4,1.4-0.2,1.9C254.1,162.5,252.4,163.2,250.7,163.2z"/>
			</g>
		</g>
		<g>
			<path class="st10" d="M259.9,172.5c-16.1,0-29.2-13.1-29.2-29.2c0-11.4,6.5-21.2,16-26c-11.7,3.8-20.2,14.8-20.2,27.8
				c0,16.1,13.1,29.2,29.2,29.2c4.8,0,9.2-1.1,13.2-3.2C266,172,263,172.5,259.9,172.5z"/>
		</g>
		<g>
			<g>
				<path class="st8" d="M255.8,175.5c-17,0-30.8-13.8-30.8-30.8s13.8-30.8,30.8-30.8c17,0,30.8,13.8,30.8,30.8
					S272.8,175.5,255.8,175.5z M255.8,117.1c-15.2,0-27.6,12.4-27.6,27.6s12.4,27.6,27.6,27.6c10.6,0,19.9-6.1,24.5-14.9
					c2.8,0.6,10.1-2.6,2.5-6.9c0.4-1.9,0.6-3.8,0.6-5.7C283.4,129.5,271,117.1,255.8,117.1z"/>
			</g>
		</g>
		<g>
			<path class="st8" d="M254.3,186c-22.1-6.1-34.1-13.7-35.8-22.6c-1.5-8.3,6.5-14.3,6.8-14.6l1.5,2c-0.1,0.1-7.1,5.4-5.9,12.2
				c1,5.4,7.7,13.5,34,20.7L254.3,186z"/>
		</g>
		<g>
			<path class="st8" d="M239,194.2l-0.4-2.2c33.2-5.4,39.3-12.3,40-15.9c0.8-4.2-4.7-7.6-4.8-7.6l1.2-1.9c0.3,0.2,6.9,4.2,5.8,9.9
				C279.4,183.9,265.3,189.9,239,194.2z"/>
		</g>
		<g>
			<rect x="236.8" y="223.5" class="st8" width="3.8" height="107.1"/>
		</g>
		<g>
			<path class="st8" d="M261,314.4c-7.7-13.3-12.8-26.4-15.1-38.9c-1.8-10.1-1.9-19.8-0.1-28.9c3-15.6,10.3-24,10.6-24.3l2.9,2.5
				c-0.1,0.1-6.9,8.1-9.7,22.8c-2.6,13.6-2.1,35.9,14.8,65L261,314.4z"/>
		</g>
		<g>
			<path class="st8" d="M258.1,324.8c-0.3,0-0.7-0.1-1-0.3c-0.9-0.5-1.2-1.7-0.7-2.6l7.7-12.8c0.5-0.9,1.7-1.2,2.6-0.7
				c0.9,0.5,1.2,1.7,0.7,2.6l-7.7,12.8C259.4,324.5,258.8,324.8,258.1,324.8z"/>
		</g>
		<g>
			<path class="st8" d="M242,332.6C241.9,332.6,241.9,332.6,242,332.6l-14.9-0.2c-1.1,0-1.9-0.9-1.9-1.9c0-1.1,0.9-1.9,1.9-1.9
				l14.9,0.2c1.1,0,1.9,0.9,1.9,1.9C243.9,331.8,243,332.6,242,332.6z"/>
		</g>
		<g>
			<path class="st8" d="M263.4,202.4c-24.4-11.5-31.4-30.1-31.6-30.9l2.3-0.8c0.1,0.2,6.9,18.5,30.4,29.5L263.4,202.4z"/>
		</g>
		<g>
			<path class="st8" d="M251.2,214.8c-14-6-21.4-15-25-21.5c-4-7.1-4.7-12.7-4.7-12.9l2.4-0.3c0,0.1,0.7,5.4,4.4,12.1
				c3.5,6.1,10.5,14.6,23.8,20.3L251.2,214.8z"/>
		</g>
		<g>
			<g>
				<path class="st8" d="M267.5,187.3c-10-6.2-15.2-12.1-15.4-12.3l1.9-1.5c0,0,4,5.1,13.6,11L267.5,187.3z"/>
			</g>
		</g>
		<g>
			<path class="st8" d="M242.4,217.5c-7.6,0-14.5-4.4-18.6-7.8c-4-3.3-6.8-8.5-7.3-13.9c-0.6-6,1.5-12,6-17.3
				c4.1-4.9,9.1-8.6,14.8-11l1,2.3c-5.3,2.3-10,5.8-13.9,10.4c-4,4.8-5.9,10.2-5.4,15.5c0.5,4.8,2.8,9.3,6.4,12.2
				c5.4,4.4,16.1,10.9,26.1,4.5c10-6.3,14.4-12.2,14.3-30.4c0-3.2-0.7-5.9-2-8.1l2.1-1.3c1.5,2.5,2.3,5.7,2.3,9.3
				c0.1,19.3-4.9,25.8-15.4,32.5C249.3,216.6,245.8,217.5,242.4,217.5z"/>
		</g>
	</g>
	<g>
		<path class="st17" d="M125.8,439.3c1,2.4-3.6,3.9-4.3,1.4c-4.4-13.3-4.7-29.9-5.6-47c-0.2-4.9-0.2-10-0.6-14.4h-0.2
			c-0.3,4.4-0.6,9.4-0.8,14.7c-0.8,14.8-1.4,31.8-3.2,44.2c-0.2,1.4-2.6,3.1-3.2,1c-3.3-11.3-5-34.8-6-50.8l-1-11.9h-0.3
			c-0.1,4.3,0.1,7.1,0.1,12.1c0,16.7,0.2,35.6-1.4,50c-0.7,3.8-4.7,3.7-4.3,0.6c2.9-24.8-0.7-48.1,3.9-72.9c0.6-2.9,4.4-3.9,4.7-0.1
			c0.8,12.3,2,22.6,3.2,34.9c0.7,6.8,1.4,19.2,2.2,27.8h0.1c0.6-7.3,1-17,1.6-26.9c0.9-15.3,2-28.9,3.7-36.2c0.6-2.2,4.3-2,4,0
			C120.5,385.3,121.1,427.7,125.8,439.3z"/>
		<path class="st17" d="M152.7,405.9c0,13-1,32-9,34.1c-2.2,0.6-5-0.6-7-3.8c-2.8-4.8-5.2-17.5-5.8-31.3c-0.4-13.6,1-28.2,5.8-37.8
			c-3-1.9,0.9-6.1,4-3.7C152.3,372.6,152.7,393.1,152.7,405.9z M135.7,404.5c0.6,13.4,2.9,25,4.1,27.3c1.7,3.1,3.6,4.2,4.7,1.7
			c5.7-14.3,4.6-51.5-4.3-63.7C136.1,379.4,135.3,392.7,135.7,404.5z"/>
		<path class="st17" d="M178.3,363.9c3.7,0,1.7,4.4-1.2,4.4c-2.7,0-5.6-0.1-8.1-0.1c2.3,19.3,0.1,49.8,0.1,69.2
			c-0.1,2.8-4.8,3.7-4.8,0.9c0-19.3,2.3-50.9,0-70.2c-1.6-0.3-4.1-0.2-8.1-0.2c-3.8,0-1.7-4.6,1.2-4.6
			C164.4,363.5,171.3,363.8,178.3,363.9z"/>
		<path class="st17" d="M208.2,437.2c0.3,3.2-4.4,4.2-4.6,0.6c-0.3-8-1.1-15.9-2-23.8h-8c0.3,3.1,0.7,6.2,0.8,9.4
			c0.2,5.7-0.1,9.1-0.1,14.8c0,3-4.7,4.4-4.7,0.8c0-6.2,0.6-10.3,0-16.4c-0.2-2.9-0.6-5.8-0.9-8.6h-2.7c-3.8,0-1.8-4.6,1.2-4.6h1
			c-0.1-1.7-0.3-3.4-0.3-5.1c-0.7-12.7-0.4-25.3-0.8-38c0-3,4.7-4.6,4.8-0.8c0.3,12.9-0.1,25.9,0.8,38.8c0.1,1.8,0.2,3.4,0.4,5.1
			h8.1c-1.2-14.9-2.2-28.3-1.9-43.2c0-3.2,4.6-4.3,4.6-0.6C203.5,388.9,206.3,413.5,208.2,437.2z"/>
		<path class="st17" d="M232.3,368.5c-3.1,0-6.3-0.2-9.4-0.3c0.6,9.9,0,18.6,1,28.5c2.7,0.2,5.6,0.6,7.9-0.7c3.1-1.6,5.2,2.1,2,3.8
			c-3.2,1.7-6.4,1.6-9.8,1.4c0,1.1,0,2.3,0.1,3.4c0.1,5.6,0.4,11.1,0.4,16.8c-0.1,4.8-0.3,9.7,0.6,14.3c3.3-0.8,7-1.2,10.9-1.2
			c4.1,0,2.8,4.4-1.3,4.2c-3.4-0.2-9.1,1.3-12.4,1.3c-0.9,0-1.8-0.6-2-1.4c-1.3-5.2-1.2-10.6-1.2-16c0.1-5.9-0.2-11.8-0.4-17.7
			c-0.3-12.3-0.4-24.2-1-36.6c-2.7-0.4-4.4-3.7,0.3-4.3c4.9-0.7,9.6,0.3,14.4,0C236,363.8,235.7,368.5,232.3,368.5z"/>
		<path class="st17" d="M265.2,390.4c-1.7,5.2-4.9,9.2-10.6,10.4c8.8,10.9,3.6,27.3,15.1,36.9c2.6,2.1-1.1,5.4-3.2,3.8
			c-12.1-9.6-8.2-31-16.2-39.2c0,12.2,0.6,23.5,1.1,35.3c0.1,3.7-4.8,3.2-5,0.8c-0.6-23.6-1.6-46.3-0.1-69.9c-4.8,1-7-2.4-2.1-3.9
			C261.6,359.5,269.3,376.5,265.2,390.4z M250.4,397.1c6.4,1,9.8-4.1,10.8-9.2c1.7-7.4-1.4-17.5-9.8-19.5
			C251.4,370.7,250.6,384.4,250.4,397.1z"/>
		<path class="st17" d="M316.7,437.2c0.3,3.2-4.4,4.2-4.6,0.6c-0.3-8-1.1-15.9-2-23.8h-8c0.3,3.1,0.7,6.2,0.8,9.4
			c0.2,5.7-0.1,9.1-0.1,14.8c0,3-4.7,4.4-4.7,0.8c0-6.2,0.6-10.3,0-16.4c-0.2-2.9-0.6-5.8-0.9-8.6h-2.7c-3.8,0-1.8-4.6,1.2-4.6h1
			c-0.1-1.7-0.3-3.4-0.3-5.1c-0.7-12.7-0.4-25.3-0.8-38c0-3,4.7-4.6,4.8-0.8c0.3,12.9-0.1,25.9,0.8,38.8c0.1,1.8,0.2,3.4,0.4,5.1
			h8.1c-1.2-14.9-2.2-28.3-1.9-43.2c0-3.2,4.6-4.3,4.6-0.6C312,388.9,314.8,413.5,316.7,437.2z"/>
		<path class="st17" d="M343.1,367.2c0.1,11.7,2.3,29.9,2.4,46.8c0.1,11.6-1,29-9.4,25.9c-8.1-3-8.4-18-8.8-28.2
			c-0.6-14.1-1-30.8-1.6-44.9c-0.1-3.2,4.6-4.6,4.7-0.8c0.4,12.9,1.3,28.2,1.3,41.1c0,19.7,3,30,5.4,28.9c6.8-2.8,1.3-59.7,1.3-69.6
			C338.6,362.6,343.1,364,343.1,367.2z"/>
		<path class="st17" d="M373.8,378c0,2.2-4,3.8-4.3,0.6c-0.7-10.1-4.3-11.1-6.8-9.2c-3.4,2.7-3.6,16.1-3.7,19.8
			c-0.3,10-0.7,40.2,4.6,45.9c7.9,4.9,6.9-13,7-16.6c0.1-5.1,0.4-10.3,0-14.7c-2.4,0.1-2.8,0.1-5.2,0.1c-3.2,0-3.2-4.4-0.7-4.4
			c3.2,0,3.8-0.2,7-0.4c2-0.1,3.9,0.4,3.9,2.6c0,4.7,0.1,22.9-0.3,27.6c-1,11.2-13,15-17.8,5.4c-2.4-4.8-3-10.8-3.3-16.1
			c-0.6-8.9-3.6-51.4,6.8-54.1C367.9,362.6,373.4,367.6,373.8,378z"/>
		<path class="st17" d="M401.6,383.2c-0.4,6-4,4.8-4,2.6c0-5.2-2.8-11.2-6-15.3c-4.2-5.1-3.2,2.1-2.8,5.2
			c2.3,14.9,11.8,24.6,14.4,38.6c1.8,9,0.8,25.3-6.7,25.9c-11,0.9-12.7-19.7-11.3-33.1c0.4-3.4,4.7-3.3,4.3,0.2
			c-0.8,6.8-0.4,23.6,4.3,26.8c6.3,4.8,5.9-12.6,4-21.3c-2.1-9.9-8.7-21.5-11.9-30.9c-6.7-19.7,5.7-25.8,11.7-7.8
			c-0.1-3.1-0.4-6.1-0.6-8.7c0-3.9,4.6-3.2,4.6-0.8C401.8,370.2,402,377.2,401.6,383.2z"/>
	</g>
	<g>
		<g>
			<path class="st12" d="M423.6,393.6c0.5,3.3,2,6.4,3.6,9.3c2.6,4.7,5.7,9.4,9.4,13.5c-0.2,0.1-0.3,0.4-0.2,0.7
				c0.3,0.7,1,1.2,1.5,1.8c0.2,0.2,0.5,0.2,0.7,0c3.3-2.9,5.9-6.5,8.9-9.8c3.2-3.5,6.9-6.9,8.7-11.3c1.7-4.1,1.3-9.6-2.3-12.6
				c-3.7-3-8.4-0.5-10.8,2.9c-1.7,2.6-2.4,5.6-2.4,8.6c-0.1-0.2-0.2-0.4-0.3-0.6c-0.6-3.1-1.9-5.9-4.8-7.8c-0.3-0.2-0.7-0.4-1-0.6
				c-1.2-1.1-2.6-2.1-4.1-2.4c-1.8-0.4-3.7,0.2-5.1,1.4C423.5,388.5,423.2,391.2,423.6,393.6z M429.7,403.5
				c-1.9-3.8-3.7-8.7-2.4-12.9c0.4-1.5,1.4-3,3.1-3c1.3,0,2.6,0.4,3.8,1.1c1.2,1.2,2.3,2.7,3.1,3.8c0.8,1.3,1.6,2.6,2.3,4
				c0.3,1.7,0.5,3.4,0.7,5.1c0.1,0.6,0.8,0.7,1,0.1c0-0.1,0.1-0.2,0.1-0.3c0.1,0.2,0.1,0.5,0.2,0.7c0.2,0.7,1.1,0.4,1-0.3
				c-0.1-0.4-0.2-0.9-0.3-1.3c-0.1-0.4-0.1-0.7-0.2-1.1c0.7-2,1.6-4,2.7-5.9c1.2-2,2.7-4.2,4.8-5.4c1.2-0.7,3.5-1.8,4.5-0.1
				c1.2,1.9,0.6,4.8,0,6.8c-0.8,2.5-1.9,4.9-3.3,7.1c-2.2,3.6-4.9,7-8.2,9.7c-1.4,1.1-2.8,2.2-4.1,3.3c-0.2,0.2-0.5,0.4-0.8,0.7
				C434.6,411.6,431.8,407.8,429.7,403.5z M452.9,385.8c0.2,0.2,0.5,0.4,0.7,0.6c-1.8-0.8-4.3,0.3-5.9,1.7c-2.7,2.3-4.5,5.5-5.9,8.9
				c0-4,1.2-8.2,4.6-10.6C448.4,384.9,450.9,384.4,452.9,385.8z M449.5,405.6c-0.4,0.4-0.8,0.8-1.1,1.2c1.3-1.6,2.4-3.3,3.4-5
				c1.3-2.1,2.4-4.4,3.1-6.8c0.5-1.8,1-3.9,0.6-5.8c0.5,1.1,0.7,2.3,0.8,3.5C456.4,397.8,452.8,402,449.5,405.6z M438.2,417.9
				C438.2,417.9,438.2,417.8,438.2,417.9c0.2-0.2,0.5-0.5,0.2-0.8c-0.2-0.2-0.3-0.4-0.5-0.7c0.1-0.1,0.3-0.3,0.4-0.4
				c0.5-0.5,1.1-1,1.6-1.4c1.2-1,2.4-1.9,3.6-2.8c0.5-0.4,1.1-0.9,1.6-1.4c-0.3,0.4-0.7,0.8-1,1.2
				C442.3,413.7,440.4,415.9,438.2,417.9z M424.5,391.8c0-2.7,1.5-5.1,4.3-5.5c0.7-0.1,1.3,0,2,0.1c-0.3,0-0.7,0-1,0.1
				c-1.6,0.3-2.6,1.4-3.2,2.8c-1.7,4-0.3,9.1,1.4,12.9c-0.2-0.4-0.4-0.8-0.6-1.2C425.9,398.3,424.5,395.1,424.5,391.8z"/>
		</g>
	</g>
	<g>
		<g>
			<path class="st12" d="M74.5,386.8c-1.4-1.2-3.3-1.8-5.1-1.4c-1.6,0.3-3,1.3-4.1,2.4c-0.4,0.2-0.7,0.4-1,0.6
				c-2.9,1.9-4.1,4.7-4.8,7.8c-0.1,0.2-0.2,0.4-0.3,0.6c0-3-0.7-6-2.4-8.6c-2.3-3.5-7.1-6-10.8-2.9c-3.6,3-4,8.5-2.3,12.6
				c1.9,4.5,5.5,7.8,8.7,11.3c3,3.3,5.6,6.8,8.9,9.8c0.2,0.2,0.5,0.2,0.7,0c0.6-0.5,1.2-1,1.5-1.8c0.1-0.3,0-0.6-0.2-0.7
				c3.6-4.1,6.8-8.8,9.4-13.5c1.6-2.9,3-6,3.6-9.3C76.8,391.2,76.5,388.5,74.5,386.8z M62.6,415.5c-0.3-0.3-0.6-0.6-0.8-0.7
				c-1.3-1.2-2.7-2.2-4.1-3.3c-3.3-2.6-6-6.1-8.2-9.7c-1.4-2.2-2.6-4.6-3.3-7.1c-0.6-2-1.2-4.8,0-6.8c1-1.6,3.3-0.6,4.5,0.1
				c2,1.3,3.5,3.4,4.8,5.4c1.1,1.9,2,3.9,2.7,5.9c0,0.4-0.1,0.8-0.2,1.1c-0.1,0.4-0.2,0.9-0.3,1.3c-0.1,0.6,0.8,0.9,1,0.3
				c0.1-0.2,0.1-0.5,0.2-0.7c0,0.1,0.1,0.2,0.1,0.3c0.2,0.6,1,0.4,1-0.1c0.2-1.7,0.3-3.4,0.7-5.1c0.7-1.4,1.5-2.8,2.3-4
				c0.8-1.2,1.8-2.6,3.1-3.8c1.2-0.7,2.5-1.1,3.8-1.1c1.7,0.1,2.7,1.6,3.1,3c1.2,4.3-0.6,9.1-2.4,12.9
				C68.2,407.8,65.4,411.6,62.6,415.5z M53.6,386.2c3.4,2.4,4.6,6.6,4.6,10.6c-1.4-3.3-3.2-6.5-5.9-8.9c-1.6-1.4-4.1-2.5-5.9-1.7
				c0.2-0.2,0.4-0.4,0.7-0.6C49.1,384.4,51.6,384.9,53.6,386.2z M43.8,392.6c0-1.2,0.3-2.4,0.8-3.5c-0.4,1.9,0.1,4,0.6,5.8
				c0.7,2.4,1.8,4.7,3.1,6.8c1,1.7,2.1,3.4,3.4,5c-0.4-0.4-0.8-0.8-1.1-1.2C47.2,402,43.6,397.8,43.8,392.6z M55.8,411.5
				c-0.3-0.4-0.7-0.8-1-1.2c0.5,0.5,1.1,1,1.6,1.4c1.2,1,2.4,1.9,3.6,2.8c0.6,0.5,1.1,0.9,1.6,1.4c0.1,0.1,0.3,0.3,0.4,0.4
				c-0.2,0.2-0.3,0.4-0.5,0.7c-0.2,0.3,0,0.6,0.3,0.7c0,0,0,0-0.1,0.1C59.6,415.9,57.7,413.7,55.8,411.5z M72.6,401.1
				c-0.2,0.4-0.4,0.8-0.6,1.2c1.7-3.8,3.1-8.9,1.4-12.9c-0.6-1.4-1.7-2.5-3.2-2.8c-0.3-0.1-0.7-0.1-1-0.1c0.6-0.2,1.3-0.2,2-0.1
				c2.8,0.4,4.3,2.9,4.3,5.5C75.5,395.1,74.1,398.3,72.6,401.1z"/>
		</g>
	</g>
</g>
</svg>
